110
Lattice="9.999966 0.0 0.0 0.0 9.999991 0.0 0.0 0.0 10.000004" Properties=species:S:1:pos:R:3
C 2.3477891 4.583169 1.559899
O 3.2144051 4.1656051 0.500126
N 2.0183799 5.795321 1.883211
N 2.228241 3.6015861 2.5624931
H  0.24049 3.6687231 8.142436
H  8.4458218 8.5020933 8.3429804
H  9.6674423 1.823188 0.5106581
H  2.162051 7.9293972 4.347311
O 5.3447871 1.302601 4.2514382
H  5.672555 0.845731 5.014369
H  3.6309049 1.035852 9.9627428
O 0.128835 1.301875 9.8415146
H  7.0499349 2.388731 8.9737244
H  9.1365328 7.180109 1.607512
O 8.2809782 9.2132979 8.9574348
H  8.8365412 9.0303736 9.7623043
H  9.3665838 0.828184 9.3731051
O 0.09877 4.4233089 4.558219
H  1.2238621 8.13309 9.9597312
H  3.7099149 8.1347847 4.4250059
O 9.2108917 3.415242 1.788919
H  9.5066605 4.0780339 2.461217
H  8.2021723 3.1935389 1.948603
O 6.1990638 0.669008 9.3094196
H  6.826119 9.8417768 9.2051878
H  8.4439287 8.7165699 4.0799499
O 2.8789872 4.7918391 6.5026069
H  2.1521599 4.2066922 6.706132
H  5.1577559 8.8960848 6.696507
O 0.760689 3.1361091 7.5544529
H  4.5706749 4.435597 7.312202
H  3.3684399 3.712054 3.497145
O 5.811049 5.4342928 3.588944
H  5.2840562 9.3413162 0.255947
H  6.0593991 5.268703 1.829214
O 8.3082295 7.5812812 1.388329
H  7.6261091 6.8869172 1.171268
H  7.888856 2.7979341 6.336998
O 7.0854468 3.389874 9.2827206
H  5.5925722 6.4162288 3.6229711
H  2.177413 6.6106229 1.166605
O 5.1934862 7.9281158 6.7530928
H  5.0932002 4.858356 3.9033862
H  3.119607 3.1909261 0.271397
O 3.6680701 6.6900611 9.0100698
H  0.41724 9.3188563 6.543839
H  3.0940199 5.945304 8.8551026
O 2.887032 0.965894 2.6404109
H  3.1639099 4.504951 5.533629
H  0.938897 6.8163009 7.7919832
O 4.0609031 3.6560381 4.3799758
H  4.6470208 2.868373 4.3085599
H  6.2134652 8.6846066 3.4614861
O 0.592955 6.9667358 8.6688051
H  0.019034 6.1986742 8.9385406
H  5.183322 7.992703 2.4023869
O 0.463923 7.5282212 4.2220988
H  0.662999 7.831758 3.300607
H  0.479412 6.541842 4.0402541
O 0.367961 0.644579 3.768122
H  4.3865829 1.072665 4.1048102
H  0.145984 0.150757 4.597179
O 4.8356872 8.7276268 0.843953
H  6.4521222 1.921476 3.0955751
H  4.1938162 8.2245665 0.246293
O 1.640064 9.0276489 0.288592
H  2.487664 9.3635769 6.041245
H  0.84897 9.6223746 0.323899
O 4.9984908 0.870009 6.8997842
H  4.0585899 0.46403 6.9007212
H  4.7020412 7.574811 7.417006
O 5.3578272 3.7858901 7.3398252
H  5.6441808 0.586527 8.4787483
H  5.8697272 4.070385 6.5500732
O 7.9369932 9.2671833 3.410609
H  3.0507679 0.343414 1.950193
H  8.0856876 8.6409655 2.617817
O 7.31042 4.624053 5.6268401
H  6.9375548 4.855886 4.7580161
H  7.6872483 5.4756952 5.9990592
O 8.4402418 2.0499411 6.7387648
H  9.2791176 2.422031 6.880363
H  9.1920796 4.183506 4.931893
O 2.8785492 8.5412531 4.7219639
H  0.67582 3.7944031 5.1024771
H  9.5789814 1.130661 3.6397059
O 5.4190588 8.0198011 3.356355
H  2.213171 2.6799591 2.0994329
H  6.2828989 4.944417 0.211296
O 6.3921142 5.602839 0.880684
H  4.914422 1.807326 6.704648
H  2.0233669 0.707608 3.1267581
O 2.9355842 1.703542 9.676466
H  2.1051669 1.1261441 9.644701
H  6.3809862 3.750103 8.6284752
O 7.9171848 7.0049362 7.206851
H  7.0887232 7.4755211 7.263587
H  8.5438586 7.6690202 6.672523
O 9.3586064 4.6163812 9.3013783
H  9.2782211 4.2299018 0.268543
H  8.4885502 4.2692971 8.9671154
O 6.7405801 2.5155611 2.335294
H  6.7384911 1.967803 1.530435
H  1.206476 2.461787 8.0160065
O 9.509778 9.335289 6.2300201
H  9.1811667 0.253258 6.5213099
H  4.1727328 6.369637 9.7576409
O 2.2814441 0.049209 6.7691059
H  2.375922 9.5930453 7.651279
H  1.37194 3.7047501 3.074569
