RUNNING THE L-BFGS-B CODE

           * * *

Machine precision = 2.220D-16
 N =          288     M =           10

At X0         0 variables are exactly at the bounds

At iterate    0    f=  1.73434D+01    |proj g|=  3.42237D-01

At iterate    1    f=  1.56121D+01    |proj g|=  3.88991D-01

At iterate    2    f=  1.46490D+01    |proj g|=  4.60657D-01

At iterate    3    f=  1.44177D+01    |proj g|=  3.25708D-01

At iterate    4    f=  1.43017D+01    |proj g|=  3.09551D-01

At iterate    5    f=  1.41160D+01    |proj g|=  5.35089D-01

At iterate    6    f=  1.27949D+01    |proj g|=  9.83518D-01

At iterate    7    f=  1.24130D+01    |proj g|=  2.04544D+00

At iterate    8    f=  1.23970D+01    |proj g|=  1.98216D+00

At iterate    9    f=  1.23052D+01    |proj g|=  2.57557D+00

At iterate   10    f=  1.11859D+01    |proj g|=  9.96355D-01

At iterate   11    f=  1.08836D+01    |proj g|=  5.36325D+00

At iterate   12    f=  1.08255D+01    |proj g|=  2.13544D+00

At iterate   13    f=  1.06733D+01    |proj g|=  1.70699D+00

At iterate   14    f=  1.05855D+01    |proj g|=  1.15513D+00

At iterate   15    f=  1.05409D+01    |proj g|=  9.70993D-01

At iterate   16    f=  1.01980D+01    |proj g|=  1.01596D+00

At iterate   17    f=  9.94399D+00    |proj g|=  1.71850D+00

At iterate   18    f=  9.77873D+00    |proj g|=  3.37887D+00

At iterate   19    f=  9.53775D+00    |proj g|=  2.19265D+00

At iterate   20    f=  9.25641D+00    |proj g|=  3.61282D+00

At iterate   21    f=  9.13514D+00    |proj g|=  8.76078D-01

At iterate   22    f=  9.10885D+00    |proj g|=  1.04578D+00

At iterate   23    f=  9.01821D+00    |proj g|=  5.70284D-01

At iterate   24    f=  8.92237D+00    |proj g|=  1.02939D+00

At iterate   25    f=  8.71832D+00    |proj g|=  1.17630D+00

At iterate   26    f=  8.54609D+00    |proj g|=  1.19332D+00

At iterate   27    f=  8.33779D+00    |proj g|=  1.22121D+00

At iterate   28    f=  8.18054D+00    |proj g|=  2.33301D+00

At iterate   29    f=  7.73190D+00    |proj g|=  1.04397D+00

At iterate   30    f=  7.22390D+00    |proj g|=  1.21497D+00

At iterate   31    f=  6.96015D+00    |proj g|=  2.29757D+00

At iterate   32    f=  6.61436D+00    |proj g|=  1.40612D+00

At iterate   33    f=  6.38447D+00    |proj g|=  1.18270D+00

At iterate   34    f=  6.18528D+00    |proj g|=  1.04906D+00

At iterate   35    f=  5.99079D+00    |proj g|=  1.12039D+00

At iterate   36    f=  5.82255D+00    |proj g|=  7.45338D-01

At iterate   37    f=  5.59142D+00    |proj g|=  8.76249D-01

At iterate   38    f=  5.43464D+00    |proj g|=  4.98639D-01

At iterate   39    f=  5.27452D+00    |proj g|=  4.61339D-01

At iterate   40    f=  5.19566D+00    |proj g|=  6.74510D-01

At iterate   41    f=  5.14538D+00    |proj g|=  9.32638D-01

At iterate   42    f=  4.98324D+00    |proj g|=  3.86878D-01

At iterate   43    f=  4.75601D+00    |proj g|=  3.55566D-01

At iterate   44    f=  4.45619D+00    |proj g|=  6.08637D-01

At iterate   45    f=  4.29678D+00    |proj g|=  8.51398D-01

At iterate   46    f=  4.11631D+00    |proj g|=  4.85507D-01

At iterate   47    f=  4.08942D+00    |proj g|=  8.32812D-01

At iterate   48    f=  3.88614D+00    |proj g|=  4.52098D-01

At iterate   49    f=  3.72835D+00    |proj g|=  2.54036D-01

At iterate   50    f=  3.64538D+00    |proj g|=  7.12185D-01

At iterate   51    f=  3.49901D+00    |proj g|=  4.01881D-01

At iterate   52    f=  3.40010D+00    |proj g|=  3.68449D-01

At iterate   53    f=  3.35462D+00    |proj g|=  3.63306D-01

At iterate   54    f=  3.23589D+00    |proj g|=  4.77069D-01

At iterate   55    f=  3.20413D+00    |proj g|=  8.62658D-01

At iterate   56    f=  3.05798D+00    |proj g|=  6.70388D-01

At iterate   57    f=  2.98029D+00    |proj g|=  3.17657D-01

At iterate   58    f=  2.89519D+00    |proj g|=  5.31762D-01

At iterate   59    f=  2.83089D+00    |proj g|=  3.80756D-01

At iterate   60    f=  2.77176D+00    |proj g|=  3.80698D-01

At iterate   61    f=  2.74573D+00    |proj g|=  7.01362D-01

At iterate   62    f=  2.67868D+00    |proj g|=  5.04646D-01

At iterate   63    f=  2.61977D+00    |proj g|=  1.96956D-01

At iterate   64    f=  2.57117D+00    |proj g|=  2.38207D-01

At iterate   65    f=  2.52800D+00    |proj g|=  4.34700D-01

At iterate   66    f=  2.46467D+00    |proj g|=  5.69608D-01

At iterate   67    f=  2.42641D+00    |proj g|=  7.74546D-01

At iterate   68    f=  2.37168D+00    |proj g|=  7.59435D-01

At iterate   69    f=  2.30672D+00    |proj g|=  3.31736D-01

At iterate   70    f=  2.27497D+00    |proj g|=  3.51091D-01

At iterate   71    f=  2.23277D+00    |proj g|=  2.41038D-01

At iterate   72    f=  2.18631D+00    |proj g|=  3.38727D-01

At iterate   73    f=  2.16907D+00    |proj g|=  5.14274D-01

At iterate   74    f=  2.12470D+00    |proj g|=  6.01183D-01

At iterate   75    f=  2.08347D+00    |proj g|=  4.27943D-01

At iterate   76    f=  2.05584D+00    |proj g|=  7.60499D-01

At iterate   77    f=  2.04930D+00    |proj g|=  7.66073D-01

At iterate   78    f=  2.00807D+00    |proj g|=  5.41206D-01

At iterate   79    f=  1.97792D+00    |proj g|=  2.27825D-01

At iterate   80    f=  1.97687D+00    |proj g|=  9.29521D-01

At iterate   81    f=  1.94781D+00    |proj g|=  2.95778D-01

At iterate   82    f=  1.91652D+00    |proj g|=  2.96245D-01

At iterate   83    f=  1.89909D+00    |proj g|=  7.71778D-01

At iterate   84    f=  1.86336D+00    |proj g|=  4.43095D-01

At iterate   85    f=  1.84036D+00    |proj g|=  4.87218D-01

At iterate   86    f=  1.81937D+00    |proj g|=  2.61474D-01

At iterate   87    f=  1.78241D+00    |proj g|=  5.09919D-01

At iterate   88    f=  1.75362D+00    |proj g|=  2.78314D-01

At iterate   89    f=  1.74613D+00    |proj g|=  1.84246D-01

At iterate   90    f=  1.71605D+00    |proj g|=  3.36004D-01

At iterate   91    f=  1.68397D+00    |proj g|=  7.93987D-01

At iterate   92    f=  1.67645D+00    |proj g|=  1.00102D+00

At iterate   93    f=  1.67154D+00    |proj g|=  1.17171D+00

At iterate   94    f=  1.64727D+00    |proj g|=  3.69235D-01

At iterate   95    f=  1.63973D+00    |proj g|=  1.75183D-01

At iterate   96    f=  1.63229D+00    |proj g|=  7.09340D-01

At iterate   97    f=  1.61989D+00    |proj g|=  5.18147D-01

At iterate   98    f=  1.60696D+00    |proj g|=  2.69323D-01

At iterate   99    f=  1.57971D+00    |proj g|=  3.82255D-01

At iterate  100    f=  1.54572D+00    |proj g|=  4.04125D-01

At iterate  101    f=  1.52181D+00    |proj g|=  3.66310D-01

At iterate  102    f=  1.49737D+00    |proj g|=  3.00987D-01

At iterate  103    f=  1.48112D+00    |proj g|=  2.67547D-01

At iterate  104    f=  1.46151D+00    |proj g|=  5.00770D-01

At iterate  105    f=  1.43437D+00    |proj g|=  3.27399D-01

At iterate  106    f=  1.42493D+00    |proj g|=  2.40915D-01

At iterate  107    f=  1.41888D+00    |proj g|=  2.59456D-01

At iterate  108    f=  1.40795D+00    |proj g|=  2.23926D-01

At iterate  109    f=  1.39123D+00    |proj g|=  3.52149D-01

At iterate  110    f=  1.37472D+00    |proj g|=  1.50493D-01

At iterate  111    f=  1.37043D+00    |proj g|=  4.08446D-01

At iterate  112    f=  1.36567D+00    |proj g|=  1.76088D-01

At iterate  113    f=  1.35873D+00    |proj g|=  2.46352D-01

At iterate  114    f=  1.33533D+00    |proj g|=  3.27878D-01

At iterate  115    f=  1.31581D+00    |proj g|=  3.20178D-01

At iterate  116    f=  1.31364D+00    |proj g|=  3.22921D-01

At iterate  117    f=  1.29762D+00    |proj g|=  1.87863D-01

At iterate  118    f=  1.28549D+00    |proj g|=  1.99162D-01

At iterate  119    f=  1.27353D+00    |proj g|=  3.94701D-01

At iterate  120    f=  1.26806D+00    |proj g|=  2.17300D-01

At iterate  121    f=  1.26299D+00    |proj g|=  3.64855D-01

At iterate  122    f=  1.24401D+00    |proj g|=  1.62588D-01

At iterate  123    f=  1.22227D+00    |proj g|=  4.31369D-01

At iterate  124    f=  1.20286D+00    |proj g|=  2.59124D-01

At iterate  125    f=  1.19466D+00    |proj g|=  2.09182D-01

At iterate  126    f=  1.18898D+00    |proj g|=  8.44776D-01

At iterate  127    f=  1.16664D+00    |proj g|=  2.73521D-01

At iterate  128    f=  1.15807D+00    |proj g|=  1.52129D-01

At iterate  129    f=  1.14366D+00    |proj g|=  4.45434D-01

At iterate  130    f=  1.13337D+00    |proj g|=  2.14866D-01

At iterate  131    f=  1.12532D+00    |proj g|=  6.67096D-01

At iterate  132    f=  1.12342D+00    |proj g|=  4.75962D-01

At iterate  133    f=  1.12342D+00    |proj g|=  4.83070D-01

           * * *

Tit   = total number of iterations
Tnf   = total number of function evaluations
Tnint = total number of segments explored during Cauchy searches
Skip  = number of BFGS updates skipped
Nact  = number of active bounds at final generalized Cauchy point
Projg = norm of the final projected gradient
F     = final function value

           * * *

   N    Tit     Tnf  Tnint  Skip  Nact     Projg        F
  288    133    189      1     0     0   4.831D-01   1.123D+00
  F =   1.1234203114651709

CONVERGENCE: REL_REDUCTION_OF_F_<=_FACTR*EPSMCH
--------------------------------------------------------------------------------
GEOMETRY OPTIMIZATION COMPLETED
--------------------------------------------------------------------------------
minimizer_success:
 True
--------------------------------------------------------------------------------
minimizer_status:
 0
--------------------------------------------------------------------------------
minimizer_message:
 CONVERGENCE: REL_REDUCTION_OF_F_<=_FACTR*EPSMCH
--------------------------------------------------------------------------------
minimizer_nit:
 133
