RUNNING THE L-BFGS-B CODE

           * * *

Machine precision = 2.220D-16
 N =          288     M =           10

At X0         0 variables are exactly at the bounds

At iterate    0    f=  1.73006D+01    |proj g|=  3.21634D-01

At iterate    1    f=  1.58872D+01    |proj g|=  2.61040D+00

At iterate    2    f=  1.50151D+01    |proj g|=  2.64903D+00

At iterate    3    f=  1.33119D+01    |proj g|=  1.79294D+00

At iterate    4    f=  1.30011D+01    |proj g|=  8.52339D-01

At iterate    5    f=  1.27125D+01    |proj g|=  9.99378D-01

At iterate    6    f=  1.26449D+01    |proj g|=  6.92681D-01

At iterate    7    f=  1.25330D+01    |proj g|=  5.29257D-01

At iterate    8    f=  1.24258D+01    |proj g|=  1.74660D+00

At iterate    9    f=  1.22443D+01    |proj g|=  4.34548D-01

At iterate   10    f=  1.21722D+01    |proj g|=  3.71565D-01

At iterate   11    f=  1.20890D+01    |proj g|=  4.10137D-01

At iterate   12    f=  1.20060D+01    |proj g|=  3.16275D-01

At iterate   13    f=  1.19170D+01    |proj g|=  3.38133D-01

At iterate   14    f=  1.19106D+01    |proj g|=  4.43489D-01

At iterate   15    f=  1.18435D+01    |proj g|=  2.40153D-01

At iterate   16    f=  1.18152D+01    |proj g|=  2.78517D-01

At iterate   17    f=  1.17518D+01    |proj g|=  2.95400D-01

At iterate   18    f=  1.16857D+01    |proj g|=  2.97207D-01

At iterate   19    f=  1.16013D+01    |proj g|=  3.18006D-01

At iterate   20    f=  1.15113D+01    |proj g|=  4.97395D-01

At iterate   21    f=  1.14334D+01    |proj g|=  1.09366D+00

At iterate   22    f=  1.13282D+01    |proj g|=  6.09685D-01

At iterate   23    f=  1.11589D+01    |proj g|=  3.01077D-01

At iterate   24    f=  1.10948D+01    |proj g|=  1.31514D+00

At iterate   25    f=  1.09414D+01    |proj g|=  3.80903D-01

At iterate   26    f=  1.07930D+01    |proj g|=  8.49419D-01

At iterate   27    f=  1.04773D+01    |proj g|=  1.92490D+00

At iterate   28    f=  1.04637D+01    |proj g|=  1.92117D+00

At iterate   29    f=  9.84817D+00    |proj g|=  8.71372D-01

At iterate   30    f=  9.26290D+00    |proj g|=  1.12358D+00

At iterate   31    f=  8.95532D+00    |proj g|=  1.37969D+00

At iterate   32    f=  8.82498D+00    |proj g|=  1.49494D+00

At iterate   33    f=  8.53052D+00    |proj g|=  6.30636D-01

At iterate   34    f=  8.17481D+00    |proj g|=  1.22548D+00

At iterate   35    f=  7.81168D+00    |proj g|=  9.09321D-01

At iterate   36    f=  7.37832D+00    |proj g|=  8.31600D-01

At iterate   37    f=  7.37684D+00    |proj g|=  8.62798D-01

At iterate   38    f=  7.17352D+00    |proj g|=  5.97632D-01

At iterate   39    f=  7.05248D+00    |proj g|=  1.91872D+00

At iterate   40    f=  6.85423D+00    |proj g|=  9.93426D-01

At iterate   41    f=  6.73350D+00    |proj g|=  1.15703D+00

At iterate   42    f=  6.57679D+00    |proj g|=  5.57051D-01

At iterate   43    f=  6.46065D+00    |proj g|=  5.35988D-01

At iterate   44    f=  6.38718D+00    |proj g|=  8.17413D-01

At iterate   45    f=  6.31788D+00    |proj g|=  1.23338D+00

At iterate   46    f=  6.22500D+00    |proj g|=  5.43637D-01

At iterate   47    f=  6.07515D+00    |proj g|=  4.30587D-01

At iterate   48    f=  5.92769D+00    |proj g|=  1.24263D+00

At iterate   49    f=  5.89335D+00    |proj g|=  9.63517D-01

At iterate   50    f=  5.75815D+00    |proj g|=  1.13890D+00

At iterate   51    f=  5.67129D+00    |proj g|=  5.66549D-01

At iterate   52    f=  5.56906D+00    |proj g|=  7.98356D-01

At iterate   53    f=  5.45522D+00    |proj g|=  7.64879D-01

At iterate   54    f=  5.28636D+00    |proj g|=  5.46535D-01

At iterate   55    f=  5.17261D+00    |proj g|=  5.52378D-01

At iterate   56    f=  5.02443D+00    |proj g|=  4.79602D-01

At iterate   57    f=  4.89539D+00    |proj g|=  5.15174D-01

At iterate   58    f=  4.74509D+00    |proj g|=  8.63967D-01

At iterate   59    f=  4.61238D+00    |proj g|=  5.16171D-01

At iterate   60    f=  4.50503D+00    |proj g|=  8.54937D-01

At iterate   61    f=  4.47186D+00    |proj g|=  7.93155D-01

At iterate   62    f=  4.39116D+00    |proj g|=  6.59202D-01

At iterate   63    f=  4.33346D+00    |proj g|=  3.81529D-01

At iterate   64    f=  4.28548D+00    |proj g|=  3.86316D-01

At iterate   65    f=  4.15971D+00    |proj g|=  3.96565D-01

At iterate   66    f=  4.04104D+00    |proj g|=  4.49982D-01

At iterate   67    f=  3.96944D+00    |proj g|=  6.45285D-01

At iterate   68    f=  3.91376D+00    |proj g|=  5.69427D-01

At iterate   69    f=  3.74276D+00    |proj g|=  2.93255D-01

At iterate   70    f=  3.67137D+00    |proj g|=  2.45988D-01

At iterate   71    f=  3.60358D+00    |proj g|=  6.59651D-01

At iterate   72    f=  3.54643D+00    |proj g|=  5.37208D-01

At iterate   73    f=  3.44352D+00    |proj g|=  5.19562D-01

At iterate   74    f=  3.35077D+00    |proj g|=  9.60271D-01

At iterate   75    f=  3.30247D+00    |proj g|=  7.41865D-01

At iterate   76    f=  3.26776D+00    |proj g|=  8.05741D-01

At iterate   77    f=  3.21861D+00    |proj g|=  6.47125D-01

At iterate   78    f=  3.19074D+00    |proj g|=  3.37122D-01

At iterate   79    f=  3.14971D+00    |proj g|=  9.80933D-01

At iterate   80    f=  3.13222D+00    |proj g|=  7.66536D-01

At iterate   81    f=  3.09633D+00    |proj g|=  3.44738D-01

At iterate   82    f=  3.06519D+00    |proj g|=  8.50698D-01

At iterate   83    f=  3.03551D+00    |proj g|=  4.08180D-01

At iterate   84    f=  2.99396D+00    |proj g|=  4.35739D-01

At iterate   85    f=  2.96301D+00    |proj g|=  8.23086D-01

At iterate   86    f=  2.91986D+00    |proj g|=  3.07231D-01

At iterate   87    f=  2.88015D+00    |proj g|=  2.01924D-01

At iterate   88    f=  2.84121D+00    |proj g|=  4.82387D-01

At iterate   89    f=  2.79709D+00    |proj g|=  1.16684D+00

At iterate   90    f=  2.76478D+00    |proj g|=  9.32645D-01

At iterate   91    f=  2.74377D+00    |proj g|=  2.99428D-01

At iterate   92    f=  2.72032D+00    |proj g|=  4.67816D-01

At iterate   93    f=  2.69538D+00    |proj g|=  9.93400D-01

At iterate   94    f=  2.67615D+00    |proj g|=  5.78135D-01

At iterate   95    f=  2.64127D+00    |proj g|=  3.97884D-01

At iterate   96    f=  2.60771D+00    |proj g|=  3.22897D-01

At iterate   97    f=  2.56844D+00    |proj g|=  7.01185D-01

At iterate   98    f=  2.51885D+00    |proj g|=  3.55916D-01

At iterate   99    f=  2.49060D+00    |proj g|=  4.27980D-01

At iterate  100    f=  2.43278D+00    |proj g|=  3.60165D-01

At iterate  101    f=  2.43119D+00    |proj g|=  1.90443D+00

At iterate  102    f=  2.33318D+00    |proj g|=  5.50977D-01

At iterate  103    f=  2.30191D+00    |proj g|=  6.72061D-01

At iterate  104    f=  2.27004D+00    |proj g|=  6.35924D-01

At iterate  105    f=  2.22074D+00    |proj g|=  5.94620D-01

At iterate  106    f=  2.19629D+00    |proj g|=  7.30895D-01

At iterate  107    f=  2.17536D+00    |proj g|=  5.00253D-01

At iterate  108    f=  2.13718D+00    |proj g|=  1.48848D+00

At iterate  109    f=  2.10984D+00    |proj g|=  6.67097D-01

At iterate  110    f=  2.07480D+00    |proj g|=  3.69987D-01

At iterate  111    f=  2.03764D+00    |proj g|=  4.20955D-01

At iterate  112    f=  2.01075D+00    |proj g|=  3.11983D-01

At iterate  113    f=  1.96019D+00    |proj g|=  4.31167D-01

At iterate  114    f=  1.93894D+00    |proj g|=  9.62242D-01

At iterate  115    f=  1.89701D+00    |proj g|=  5.13530D-01

At iterate  116    f=  1.88262D+00    |proj g|=  3.49935D-01

At iterate  117    f=  1.86924D+00    |proj g|=  4.27998D-01

At iterate  118    f=  1.84725D+00    |proj g|=  4.08558D-01

At iterate  119    f=  1.81990D+00    |proj g|=  1.40121D-01

At iterate  120    f=  1.81146D+00    |proj g|=  1.38104D+00

At iterate  121    f=  1.79761D+00    |proj g|=  4.91748D-01

At iterate  122    f=  1.78156D+00    |proj g|=  1.99434D-01

At iterate  123    f=  1.77208D+00    |proj g|=  4.53786D-01

At iterate  124    f=  1.75632D+00    |proj g|=  5.14896D-01

At iterate  125    f=  1.73039D+00    |proj g|=  6.24812D-01

At iterate  126    f=  1.71572D+00    |proj g|=  3.02591D-01

At iterate  127    f=  1.69753D+00    |proj g|=  1.75462D-01

At iterate  128    f=  1.67270D+00    |proj g|=  2.34637D-01

At iterate  129    f=  1.64829D+00    |proj g|=  2.45881D-01

At iterate  130    f=  1.61571D+00    |proj g|=  2.32873D-01

At iterate  131    f=  1.59931D+00    |proj g|=  6.26260D-01

At iterate  132    f=  1.58637D+00    |proj g|=  1.24555D+00

At iterate  133    f=  1.55665D+00    |proj g|=  4.85184D-01

At iterate  134    f=  1.54040D+00    |proj g|=  2.87843D-01

At iterate  135    f=  1.52390D+00    |proj g|=  2.70274D-01

At iterate  136    f=  1.50348D+00    |proj g|=  1.70214D-01

At iterate  137    f=  1.48549D+00    |proj g|=  8.64032D-01

At iterate  138    f=  1.46817D+00    |proj g|=  2.96332D-01

At iterate  139    f=  1.45830D+00    |proj g|=  1.87823D-01

At iterate  140    f=  1.45224D+00    |proj g|=  3.40320D-01

At iterate  141    f=  1.43920D+00    |proj g|=  2.07078D-01

At iterate  142    f=  1.43336D+00    |proj g|=  1.91162D-01

At iterate  143    f=  1.42744D+00    |proj g|=  8.27104D-01

At iterate  144    f=  1.41619D+00    |proj g|=  3.84889D-01

At iterate  145    f=  1.40909D+00    |proj g|=  1.29471D-01

At iterate  146    f=  1.40094D+00    |proj g|=  1.77849D-01

At iterate  147    f=  1.39833D+00    |proj g|=  1.52076D-01

At iterate  148    f=  1.38138D+00    |proj g|=  1.20445D-01

At iterate  149    f=  1.36794D+00    |proj g|=  4.86136D-01

At iterate  150    f=  1.36191D+00    |proj g|=  4.89595D-01

At iterate  151    f=  1.35581D+00    |proj g|=  2.59659D-01

At iterate  152    f=  1.34836D+00    |proj g|=  1.24244D-01

At iterate  153    f=  1.33943D+00    |proj g|=  1.31968D-01

At iterate  154    f=  1.32652D+00    |proj g|=  3.50315D-01

At iterate  155    f=  1.32188D+00    |proj g|=  1.54156D-01

At iterate  156    f=  1.31535D+00    |proj g|=  1.55275D-01

At iterate  157    f=  1.30654D+00    |proj g|=  3.31157D-01

At iterate  158    f=  1.30117D+00    |proj g|=  2.31494D-01

At iterate  159    f=  1.29347D+00    |proj g|=  2.47883D-01

At iterate  160    f=  1.28720D+00    |proj g|=  3.18269D-01

At iterate  161    f=  1.27780D+00    |proj g|=  1.54539D-01

At iterate  162    f=  1.27302D+00    |proj g|=  1.30469D-01

At iterate  163    f=  1.26519D+00    |proj g|=  3.51644D-01

At iterate  164    f=  1.25413D+00    |proj g|=  3.15225D-01

At iterate  165    f=  1.23963D+00    |proj g|=  4.05359D-01

At iterate  166    f=  1.22830D+00    |proj g|=  1.92310D-01

At iterate  167    f=  1.22197D+00    |proj g|=  3.44881D-01

At iterate  168    f=  1.21130D+00    |proj g|=  2.50839D-01

At iterate  169    f=  1.19828D+00    |proj g|=  8.01929D-02

At iterate  170    f=  1.19358D+00    |proj g|=  2.35275D-01

At iterate  171    f=  1.18386D+00    |proj g|=  5.38102D-01

At iterate  172    f=  1.17319D+00    |proj g|=  1.25788D-01

At iterate  173    f=  1.16886D+00    |proj g|=  6.09457D-02

At iterate  174    f=  1.15672D+00    |proj g|=  2.46394D-01

At iterate  175    f=  1.14691D+00    |proj g|=  1.37254D-01

At iterate  176    f=  1.13250D+00    |proj g|=  1.42970D-01

At iterate  177    f=  1.12401D+00    |proj g|=  2.82777D-01

At iterate  178    f=  1.12181D+00    |proj g|=  7.67157D-01

At iterate  179    f=  1.10792D+00    |proj g|=  1.69194D-01

At iterate  180    f=  1.10506D+00    |proj g|=  1.55498D-01

At iterate  181    f=  1.09985D+00    |proj g|=  1.18335D-01

At iterate  182    f=  1.09033D+00    |proj g|=  2.14255D-01

At iterate  183    f=  1.08766D+00    |proj g|=  1.63150D-01

At iterate  184    f=  1.07876D+00    |proj g|=  9.70682D-02

At iterate  185    f=  1.07050D+00    |proj g|=  8.70545D-02

At iterate  186    f=  1.06236D+00    |proj g|=  1.61309D-01

At iterate  187    f=  1.05461D+00    |proj g|=  3.53826D-01

At iterate  188    f=  1.04753D+00    |proj g|=  1.65808D-01

At iterate  189    f=  1.04008D+00    |proj g|=  8.68731D-02

At iterate  190    f=  1.03251D+00    |proj g|=  9.35529D-02

At iterate  191    f=  1.02403D+00    |proj g|=  2.20659D-01

At iterate  192    f=  1.01778D+00    |proj g|=  2.55441D-01

At iterate  193    f=  1.01092D+00    |proj g|=  1.22531D-01

At iterate  194    f=  1.00194D+00    |proj g|=  1.34773D-01

At iterate  195    f=  9.94734D-01    |proj g|=  1.15650D-01

At iterate  196    f=  9.93023D-01    |proj g|=  2.02300D-01

At iterate  197    f=  9.87085D-01    |proj g|=  4.44712D-01

At iterate  198    f=  9.73862D-01    |proj g|=  2.93209D-01

At iterate  199    f=  9.68920D-01    |proj g|=  1.13133D-01

At iterate  200    f=  9.66084D-01    |proj g|=  7.32264D-02

At iterate  201    f=  9.61249D-01    |proj g|=  9.94688D-02

At iterate  202    f=  9.53735D-01    |proj g|=  1.56369D-01

At iterate  203    f=  9.50047D-01    |proj g|=  6.38903D-01

At iterate  204    f=  9.41432D-01    |proj g|=  1.33324D-01

At iterate  205    f=  9.37844D-01    |proj g|=  9.07164D-02

At iterate  206    f=  9.35476D-01    |proj g|=  2.50731D-01

At iterate  207    f=  9.29466D-01    |proj g|=  2.18974D-01

At iterate  208    f=  9.24830D-01    |proj g|=  2.69474D-01

At iterate  209    f=  9.19814D-01    |proj g|=  7.88248D-02

At iterate  210    f=  9.15970D-01    |proj g|=  1.35840D-01

At iterate  211    f=  9.14096D-01    |proj g|=  1.63978D-01

At iterate  212    f=  9.13500D-01    |proj g|=  2.31705D-01

At iterate  213    f=  9.03409D-01    |proj g|=  2.18926D-01

At iterate  214    f=  8.99547D-01    |proj g|=  2.06880D-01

At iterate  215    f=  8.96404D-01    |proj g|=  7.13228D-02

At iterate  216    f=  8.94643D-01    |proj g|=  9.61510D-02

At iterate  217    f=  8.91826D-01    |proj g|=  1.26322D-01

At iterate  218    f=  8.89323D-01    |proj g|=  3.85416D-01

At iterate  219    f=  8.86066D-01    |proj g|=  1.39086D-01

At iterate  220    f=  8.83058D-01    |proj g|=  1.28131D-01

At iterate  221    f=  8.80722D-01    |proj g|=  1.20651D-01

At iterate  222    f=  8.80197D-01    |proj g|=  1.04727D-01

At iterate  223    f=  8.77322D-01    |proj g|=  3.02676D-01

At iterate  224    f=  8.72641D-01    |proj g|=  1.28110D-01

At iterate  225    f=  8.69246D-01    |proj g|=  6.46311D-02

At iterate  226    f=  8.66296D-01    |proj g|=  6.10376D-02

At iterate  227    f=  8.62262D-01    |proj g|=  1.18926D-01

At iterate  228    f=  8.58021D-01    |proj g|=  1.84576D-01

At iterate  229    f=  8.55302D-01    |proj g|=  6.97408D-02

At iterate  230    f=  8.52187D-01    |proj g|=  9.52972D-02

At iterate  231    f=  8.49981D-01    |proj g|=  3.62389D-01

At iterate  232    f=  8.47067D-01    |proj g|=  2.31072D-01

At iterate  233    f=  8.45220D-01    |proj g|=  1.73035D-01

At iterate  234    f=  8.40737D-01    |proj g|=  7.69758D-02

At iterate  235    f=  8.37673D-01    |proj g|=  1.67281D-01

At iterate  236    f=  8.34392D-01    |proj g|=  2.08297D-01

At iterate  237    f=  8.31720D-01    |proj g|=  5.23116D-02

At iterate  238    f=  8.28105D-01    |proj g|=  1.11204D-01

At iterate  239    f=  8.23605D-01    |proj g|=  8.62551D-02

At iterate  240    f=  8.18783D-01    |proj g|=  1.52891D-01

At iterate  241    f=  8.15793D-01    |proj g|=  3.81316D-01

At iterate  242    f=  8.13188D-01    |proj g|=  1.66729D-01

At iterate  243    f=  8.10864D-01    |proj g|=  2.37866D-01

At iterate  244    f=  8.08043D-01    |proj g|=  1.66274D-01

At iterate  245    f=  8.00197D-01    |proj g|=  2.72531D-01

At iterate  246    f=  7.94696D-01    |proj g|=  4.61493D-01

At iterate  247    f=  7.90942D-01    |proj g|=  1.33496D-01

At iterate  248    f=  7.85907D-01    |proj g|=  5.13046D-01

At iterate  249    f=  7.83249D-01    |proj g|=  1.82128D-01

At iterate  250    f=  7.81215D-01    |proj g|=  3.19184D-01

At iterate  251    f=  7.81035D-01    |proj g|=  3.00713D-01

At iterate  252    f=  7.76386D-01    |proj g|=  1.47856D-01

At iterate  253    f=  7.74316D-01    |proj g|=  1.97484D-01

At iterate  254    f=  7.71910D-01    |proj g|=  2.49245D-01

At iterate  255    f=  7.68637D-01    |proj g|=  4.14743D-01

At iterate  256    f=  7.65124D-01    |proj g|=  2.79364D-01

At iterate  257    f=  7.63376D-01    |proj g|=  2.22785D-01

At iterate  258    f=  7.61095D-01    |proj g|=  2.76014D-01

At iterate  259    f=  7.57132D-01    |proj g|=  1.76050D-01

At iterate  260    f=  7.54478D-01    |proj g|=  1.08584D-01

At iterate  261    f=  7.52719D-01    |proj g|=  5.22100D-01

At iterate  262    f=  7.51135D-01    |proj g|=  1.36605D-01

At iterate  263    f=  7.50315D-01    |proj g|=  1.56762D-01

At iterate  264    f=  7.49816D-01    |proj g|=  2.43855D-01

At iterate  265    f=  7.47341D-01    |proj g|=  6.29120D-02

At iterate  266    f=  7.45633D-01    |proj g|=  1.54147D-01

At iterate  267    f=  7.44472D-01    |proj g|=  4.30908D-01

At iterate  268    f=  7.43100D-01    |proj g|=  1.59747D-01

At iterate  269    f=  7.42212D-01    |proj g|=  1.65840D-01

At iterate  270    f=  7.41279D-01    |proj g|=  2.60887D-01

At iterate  271    f=  7.40383D-01    |proj g|=  1.38597D-01

At iterate  272    f=  7.40115D-01    |proj g|=  3.09358D-01

At iterate  273    f=  7.37695D-01    |proj g|=  2.66867D-01

At iterate  274    f=  7.36219D-01    |proj g|=  6.80938D-02

At iterate  275    f=  7.35249D-01    |proj g|=  2.25390D-01

At iterate  276    f=  7.33935D-01    |proj g|=  1.71661D-01

At iterate  277    f=  7.33335D-01    |proj g|=  4.21597D-01

At iterate  278    f=  7.32311D-01    |proj g|=  1.35385D-01

At iterate  279    f=  7.32285D-01    |proj g|=  5.88847D-01

At iterate  280    f=  7.30799D-01    |proj g|=  1.80716D-01

At iterate  281    f=  7.30219D-01    |proj g|=  1.11460D-01

At iterate  282    f=  7.29679D-01    |proj g|=  1.58963D-01

At iterate  283    f=  7.28341D-01    |proj g|=  2.52690D-01

At iterate  284    f=  7.26778D-01    |proj g|=  3.09233D-01

At iterate  285    f=  7.25932D-01    |proj g|=  1.16814D-01

At iterate  286    f=  7.25556D-01    |proj g|=  1.80838D-01

At iterate  287    f=  7.24945D-01    |proj g|=  1.29470D-01

At iterate  288    f=  7.23932D-01    |proj g|=  2.35783D-01

At iterate  289    f=  7.23612D-01    |proj g|=  2.01339D-01

At iterate  290    f=  7.23179D-01    |proj g|=  1.25929D-01

At iterate  291    f=  7.23120D-01    |proj g|=  2.77590D-01

At iterate  292    f=  7.21849D-01    |proj g|=  1.33750D-01

At iterate  293    f=  7.20729D-01    |proj g|=  7.57216D-02

At iterate  294    f=  7.19250D-01    |proj g|=  1.71626D-01

At iterate  295    f=  7.16587D-01    |proj g|=  2.61846D-01

At iterate  296    f=  7.15336D-01    |proj g|=  4.48051D-01

At iterate  297    f=  7.13839D-01    |proj g|=  2.22765D-01

At iterate  298    f=  7.13287D-01    |proj g|=  1.18518D-01

At iterate  299    f=  7.12848D-01    |proj g|=  2.15376D-01

At iterate  300    f=  7.12021D-01    |proj g|=  2.32289D-01

           * * *

Tit   = total number of iterations
Tnf   = total number of function evaluations
Tnint = total number of segments explored during Cauchy searches
Skip  = number of BFGS updates skipped
Nact  = number of active bounds at final generalized Cauchy point
Projg = norm of the final projected gradient
F     = final function value

           * * *

   N    Tit     Tnf  Tnint  Skip  Nact     Projg        F
  288    300    332      1     0     0   2.323D-01   7.120D-01
  F =  0.71202149271207515

STOP: TOTAL NO. of ITERATIONS REACHED LIMIT
--------------------------------------------------------------------------------
GEOMETRY OPTIMIZATION COMPLETED
--------------------------------------------------------------------------------
minimizer_success:
 False
--------------------------------------------------------------------------------
minimizer_status:
 1
--------------------------------------------------------------------------------
minimizer_message:
 STOP: TOTAL NO. of ITERATIONS REACHED LIMIT
--------------------------------------------------------------------------------
minimizer_nit:
 300
