RUNNING THE L-BFGS-B CODE

           * * *

Machine precision = 2.220D-16
 N =          288     M =           10

At X0         0 variables are exactly at the bounds

At iterate    0    f=  1.73203D+01    |proj g|=  2.83075D-01

At iterate    1    f=  1.32598D+01    |proj g|=  6.66991D-01

At iterate    2    f=  1.30089D+01    |proj g|=  1.47059D+00

At iterate    3    f=  1.20987D+01    |proj g|=  5.64340D+00

At iterate    4    f=  1.19996D+01    |proj g|=  1.38105D+00

At iterate    5    f=  1.18457D+01    |proj g|=  1.72933D+00

At iterate    6    f=  1.16185D+01    |proj g|=  1.09921D+00

At iterate    7    f=  1.13651D+01    |proj g|=  5.61735D+00

At iterate    8    f=  1.13392D+01    |proj g|=  8.80406D+00

At iterate    9    f=  1.10100D+01    |proj g|=  1.30864D+00

At iterate   10    f=  1.09176D+01    |proj g|=  1.69746D+00

At iterate   11    f=  1.06934D+01    |proj g|=  2.94009D+00

At iterate   12    f=  1.06797D+01    |proj g|=  5.34416D+00

At iterate   13    f=  1.04693D+01    |proj g|=  3.24665D+00

At iterate   14    f=  1.02321D+01    |proj g|=  9.64477D-01

At iterate   15    f=  9.98137D+00    |proj g|=  2.81052D+00

At iterate   16    f=  9.70001D+00    |proj g|=  3.57574D+00

At iterate   17    f=  9.46685D+00    |proj g|=  1.06678D+00

At iterate   18    f=  9.34720D+00    |proj g|=  9.55533D-01

At iterate   19    f=  9.24170D+00    |proj g|=  2.14869D+00

At iterate   20    f=  8.79148D+00    |proj g|=  1.68192D+00

At iterate   21    f=  8.49512D+00    |proj g|=  1.30041D+00

At iterate   22    f=  8.20355D+00    |proj g|=  4.10622D+00

At iterate   23    f=  8.08009D+00    |proj g|=  8.31984D-01

At iterate   24    f=  7.83625D+00    |proj g|=  6.37073D-01

At iterate   25    f=  7.56814D+00    |proj g|=  6.47512D-01

At iterate   26    f=  7.27783D+00    |proj g|=  1.24181D+00

At iterate   27    f=  7.04628D+00    |proj g|=  2.42854D+00

At iterate   28    f=  6.91168D+00    |proj g|=  6.40745D-01

At iterate   29    f=  6.70237D+00    |proj g|=  6.77003D-01

At iterate   30    f=  6.30015D+00    |proj g|=  8.08444D-01

At iterate   31    f=  6.22380D+00    |proj g|=  5.49840D+00

At iterate   32    f=  6.07979D+00    |proj g|=  3.60952D+00

At iterate   33    f=  5.78246D+00    |proj g|=  1.24945D+00

At iterate   34    f=  5.66664D+00    |proj g|=  1.53175D+00

At iterate   35    f=  5.54946D+00    |proj g|=  8.67445D-01

At iterate   36    f=  5.23185D+00    |proj g|=  9.02893D-01

At iterate   37    f=  5.14870D+00    |proj g|=  1.86534D+00

At iterate   38    f=  4.96455D+00    |proj g|=  1.19698D+00

At iterate   39    f=  4.62121D+00    |proj g|=  6.49931D-01

At iterate   40    f=  4.48937D+00    |proj g|=  1.24578D+00

At iterate   41    f=  4.41382D+00    |proj g|=  1.16386D+00

At iterate   42    f=  4.22732D+00    |proj g|=  6.17039D-01

At iterate   43    f=  4.16078D+00    |proj g|=  6.58375D-01

At iterate   44    f=  4.03971D+00    |proj g|=  1.00888D+00

At iterate   45    f=  3.93887D+00    |proj g|=  6.18376D-01

At iterate   46    f=  3.86039D+00    |proj g|=  4.39721D-01

At iterate   47    f=  3.66534D+00    |proj g|=  1.34834D+00

At iterate   48    f=  3.59092D+00    |proj g|=  1.34238D+00

At iterate   49    f=  3.51672D+00    |proj g|=  1.10147D+00

At iterate   50    f=  3.40879D+00    |proj g|=  5.07696D-01

At iterate   51    f=  3.36710D+00    |proj g|=  1.07751D+00

At iterate   52    f=  3.31884D+00    |proj g|=  7.18975D-01

At iterate   53    f=  3.24403D+00    |proj g|=  6.72328D-01

At iterate   54    f=  3.17094D+00    |proj g|=  3.67089D-01

At iterate   55    f=  3.10788D+00    |proj g|=  3.50662D-01

At iterate   56    f=  3.09945D+00    |proj g|=  6.19833D-01

At iterate   57    f=  3.02720D+00    |proj g|=  7.56376D-01

At iterate   58    f=  2.95346D+00    |proj g|=  3.44432D-01

At iterate   59    f=  2.94528D+00    |proj g|=  3.24845D-01

At iterate   60    f=  2.86745D+00    |proj g|=  5.69931D-01

At iterate   61    f=  2.79891D+00    |proj g|=  5.42375D-01

At iterate   62    f=  2.75007D+00    |proj g|=  3.22576D-01

At iterate   63    f=  2.71079D+00    |proj g|=  3.76319D-01

At iterate   64    f=  2.70802D+00    |proj g|=  3.67219D-01

At iterate   65    f=  2.65127D+00    |proj g|=  8.70929D-01

At iterate   66    f=  2.57138D+00    |proj g|=  4.56071D-01

At iterate   67    f=  2.53118D+00    |proj g|=  6.89807D-01

At iterate   68    f=  2.49252D+00    |proj g|=  7.10735D-01

At iterate   69    f=  2.44053D+00    |proj g|=  8.11462D-01

At iterate   70    f=  2.40666D+00    |proj g|=  8.28758D-01

At iterate   71    f=  2.37595D+00    |proj g|=  6.17955D-01

At iterate   72    f=  2.35609D+00    |proj g|=  7.21544D-01

At iterate   73    f=  2.31689D+00    |proj g|=  1.44768D+00

At iterate   74    f=  2.28833D+00    |proj g|=  8.40313D-01

At iterate   75    f=  2.23371D+00    |proj g|=  7.26169D-01

At iterate   76    f=  2.20293D+00    |proj g|=  1.20380D+00

At iterate   77    f=  2.14822D+00    |proj g|=  3.24478D-01

At iterate   78    f=  2.10658D+00    |proj g|=  2.71571D-01

At iterate   79    f=  2.03769D+00    |proj g|=  7.72958D-01

At iterate   80    f=  2.01885D+00    |proj g|=  2.49489D-01

At iterate   81    f=  1.98848D+00    |proj g|=  3.82148D-01

At iterate   82    f=  1.92912D+00    |proj g|=  5.22592D-01

At iterate   83    f=  1.88796D+00    |proj g|=  3.03563D-01

At iterate   84    f=  1.87903D+00    |proj g|=  4.61620D-01

At iterate   85    f=  1.82982D+00    |proj g|=  5.90143D-01

At iterate   86    f=  1.78836D+00    |proj g|=  2.53081D-01

At iterate   87    f=  1.76194D+00    |proj g|=  2.02288D-01

At iterate   88    f=  1.71695D+00    |proj g|=  2.23212D-01

At iterate   89    f=  1.70508D+00    |proj g|=  1.79337D+00

At iterate   90    f=  1.68047D+00    |proj g|=  4.45144D-01

At iterate   91    f=  1.63996D+00    |proj g|=  2.92506D-01

At iterate   92    f=  1.60544D+00    |proj g|=  6.83053D-01

At iterate   93    f=  1.59517D+00    |proj g|=  6.40459D-01

At iterate   94    f=  1.54459D+00    |proj g|=  3.37605D-01

At iterate   95    f=  1.52025D+00    |proj g|=  1.94412D-01

At iterate   96    f=  1.50509D+00    |proj g|=  1.45612D-01

At iterate   97    f=  1.48286D+00    |proj g|=  6.96263D-01

At iterate   98    f=  1.45504D+00    |proj g|=  2.04579D-01

At iterate   99    f=  1.43700D+00    |proj g|=  3.22458D-01

At iterate  100    f=  1.43485D+00    |proj g|=  3.47919D-01

At iterate  101    f=  1.41311D+00    |proj g|=  5.08535D-01

At iterate  102    f=  1.38511D+00    |proj g|=  2.73268D-01

At iterate  103    f=  1.37270D+00    |proj g|=  1.47752D-01

At iterate  104    f=  1.37220D+00    |proj g|=  2.01676D-01

At iterate  105    f=  1.35026D+00    |proj g|=  5.94874D-01

At iterate  106    f=  1.33441D+00    |proj g|=  2.86690D-01

At iterate  107    f=  1.31520D+00    |proj g|=  1.52677D-01

At iterate  108    f=  1.29670D+00    |proj g|=  1.06004D-01

At iterate  109    f=  1.27504D+00    |proj g|=  2.63327D-01

At iterate  110    f=  1.26007D+00    |proj g|=  6.76006D-01

At iterate  111    f=  1.24580D+00    |proj g|=  2.48734D-01

At iterate  112    f=  1.24245D+00    |proj g|=  6.25132D-01

At iterate  113    f=  1.23034D+00    |proj g|=  3.57139D-01

At iterate  114    f=  1.21955D+00    |proj g|=  8.49412D-02

At iterate  115    f=  1.21035D+00    |proj g|=  1.49904D-01

At iterate  116    f=  1.19969D+00    |proj g|=  2.61154D-01

At iterate  117    f=  1.18952D+00    |proj g|=  3.67118D-01

At iterate  118    f=  1.17148D+00    |proj g|=  1.76948D-01

At iterate  119    f=  1.16889D+00    |proj g|=  1.44879D-01

At iterate  120    f=  1.16026D+00    |proj g|=  4.67692D-01

At iterate  121    f=  1.14737D+00    |proj g|=  1.55315D-01

At iterate  122    f=  1.13580D+00    |proj g|=  1.28404D-01

At iterate  123    f=  1.12794D+00    |proj g|=  2.49343D-01

At iterate  124    f=  1.12466D+00    |proj g|=  9.96019D-01

At iterate  125    f=  1.11076D+00    |proj g|=  9.67107D-02

At iterate  126    f=  1.10708D+00    |proj g|=  2.20924D-01

At iterate  127    f=  1.09969D+00    |proj g|=  2.54855D-01

At iterate  128    f=  1.09414D+00    |proj g|=  3.53317D-01

At iterate  129    f=  1.08765D+00    |proj g|=  3.00733D-01

At iterate  130    f=  1.07646D+00    |proj g|=  2.05747D-01

At iterate  131    f=  1.07244D+00    |proj g|=  1.22985D-01

At iterate  132    f=  1.06191D+00    |proj g|=  1.45034D-01

At iterate  133    f=  1.06059D+00    |proj g|=  4.72726D-01

At iterate  134    f=  1.05207D+00    |proj g|=  2.00350D-01

At iterate  135    f=  1.04272D+00    |proj g|=  2.03738D-01

At iterate  136    f=  1.02977D+00    |proj g|=  2.77744D-01

At iterate  137    f=  1.02118D+00    |proj g|=  2.73339D-01

At iterate  138    f=  1.01374D+00    |proj g|=  1.41473D-01

At iterate  139    f=  1.00501D+00    |proj g|=  1.77809D-01

At iterate  140    f=  1.00335D+00    |proj g|=  2.56365D-01

At iterate  141    f=  1.00063D+00    |proj g|=  5.46781D-01

At iterate  142    f=  9.92212D-01    |proj g|=  1.85481D-01

At iterate  143    f=  9.88668D-01    |proj g|=  9.96677D-02

At iterate  144    f=  9.84380D-01    |proj g|=  2.85067D-01

At iterate  145    f=  9.77004D-01    |proj g|=  1.61011D-01

At iterate  146    f=  9.68437D-01    |proj g|=  3.41844D-01

At iterate  147    f=  9.63183D-01    |proj g|=  3.22282D-01

At iterate  148    f=  9.59492D-01    |proj g|=  2.98460D-01

At iterate  149    f=  9.52072D-01    |proj g|=  1.19866D-01

At iterate  150    f=  9.46898D-01    |proj g|=  1.15801D-01

At iterate  151    f=  9.39050D-01    |proj g|=  1.39639D-01

At iterate  152    f=  9.36754D-01    |proj g|=  4.77932D-01

At iterate  153    f=  9.29836D-01    |proj g|=  2.75598D-01

At iterate  154    f=  9.27826D-01    |proj g|=  8.08980D-01

At iterate  155    f=  9.19324D-01    |proj g|=  9.12952D-02

At iterate  156    f=  9.15893D-01    |proj g|=  1.00027D-01

At iterate  157    f=  9.11579D-01    |proj g|=  2.32886D-01

At iterate  158    f=  9.04819D-01    |proj g|=  2.47732D-01

At iterate  159    f=  8.98529D-01    |proj g|=  1.65654D-01

At iterate  160    f=  8.94196D-01    |proj g|=  1.08064D-01

At iterate  161    f=  8.90625D-01    |proj g|=  1.51888D-01

At iterate  162    f=  8.85718D-01    |proj g|=  1.68544D-01

At iterate  163    f=  8.82351D-01    |proj g|=  2.24933D-01

At iterate  164    f=  8.75723D-01    |proj g|=  1.35017D-01

At iterate  165    f=  8.67683D-01    |proj g|=  9.94695D-02

At iterate  166    f=  8.62978D-01    |proj g|=  3.44781D-01

At iterate  167    f=  8.58651D-01    |proj g|=  1.57064D-01

At iterate  168    f=  8.53738D-01    |proj g|=  1.36848D-01

At iterate  169    f=  8.46849D-01    |proj g|=  2.09303D-01

At iterate  170    f=  8.40686D-01    |proj g|=  1.32770D-01

At iterate  171    f=  8.35376D-01    |proj g|=  2.03562D-01

At iterate  172    f=  8.32755D-01    |proj g|=  1.41678D-01

At iterate  173    f=  8.30935D-01    |proj g|=  1.98365D-01

At iterate  174    f=  8.27448D-01    |proj g|=  2.48123D-01

At iterate  175    f=  8.23747D-01    |proj g|=  1.00082D-01

At iterate  176    f=  8.20722D-01    |proj g|=  9.98095D-02

At iterate  177    f=  8.17091D-01    |proj g|=  3.18964D-01

At iterate  178    f=  8.13423D-01    |proj g|=  8.33454D-02

At iterate  179    f=  8.10607D-01    |proj g|=  7.80549D-02

At iterate  180    f=  8.05458D-01    |proj g|=  1.19158D-01

At iterate  181    f=  8.03894D-01    |proj g|=  1.53189D-01

At iterate  182    f=  8.01181D-01    |proj g|=  1.14135D-01

At iterate  183    f=  7.96775D-01    |proj g|=  9.60968D-02

At iterate  184    f=  7.95031D-01    |proj g|=  4.63686D-01

At iterate  185    f=  7.91266D-01    |proj g|=  1.64080D-01

At iterate  186    f=  7.89575D-01    |proj g|=  6.52450D-02

At iterate  187    f=  7.86133D-01    |proj g|=  1.67136D-01

At iterate  188    f=  7.83008D-01    |proj g|=  1.62819D-01

At iterate  189    f=  7.81461D-01    |proj g|=  3.73776D-01

At iterate  190    f=  7.78266D-01    |proj g|=  7.22557D-02

At iterate  191    f=  7.77201D-01    |proj g|=  1.35814D-01

At iterate  192    f=  7.75951D-01    |proj g|=  1.60985D-01

At iterate  193    f=  7.75043D-01    |proj g|=  1.23351D-01

At iterate  194    f=  7.73682D-01    |proj g|=  2.68436D-01

At iterate  195    f=  7.71948D-01    |proj g|=  1.31370D-01

At iterate  196    f=  7.70984D-01    |proj g|=  2.05356D-01

At iterate  197    f=  7.69108D-01    |proj g|=  1.96568D-01

At iterate  198    f=  7.67592D-01    |proj g|=  2.18748D-01

At iterate  199    f=  7.64740D-01    |proj g|=  1.39815D-01

At iterate  200    f=  7.61605D-01    |proj g|=  1.23333D-01

At iterate  201    f=  7.59290D-01    |proj g|=  1.18792D-01

At iterate  202    f=  7.56763D-01    |proj g|=  2.73687D-01

At iterate  203    f=  7.53844D-01    |proj g|=  7.29243D-02

At iterate  204    f=  7.51604D-01    |proj g|=  1.00150D-01

At iterate  205    f=  7.48526D-01    |proj g|=  1.24286D-01

At iterate  206    f=  7.45886D-01    |proj g|=  1.20645D-01

At iterate  207    f=  7.44452D-01    |proj g|=  1.93500D-01

At iterate  208    f=  7.41533D-01    |proj g|=  1.43864D-01

At iterate  209    f=  7.38759D-01    |proj g|=  6.88954D-02

At iterate  210    f=  7.37902D-01    |proj g|=  4.46665D-01

At iterate  211    f=  7.35294D-01    |proj g|=  1.47105D-01

At iterate  212    f=  7.34140D-01    |proj g|=  1.38208D-01

At iterate  213    f=  7.33620D-01    |proj g|=  2.20279D-01

At iterate  214    f=  7.30199D-01    |proj g|=  1.74655D-01

At iterate  215    f=  7.27027D-01    |proj g|=  1.27041D-01

At iterate  216    f=  7.22916D-01    |proj g|=  1.10283D-01

At iterate  217    f=  7.21939D-01    |proj g|=  2.70066D-01

At iterate  218    f=  7.16117D-01    |proj g|=  1.86246D-01

At iterate  219    f=  7.14534D-01    |proj g|=  2.26997D-01

At iterate  220    f=  7.12181D-01    |proj g|=  1.69279D-01

At iterate  221    f=  7.10507D-01    |proj g|=  1.09574D-01

At iterate  222    f=  7.08278D-01    |proj g|=  1.88987D-01

At iterate  223    f=  7.07594D-01    |proj g|=  8.67911D-02

At iterate  224    f=  7.06203D-01    |proj g|=  8.83290D-02

At iterate  225    f=  7.03441D-01    |proj g|=  1.79561D-01

At iterate  226    f=  7.00789D-01    |proj g|=  4.15041D-01

At iterate  227    f=  6.97680D-01    |proj g|=  8.58649D-02

At iterate  228    f=  6.97372D-01    |proj g|=  1.38736D-01

At iterate  229    f=  6.97250D-01    |proj g|=  1.28050D-01

At iterate  230    f=  6.95794D-01    |proj g|=  2.88866D-01

At iterate  231    f=  6.93509D-01    |proj g|=  7.15667D-02

At iterate  232    f=  6.92389D-01    |proj g|=  4.35933D-02

At iterate  233    f=  6.90924D-01    |proj g|=  1.02756D-01

At iterate  234    f=  6.89487D-01    |proj g|=  1.58013D-01

At iterate  235    f=  6.88976D-01    |proj g|=  2.57141D-01

At iterate  236    f=  6.87140D-01    |proj g|=  3.87459D-02

At iterate  237    f=  6.86476D-01    |proj g|=  7.50302D-02

At iterate  238    f=  6.85863D-01    |proj g|=  1.49342D-01

At iterate  239    f=  6.84329D-01    |proj g|=  2.47276D-01

At iterate  240    f=  6.82793D-01    |proj g|=  1.17522D-01

At iterate  241    f=  6.81821D-01    |proj g|=  7.63444D-02

At iterate  242    f=  6.81518D-01    |proj g|=  1.52795D-01

At iterate  243    f=  6.79471D-01    |proj g|=  5.91073D-02

At iterate  244    f=  6.76701D-01    |proj g|=  1.09051D-01

At iterate  245    f=  6.76044D-01    |proj g|=  1.39702D-01

At iterate  246    f=  6.74124D-01    |proj g|=  1.21073D-01

At iterate  247    f=  6.73975D-01    |proj g|=  6.38369D-02

At iterate  248    f=  6.72267D-01    |proj g|=  1.52770D-01

At iterate  249    f=  6.70661D-01    |proj g|=  4.87188D-02

At iterate  250    f=  6.69764D-01    |proj g|=  4.08655D-02

At iterate  251    f=  6.69028D-01    |proj g|=  6.92562D-02

At iterate  252    f=  6.67750D-01    |proj g|=  7.96363D-02

At iterate  253    f=  6.66757D-01    |proj g|=  3.50471D-02

At iterate  254    f=  6.65646D-01    |proj g|=  9.60997D-02

At iterate  255    f=  6.64372D-01    |proj g|=  6.69596D-02

At iterate  256    f=  6.63290D-01    |proj g|=  1.31949D-01

At iterate  257    f=  6.61837D-01    |proj g|=  1.29577D-01

At iterate  258    f=  6.61003D-01    |proj g|=  1.04631D-01

At iterate  259    f=  6.58837D-01    |proj g|=  9.80535D-02

At iterate  260    f=  6.57462D-01    |proj g|=  6.46334D-02

At iterate  261    f=  6.56513D-01    |proj g|=  3.60440D-02

At iterate  262    f=  6.56315D-01    |proj g|=  4.18619D-02

At iterate  263    f=  6.55045D-01    |proj g|=  1.21643D-01

At iterate  264    f=  6.53627D-01    |proj g|=  1.11285D-01

At iterate  265    f=  6.52134D-01    |proj g|=  1.03280D-01

At iterate  266    f=  6.50961D-01    |proj g|=  6.33451D-02

At iterate  267    f=  6.49596D-01    |proj g|=  5.08185D-02

At iterate  268    f=  6.49285D-01    |proj g|=  6.80492D-02

At iterate  269    f=  6.48907D-01    |proj g|=  2.23403D-01

At iterate  270    f=  6.47433D-01    |proj g|=  5.95755D-02

At iterate  271    f=  6.46681D-01    |proj g|=  2.39261D-02

At iterate  272    f=  6.45943D-01    |proj g|=  5.42140D-02

At iterate  273    f=  6.44911D-01    |proj g|=  6.06492D-02

At iterate  274    f=  6.44158D-01    |proj g|=  6.37141D-02

At iterate  275    f=  6.42810D-01    |proj g|=  5.52622D-02

At iterate  276    f=  6.41497D-01    |proj g|=  6.40884D-02

At iterate  277    f=  6.40578D-01    |proj g|=  1.38275D-01

At iterate  278    f=  6.39595D-01    |proj g|=  2.95469D-02

At iterate  279    f=  6.38763D-01    |proj g|=  4.07923D-02

At iterate  280    f=  6.38652D-01    |proj g|=  5.08312D-02

At iterate  281    f=  6.37733D-01    |proj g|=  8.84935D-02

At iterate  282    f=  6.36857D-01    |proj g|=  8.38747D-02

At iterate  283    f=  6.36595D-01    |proj g|=  9.55638D-02

At iterate  284    f=  6.36584D-01    |proj g|=  1.09739D-01

At iterate  285    f=  6.35478D-01    |proj g|=  3.65604D-02

At iterate  286    f=  6.34757D-01    |proj g|=  5.74686D-02

At iterate  287    f=  6.33737D-01    |proj g|=  8.58557D-02

At iterate  288    f=  6.32790D-01    |proj g|=  4.97801D-02

At iterate  289    f=  6.32535D-01    |proj g|=  4.20077D-02

At iterate  290    f=  6.31751D-01    |proj g|=  2.09178D-01

At iterate  291    f=  6.30278D-01    |proj g|=  3.56439D-02

At iterate  292    f=  6.29775D-01    |proj g|=  4.00144D-02

At iterate  293    f=  6.29579D-01    |proj g|=  8.29259D-02

At iterate  294    f=  6.29377D-01    |proj g|=  9.38428D-02

At iterate  295    f=  6.28558D-01    |proj g|=  8.56349D-02

At iterate  296    f=  6.28395D-01    |proj g|=  1.30240D-01

At iterate  297    f=  6.27272D-01    |proj g|=  4.23174D-02

At iterate  298    f=  6.26466D-01    |proj g|=  4.46125D-02

At iterate  299    f=  6.25872D-01    |proj g|=  7.15011D-02

At iterate  300    f=  6.25346D-01    |proj g|=  1.30511D-01

           * * *

Tit   = total number of iterations
Tnf   = total number of function evaluations
Tnint = total number of segments explored during Cauchy searches
Skip  = number of BFGS updates skipped
Nact  = number of active bounds at final generalized Cauchy point
Projg = norm of the final projected gradient
F     = final function value

           * * *

   N    Tit     Tnf  Tnint  Skip  Nact     Projg        F
  288    300    368      1     0     0   1.305D-01   6.253D-01
  F =  0.62534647549256972

STOP: TOTAL NO. of ITERATIONS REACHED LIMIT
--------------------------------------------------------------------------------
GEOMETRY OPTIMIZATION COMPLETED
--------------------------------------------------------------------------------
minimizer_success:
 False
--------------------------------------------------------------------------------
minimizer_status:
 1
--------------------------------------------------------------------------------
minimizer_message:
 STOP: TOTAL NO. of ITERATIONS REACHED LIMIT
--------------------------------------------------------------------------------
minimizer_nit:
 300
