{
    "coord": [
        [
            1.5369580803,
            6.5316937424,
            9.103914815,
            0.2573253989,
            7.2621752953,
            8.9127842168,
            1.9695727426,
            5.1404816872,
            8.1430520407,
            1.1738023776,
            -0.2080184088,
            0.8505409637,
            2.922475576,
            8.6035345439,
            2.3122283786,
            -0.6868623256,
            11.0327654093,
            1.2171795638,
            7.1023195846,
            6.4631865195,
            3.9423319158,
            9.3313852554,
            5.3930705811,
            4.9235411592,
            8.0197899366,
            6.7885278842,
            3.4081521582,
            6.3250202767,
            5.2676303229,
            7.9963546248,
            7.2310125683,
            5.6143195273,
            9.0328080326,
            4.9402068099,
            4.6608324032,
            9.9684219918,
            2.1959072638,
            3.9213905158,
            7.443098713,
            2.0042915848,
            2.5438376453,
            7.2626259915,
            2.1412439603,
            4.5227439057,
            8.7504386168,
            5.1571054494,
            7.7223779692,
            1.9103900558,
            6.0017130773,
            8.8419742158,
            1.8296169226,
            5.1431634638,
            8.3932414699,
            3.1305409776,
            7.2380397552,
            5.9369498851,
            1.1438636427,
            6.3985978336,
            6.643405427,
            0.2603326426,
            7.0206055042,
            6.4420976687,
            2.3820774876,
            5.9511774713,
            3.8337343563,
            6.4439891676,
            6.1838685229,
            4.5840743159,
            7.3266749561,
            7.5527666579,
            2.8622767475,
            6.995495435,
            1.6777744505,
            5.232519105,
            4.3941801044,
            2.286395184,
            4.3615724829,
            5.2760759192,
            2.6124683833,
            5.5236630301,
            4.4859099968,
            8.9424908745,
            2.9774328075,
            6.8764222708,
            8.2696464095,
            2.2154539363,
            7.8215119339,
            9.4152411035,
            1.7379110099,
            6.4122863512,
            8.962967138,
            3.8660313917,
            -0.1203426908,
            7.2479324317,
            4.1744026098,
            2.2553771871,
            6.877041369,
            3.1684448667,
            2.0479635251,
            2.3223889922,
            8.3729904103,
            7.2389445723,
            2.8621899865,
            7.6245319358,
            6.2225705673,
            1.6975284239,
            8.2936087028,
            8.4878372826,
            7.2246851248,
            1.1335033241,
            7.1573954951,
            7.3845826783,
            9.7402791935,
            7.065070569,
            8.1066074625,
            0.5982011217,
            8.8960963524,
            0.035981077,
            6.6840529661,
            3.8569223933,
            0.6535890973,
            5.4796237873,
            3.1115958314,
            1.0095403754,
            6.2380357567,
            4.3605795515,
            1.2204256381,
            1.6098049803,
            2.5291963057,
            2.3987429419,
            0.8652296409,
            2.3581306834,
            2.0254230023,
            2.6527648511,
            2.0781956891,
            1.8623049481,
            0.9165623199,
            8.7319177425,
            1.3169897854,
            1.241361173,
            10.0129730668,
            2.5520840347,
            -1.5446826731,
            8.6372707255,
            5.7570883121,
            1.4898378822,
            -0.5193803308,
            5.8963095081,
            0.0883750485,
            9.6653726335,
            5.785959173,
            1.3197766351,
            0.6924352449,
            7.7555832126,
            7.8529650466,
            2.8197024505,
            8.5323849461,
            9.1945395299,
            3.930503003,
            9.9064968698,
            7.527162887,
            2.8638107032,
            1.1093487415,
            0.5121596214,
            6.0676940003,
            2.2694796033,
            0.3335692992,
            4.9947846582,
            1.1135627463,
            -0.2696745622,
            7.2229050794,
            -0.7131282055,
            8.6062582396,
            1.7571648656,
            0.1813571971,
            6.6861150866,
            -0.3798415575,
            8.4442231081,
            6.6868884162,
            1.3070898974,
            8.8282467104,
            5.0354299851,
            6.2423887264,
            10.082110729,
            5.379920295,
            4.2001146365,
            8.9281165203,
            3.9572398652,
            6.6109630065,
            3.589756327,
            1.5504739535,
            6.2192813685,
            3.1285103617,
            0.6831377859,
            7.1950720059,
            5.0816053567,
            2.7313802868,
            6.6066751781,
            3.1080983916,
            8.2736410867,
            3.7267205099,
            2.3210803602,
            7.961067137,
            2.5075533796,
            2.2701913164,
            9.7344904469,
            5.681441589,
            5.0294656691,
            3.3393819536,
            -0.4959915539,
            5.453372805,
            2.5555156982,
            9.1389007723,
            3.8422841585,
            3.4842690669,
            0.2388396963,
            9.0418537342,
            8.6225150887,
            6.7533831372,
            -0.9321135887,
            7.5712099417,
            5.7254994402,
            8.9926307482,
            8.3663333535,
            5.3166419892,
            3.7243273224,
            4.4564156547,
            2.4395197829,
            4.2313335488,
            5.7676152006,
            2.562401902,
            4.5652374459,
            3.7783574849,
            2.9524706864,
            5.2162304324,
            3.5157992977,
            3.7322200066,
            5.6224054811,
            4.4774139729,
            4.6276686059,
            4.498194781,
            2.5243768019,
            4.4399065695,
            3.6205414362,
            5.7149038784,
            5.1389033756,
            6.3380616684,
            7.3771000028,
            4.6895278834,
            5.315578621,
            6.262983478,
            8.1077807449,
            8.6590506122,
            0.6136582002,
            3.6979255234,
            0.3099310726,
            0.5760413745,
            3.1060168233,
            9.5958983485,
            1.0115555253,
            2.6348236095,
            -1.3277318367,
            1.7335620208,
            -0.5145967418,
            0.0730170614,
            1.6613491054,
            0.974904063,
            8.8497187228,
            2.793508371,
            -0.5014920016,
            5.7463773432,
            0.8549523288,
            1.6158137349,
            7.7474900198,
            -0.2666448196,
            3.1328174589,
            5.2541365793,
            1.1925656496,
            2.8927087987,
            -0.3555617799,
            4.2437744741,
            3.5892667592,
            8.2556973221,
            3.9422442101,
            2.2039999551,
            0.9015900296,
            4.4746232791,
            3.8761363429
        ]
    ],
    "atoms": [
        [
            "O",
            "H",
            "H",
            "O",
            "H",
            "H",
            "O",
            "H",
            "H",
            "O",
            "H",
            "H",
            "O",
            "H",
            "H",
            "O",
            "H",
            "H",
            "O",
            "H",
            "H",
            "O",
            "H",
            "H",
            "O",
            "H",
            "H",
            "O",
            "H",
            "H",
            "O",
            "H",
            "H",
            "O",
            "H",
            "H",
            "O",
            "H",
            "H",
            "O",
            "H",
            "H",
            "O",
            "H",
            "H",
            "O",
            "H",
            "H",
            "O",
            "H",
            "H",
            "O",
            "H",
            "H",
            "O",
            "H",
            "H",
            "O",
            "H",
            "H",
            "O",
            "H",
            "H",
            "O",
            "H",
            "H",
            "O",
            "H",
            "H",
            "O",
            "H",
            "H",
            "O",
            "H",
            "H",
            "O",
            "H",
            "H",
            "O",
            "H",
            "H",
            "O",
            "H",
            "H",
            "O",
            "H",
            "H",
            "O",
            "H",
            "H",
            "O",
            "H",
            "H",
            "O",
            "H",
            "H"
        ]
    ],
    "box": [
        [
            9.991448402,
            0.0,
            0.0,
            0.0,
            9.991448402,
            0.0,
            0.0,
            0.0,
            9.991448402
        ]
    ]
}