{
    "coord": [
        [
            8.3734928146,
            4.9374430169,
            8.3187450886,
            9.7327972234,
            7.0367755136,
            7.1521337096,
            7.0319203625,
            4.6140190958,
            8.4941773409,
            1.025781148,
            4.0784117991,
            3.1361827978,
            1.9516908818,
            4.7624631585,
            3.1851701677,
            3.750957498,
            3.459530069,
            0.9818258928,
            7.4344130684,
            2.3406933919,
            7.5064117764,
            7.2951242402,
            1.3360971781,
            8.2144497079,
            6.3763534448,
            2.6627948551,
            7.8451112387,
            -0.2538677549,
            1.346333107,
            3.3606007386,
            -0.8270450521,
            1.6677629195,
            4.7026397339,
            -0.2682314228,
            1.1791269123,
            5.5219077783,
            -0.3403318591,
            4.6413944661,
            8.4431246147,
            0.5805307608,
            6.0691925612,
            7.7692765686,
            -0.999452205,
            4.7714865154,
            8.331075563,
            5.1562426244,
            5.3625935505,
            -0.7264245844,
            6.8494255636,
            5.1720537193,
            0.9345753582,
            6.5352447901,
            6.0749499481,
            2.14674538,
            8.9176714974,
            0.7310451364,
            -0.1057475148,
            8.9112994468,
            -0.6070791837,
            -0.0046813705,
            -0.0404004792,
            0.4277240491,
            9.2175512908,
            6.2155891159,
            3.0818825226,
            0.0408575435,
            4.5344139553,
            2.0859203663,
            2.6251223504,
            4.158735113,
            2.2419271737,
            1.1569897397,
            0.4516072122,
            2.867031315,
            0.4333698586,
            -0.7176965951,
            3.6520916041,
            0.8713896684,
            -0.3922235702,
            1.4824889116,
            0.4154330832,
            0.976706905,
            10.0802202713,
            8.7164281739,
            0.1028800756,
            0.1509303799,
            6.143197594,
            -0.2436181759,
            9.5943063165,
            8.1115774255,
            2.5840295336,
            7.121790059,
            4.8538863842,
            2.3412182106,
            6.4669675776,
            3.5610333621,
            -0.2449461723,
            8.899598335,
            6.7394624323,
            10.0941876285,
            8.4945274556,
            0.8655536041,
            7.0862738812,
            7.408317909,
            0.976002902,
            7.8061626643,
            7.5806482182,
            -0.2555962545,
            2.9276224248,
            7.5027662451,
            0.5399989452,
            1.3155908591,
            7.7037123173,
            0.2233486024,
            5.7484987937,
            7.3695016434,
            2.2398378922,
            6.9356497622,
            2.2425939076,
            3.0928964178,
            7.5389775174,
            2.7794720725,
            4.3090509536,
            6.5974193342,
            3.3358132073,
            3.9939391316,
            7.2668879048,
            -0.0208288463,
            7.9527752629,
            7.4236575742,
            1.1918338986,
            6.6097496778,
            6.974382291,
            -0.2251510479,
            3.8294160846,
            6.6997297739,
            7.5198897186,
            7.464601437,
            8.9484333946,
            7.7609521931,
            6.1431877168,
            6.3072481553,
            8.0233633921,
            9.2055962191,
            5.6233519704,
            0.6160636175,
            5.1783618952,
            4.7690450324,
            1.2610377032,
            5.8662948279,
            4.7914370442,
            -1.0183766839,
            4.0422683379,
            1.9871592709,
            3.2760248651,
            7.9218307946,
            0.7247415347,
            3.9757480761,
            8.3807349248,
            3.0982522059,
            1.3924893152,
            9.0037493258,
            3.6419574475,
            8.5094691954,
            7.7726758059,
            4.2720284299,
            7.4169820118,
            7.0514825005,
            5.509105061,
            8.8545750493,
            10.3193175087,
            3.6774161771,
            2.1989624957,
            6.2831667083,
            2.8549759902,
            2.7437363955,
            7.2958697693,
            5.0443680759,
            3.0107489861,
            6.7447622805,
            4.6273771942,
            6.7087994024,
            6.1241344189,
            5.7323720012,
            7.6685921612,
            6.18547456,
            3.5648397858,
            6.7002355444,
            5.7584928668,
            0.1183545781,
            6.7180298985,
            0.0777797043,
            -0.9958354791,
            4.5479492786,
            9.6944956081,
            0.5043410989,
            7.315238799,
            1.1426038593,
            6.9356759991,
            1.4434958792,
            2.1415229609,
            5.8581867725,
            -0.6687824422,
            1.849140295,
            6.9520173427,
            1.8935888059,
            2.6108860612,
            0.2946490036,
            1.0296262488,
            2.2365937885,
            0.0278649903,
            1.1640667878,
            2.860047462,
            1.6355578713,
            0.6483110038,
            0.325463905,
            8.7609902785,
            3.9265458656,
            5.3417333158,
            8.5856785587,
            2.3793560509,
            4.2156330427,
            7.5470869171,
            5.1763311799,
            7.1663703646,
            2.5961363928,
            5.4828629238,
            2.8745691949,
            3.3278354145,
            6.2063617812,
            1.7633369297,
            1.7321263254,
            5.7613156753,
            2.6456782849,
            4.9764760124,
            2.1969076835,
            7.8897361034,
            4.2260020705,
            1.3509891058,
            10.30450032,
            4.9581445646,
            0.3407261743,
            10.3042425589,
            2.3340662731,
            10.804834521,
            4.6231012433,
            3.8267078277,
            8.9620759626,
            2.2121337501,
            3.0001045658,
            -0.1457793881,
            1.0003430575,
            8.3675444957,
            4.4365717447,
            0.9598969298,
            7.1579663989,
            4.7915186128,
            -0.2329549991,
            6.6868510911,
            4.7855294169,
            2.9336491288,
            11.2710042911,
            8.8658630625,
            3.3918586444,
            7.6625554944,
            8.4913372592,
            4.258806799,
            8.5468373698,
            8.6118340219,
            5.1834190627,
            10.8929832575,
            6.5282902459,
            2.5220780088,
            7.7261178558,
            7.2385448558,
            3.5975559991,
            9.3034920855,
            6.065364428,
            4.9317495533,
            5.967933675,
            4.0688251129,
            6.0072605936,
            7.2765460027,
            6.4978652519,
            5.5589847796,
            5.1965020889,
            5.4875864702,
            3.7617246545
        ]
    ],
    "atoms": [
        [
            "O",
            "H",
            "H",
            "O",
            "H",
            "H",
            "O",
            "H",
            "H",
            "O",
            "H",
            "H",
            "O",
            "H",
            "H",
            "O",
            "H",
            "H",
            "O",
            "H",
            "H",
            "O",
            "H",
            "H",
            "O",
            "H",
            "H",
            "O",
            "H",
            "H",
            "O",
            "H",
            "H",
            "O",
            "H",
            "H",
            "O",
            "H",
            "H",
            "O",
            "H",
            "H",
            "O",
            "H",
            "H",
            "O",
            "H",
            "H",
            "O",
            "H",
            "H",
            "O",
            "H",
            "H",
            "O",
            "H",
            "H",
            "O",
            "H",
            "H",
            "O",
            "H",
            "H",
            "O",
            "H",
            "H",
            "O",
            "H",
            "H",
            "O",
            "H",
            "H",
            "O",
            "H",
            "H",
            "O",
            "H",
            "H",
            "O",
            "H",
            "H",
            "O",
            "H",
            "H",
            "O",
            "H",
            "H",
            "O",
            "H",
            "H",
            "O",
            "H",
            "H",
            "O",
            "H",
            "H"
        ]
    ],
    "box": [
        [
            9.974089622,
            0.0,
            0.0,
            0.0,
            9.974089622,
            0.0,
            0.0,
            0.0,
            9.974089622
        ]
    ]
}