{
    "_comment": "that's all",
    "model": {
        "descriptor": {
            "type": "se_e2_a",
            "rcut_smth": 0.5,
            "rcut": 6.0,
            "neuron": [
                25,
                50,
                100
            ],
            "resnet_dt": false,
            "axis_neuron": 16,
            "seed": 0,
            "_comment": " that's all"
        },
        "fitting_net": {
            "neuron": [
                240,
                240,
                240
            ],
            "resnet_dt": true,
            "seed": 0,
            "_comment": " that's all"
        },
        "_comment": " that's all",
        "type_map": [
            "O",
            "H"
        ]
    },
    "learning_rate": {
        "type": "exp",
        "decay_steps": 5000,
        "start_lr": 0.001,
        "stop_lr": 3.51e-08,
        "_comment": "that's all"
    },
    "loss": {
        "type": "ener",
        "start_pref_e": 1,
        "limit_pref_e": 1,
        "start_pref_f": 0,
        "limit_pref_f": 0,
        "start_pref_v": 0,
        "limit_pref_v": 0,
        "_comment": " that's all"
    },
    "training": {
        "training_data": {
            "systems": [
            ],
            "batch_size": "auto",
            "_comment": "that's all"
        },
        "numb_steps": 5000,
        "seed": 0,
        "disp_file": "lcurve.out",
        "disp_freq": 100,
        "save_freq": 100,
        "_comment": "that's all",
        "save_ckpt": "model.ckpt"
    }
}
