{
  "mlp_opts": {
    "numb_steps": 1000
  },
  "sampling_opts": {
      "options": {"nsteps": 100 },
    "template": "data/templates/lammps.inp"
  },
  "confref_opts": {
    "opt_cell": false,
    "opt_pos": true,
    "delta_f": 0.1,
    "delta_e": 0.01,
    "f_pref": 1.0,
    "e_pref": 0.0,
    "f_reg": 0.01,
    "num_iter": 1,
    "num_grad": true
  },
  "al_opts": {
    "max_num_samples": 2,
    "max_num_calcs": 2,
    "ml_filters": {
      "forces_dev_max": {
        "key": "forces_dev_max",
        "upper": true,
        "operation": "max",
        "limit": 1000.0,
        "shape": [-1, 3]
      },
      "force_mag_max": {
        "key": "forces_mag_max",
        "upper": true,
        "operation": "max",
        "limit": 5000.0,
        "shape": [-1, 3]
      }
    }
  }
}
