&GLOBAL
  PRINT_LEVEL LOW
  PROJECT c7be18390bbc3abd7c7b8dc62748dbc4103ffd5d
  RUN_TYPE ENERGY_FORCE
&END GLOBAL
&FORCE_EVAL
  METHOD Quickstep
  STRESS_TENSOR ANALYTICAL
  &PRINT
    &FORCES ON
    &END FORCES
  &END PRINT
  &SUBSYS
    &CELL
            A    10.178139687     0.000000000     0.000000000
      B     0.000000000     9.854273796     0.000000000
      C     0.194259167     0.070115842    10.254150391

    &END CELL
    &COORD
            O    3.414268255     2.347382307     4.723755360
      H    4.439470768     2.254889250     4.826519966
      H    2.791558981     1.679995656     7.353686810
      O    5.099141121     5.035140038     7.869322777
      H    4.287158012     5.227715969     7.250614643
      H    4.881665707     4.063014984     8.083980560
      O    8.356859207     4.942718983     4.354527950
      H    8.944676399     5.733687878     4.280177593
      H    9.136235237     3.946784735     4.333031654
      O    9.456022263     2.964130640     7.072530270
      H    7.366715431     0.973439157     8.545552254
      H    8.787921906     2.321610689     7.425947189
      O    3.369196892     4.553938389     5.973580837
      H    3.342019796     3.640759945     5.458327293
      H    2.606901884     4.524169922     6.590810776
      O    7.396893024     1.914243340     8.865760803
      H    8.251630783     2.031916380    10.197333336
      H    0.603269458     4.944568157     8.378073692
      O    4.604413033     2.300079107     8.548336029
      H    5.584095955     2.072177410     8.630059242
      H    4.506702900     2.767699242    10.059752464
      O    3.361611605     3.372422457     0.815134525
      H    3.120899439     4.278582096     0.498751044
      H    2.583409309     3.859979630     2.224900246
      O    3.339530230     8.348519325     3.710542202
      H    3.940683126     8.581147194     4.479645729
      H    3.203424454     9.217630386     3.283665657
      O    2.298948526     8.207079887     7.682999134
      H    1.436485410     7.764219761     7.288625240
      H    2.312476397     9.569006920     7.849771023
      O    6.919636726     4.584255219     6.226927757
      H    6.267086983     4.951585770     7.266299248
      H    7.613210678     5.023394108     5.249330044
      O   10.255107880     5.768540382     8.542990685
      H    1.267143369     6.907037258     0.427501589
      H    0.147460297     6.198600769     7.569286823
      O    8.866842270     2.410563946     0.969392836
      H   10.086941719     3.014117718     0.245104790
      H    8.549764633     3.210173607     1.533396125
      O    0.578570247     0.994926691     2.541155100
      H    0.116368614     0.226894900     2.142268181
      H   10.112277985     1.680219889     2.220560789
      O    1.392355204     3.297556639     9.627684593
      H    7.730742931     4.144057274     6.586176872
      H    2.382487297     3.083081007     0.459635347
      O    1.887650013     1.362152100     7.567612648
      H    1.544726253     1.353713512     6.237443924
      H    1.551910400     2.505438805     8.998235703
      O    6.779839993     9.836756706     5.863283634
      H    6.531915665     0.943846405     5.469662666
      H    7.729489803     9.165331841     5.702345848
      O    1.828767657     4.295345783     2.711692095
      H    2.076356411     5.100645542     3.312633753
      H    3.145877123     2.609689474     3.816138268
      O    4.174837112     9.630061150     5.903243065
      H    5.165837765     9.462104797     5.717183590
      H    3.886746168     8.996658325     6.612774849
      O    5.779611588     2.410230398     5.610703468
      H    6.236951828     3.322265387     5.693253040
      H    5.455249786     2.196506739     6.525494576
      O    8.295007706     5.071518898     1.843880534
      H    7.541685581     5.317505836     1.252252460
      H    7.947235107     4.972939014     2.780450106
      O    9.266724586     8.669154167     5.164834023
      H    9.614968300     8.395530701     3.879165173
      H   10.197025299     9.866402626     5.264656067
      O    2.205374241     6.219783306     4.349470615
      H    2.560363770     7.176353455     4.178679466
      H    2.792196751     5.704461575     5.010640621
      O    1.068387747     1.082746267     5.242176056
      H    1.816612601     0.750657678     4.684790134
      H    9.708973885     2.609632492     6.198793888
      O    1.695440173     6.752914429     1.310135484
      H    3.468112469     6.340432644     0.439487904
      H    1.694033384     5.764166355     1.409974694
      O    3.187694788     6.163411140     8.677836418
      H    4.109341145     6.445211887     8.848551750
      H    2.775240898     7.230382442     8.148798943
      O    7.437478065     5.087411404     9.362586975
      H    8.279081345     5.515639782     9.030553818
      H    7.789245129     4.229980946     9.706501007
      O   10.207583427     3.201324224     4.283197880
      H    0.617169499     3.454280853     3.495744228
      H    0.535426259     2.337538242     4.685386658
      O   10.094700813     8.096154213     2.735535383
      H    0.881141245     7.819246292     2.790598869
      H    9.771375656     7.288320065     2.244848728
      O    0.391247779     6.891567230     6.348239422
      H    1.115133047     6.498532772     5.780302048
      H    9.745806694     7.893910408     5.800356865
      UNIT ANGSTROM
    &END COORD
    &KIND H
      POTENTIAL GTH-PBE
      ELEMENT H
      BASIS_SET DZVP-GTH-PBE
    &END KIND
    &KIND O
      POTENTIAL GTH-PBE
      ELEMENT O
      BASIS_SET DZVP-GTH-PBE
    &END KIND
  &END SUBSYS
  &DFT
      BASIS_SET_FILE_NAME BASIS_SET
      POTENTIAL_FILE_NAME GTH_POTENTIALS
      CHARGE 0
      MULTIPLICITY 0
      &SCF
         MAX_SCF 8
         EPS_SCF 1e-05
         SCF_GUESS ATOMIC
         &OUTER_SCF
            EPS_SCF 1e-06
            MAX_SCF 100
         &END OUTER_SCF
         &OT
            MINIMIZER DIIS
            PRECONDITIONER FULL_SINGLE_INVERSE
         &END OT
      &END SCF
      &XC
         &XC_FUNCTIONAL PBE
         &END XC_FUNCTIONAL
         &XC_GRID
            XC_DERIV PW
         &END XC_GRID
      &END XC
      &MGRID
         REL_CUTOFF 60
         CUTOFF 1200
      &END MGRID
      &QS
         EPS_DEFAULT 1e-12
      &END QS
   &END DFT
&END FORCE_EVAL