&GLOBAL
  PROJECT 961d6e1be56e405064a7d8ecf509e02cd07fa30e
  RUN_TYPE ENERGY_FORCE
  PRINT_LEVEL MEDIUM
&END GLOBAL

&FORCE_EVAL
  METHOD Quickstep
  STRESS_TENSOR ANALYTICAL
  &SUBSYS
    &CELL
      A    14.937110901     0.000000000     0.000000000
      B     0.003732094    13.048205376     0.000000000
      C     7.339083672    -0.003426093    13.065012932

    &END CELL
    &COORD
      Si   15.575400352     7.602913380     1.945443034
      Si   13.381764412     2.487397194    12.401270866
      Si    4.553724289     4.825616360     6.748903275
      Si    7.711910725     1.332463861    12.197072983
      Si   16.925992966     0.379100859     9.922795296
      Si   12.639378548     8.002747536     5.209100723
      Si    8.524879456    11.130108833     8.227783203
      Si    4.579347610     0.035766594     5.832412720
      Si    2.839645863     9.375667572     3.131773949
      Si    6.569812298    12.918569565     1.122618675
      Si    8.129378319    10.016206741    10.977326393
      Si   10.746924400     2.028232574     1.925515890
      Si   11.756715775    12.586493492     3.613047361
      Si   13.652446747     3.283350945     6.517166138
      Si   13.363589287     5.697180271     2.065851688
      Si    6.121453762     2.352937698     7.509232998
      O   11.735211372     2.331797838    12.292490959
      O   14.177659035     7.073154449     2.241415024
      O   13.322979927    12.037350655     0.138076529
      O    4.635618210     8.382905960     6.733970642
      O    5.849400997     3.854976177     6.762269974
      O   10.814245224     8.756645203     2.668064833
      O    8.583675385     7.620316505     3.758838654
      O    9.836311340     9.407641411     5.204012871
      O   14.767383575    10.749944687     5.995100975
      O    7.537654877    11.653927803     4.432712078
      O    2.313989878    10.887949944     3.628787756
      O   11.149279594     4.826710701     8.383734703
      O   14.191742897     5.208890438     9.786996841
      O   13.900450706     2.872653961    10.803879738
      O    7.813446999     0.167275399     2.242844820
      O    7.472392559    11.486369133     6.839756489
      O    9.268737793     2.522910357     2.604784012
      O   12.018071175     8.573949814    12.149230957
      O   15.061156273     1.937167168     0.663882375
      O   15.482930183    11.499314308     1.745835543
      O    5.552658558     1.177860618     6.460147858
      O    1.707867861     6.325469971     2.115849733
      O   19.008695602    10.598668098     8.713896751
      O    6.630047798     3.881503344     0.004872186
      O    6.866782665    11.488059044     0.267274231
      O    3.850148201     0.668608189     4.505291462
      O   19.602466583    10.270294189    11.367303848
      O    9.735986710    10.271061897    11.199238777
      O   10.617980957    13.037019730    11.155936241
      O   18.421604156     3.699705124     7.237868786
      O   15.932311058     3.633289099     8.825021744
      O    6.909503460     7.918316841     8.154139519
      Si    6.695648670    10.916683197     5.545265675
      Si   10.040769577     8.211028099     4.033519268
      Si    7.295505047     7.311279774    11.998595238
      Si   15.493114471    10.210228920     7.448053837
      Si    8.933655739     3.380131483     4.035517216
      Si   13.735562325    11.257168770     9.854868889
      Si   16.307962418     7.620064259    12.782638550
      Si   10.556563377     1.617498398    11.360680580
      Si   17.884559631    11.389553070     7.782948494
      Si   13.786909103     0.602743804     8.088398933
      Si   15.707064629     8.987556458    10.148748398
      Si    8.514183998    12.023496628     3.153874636
      Si    4.524370193     9.612187386     0.405577987
      Si   19.659175873    10.870203972    12.870797157
      Si   11.291719437     6.368001461     8.987190247
      Si   15.047580719     3.867510796    10.255229950
      O   13.060277939     8.972121239     3.900789499
      O    9.646094322    10.029816628     7.814616203
      O    9.026664734     2.091954231    11.802899361
      O   16.263002396     8.661733627     2.858686447
      O   14.577230453     0.230648816     6.730587482
      O   11.293219566     7.335123539     4.755400658
      O    6.174220085     5.451721668     1.965270400
      O   13.708708763     4.864614964     6.907746315
      O   12.784852982     6.921034336     8.496558189
      O    6.276590824     6.541216373     4.278183460
      O    6.901679516     9.184622765     5.289440632
      O    8.267536163    10.545859337     2.308019638
      O    8.325423241     6.170766830     0.296692282
      O   10.564873695     2.301831007     9.793510437
      O    7.804905415    10.913893700     9.597988129
      O   14.501674652    10.127163887    10.678790092
      O    8.155581474     7.057425499     6.265583515
      O    9.294521332     4.099292755     9.756930351
      O   12.195575714     0.277203292     7.822879314
      O    7.645156860     1.819185615     7.511815071
      O   16.302818298     4.067025661    11.241036415
      O    1.836036205     3.955488443     0.860438287
      O   16.950668335    10.361984253     6.920209885
      O   15.549017906     9.004577637     8.497020721
      O   15.473606110     6.306163788     7.634018421
      O   13.709396362     2.262131214     7.894332886
      O   11.499932289    11.076260567    12.762664795
      O   19.533525467     8.079195023     9.502499580
      O    6.679790974     4.075521469    10.822443962
      O    3.848793745     8.554719925     4.146126270
      O    3.701398849     4.451740742     2.483594179
      O   18.027479172     7.809003830    12.697869301
      Si    7.275173664     7.647032261     4.870009899
      Si    7.337394714    10.049990654     0.998368800
      Si   12.319868088     9.659225464     2.579864025
      Si    2.764416695     5.210671902     1.361958265
      Si    5.316700459     7.642192841     8.010957718
      Si    3.708014727     7.414902687     5.446117401
      Si   14.406322479    12.244585037     5.373862743
      Si    8.206255913     6.994714260     7.935245991
      Si   10.733639717     9.818344116     6.599320412
      Si   20.696451187     2.810356140    10.676377296
      Si   17.705560684     0.138595462    12.358685493
      Si   10.970842361    11.513522148    11.337199211
      Si   10.728764534    12.793342590     7.311570644
      Si    6.851780415     5.393406868     0.450108737
      Si    8.946840286     1.858919144     6.511930466
      Si   11.921657562     3.914288521     3.982559443
      O    6.504655838     1.494583249    11.156080246
      O   17.038316727     7.526144981     5.819270611
      O    8.047043800    12.890791893    12.505369186
      O    2.543870449    13.005393982     2.328103065
      O   14.369888306     4.659163475     1.266175270
      O   12.835403442    12.687169075     4.799340248
      O    8.379703522     8.983991623     0.277389377
      O    5.671331882     2.538257599     9.073154449
      O   12.097481728     8.882492065     6.605212688
      O   19.239639282     3.244804144    11.501070023
      O    3.365687370     9.323534012     1.531445742
      O   12.939125061     5.062795639     3.484086990
      O    7.567472458     8.412826538    10.946762085
      O   16.055233002     5.320611954     5.015896797
      O   18.485391617     5.592007637    11.724535942
      O   12.438780785     3.156769276     5.283045292
      O   15.310739517     3.308629990     3.131783962
      O   10.325334549     1.348085999     0.412074000
      O   15.784678459     7.723774910    11.204012871
      O   11.182216644     6.513113022    10.647849083
      O    9.881422997     0.648964822     6.224222660
      O    5.258846283    12.634531021     2.115204096
      O   12.005867958     5.961160183     1.146711349
      O   18.083133698    11.711352348    12.958632469
      O   10.391773224     4.081546307     4.386610985
      O    5.445598125     3.829586029     4.021575928
      O    0.634018421     7.828713417     0.265409887
      O    9.841420174     7.113098621     8.367791176
      O   17.302474976     9.297070503    10.177190781
      O   11.706343651     3.193430901     2.457331181
      O   17.138193130     1.584420562     8.853303909
      O    3.664169550     6.222373486     0.457080305
      Si   19.150854111     6.593076706    12.634808540
      Si   11.760962486     6.979804039    12.144364357
      Si    7.920554638     4.925179958    10.312025070
      Si    4.045530319     3.233695507     3.546503782
      Si   18.020809174     4.259872437    11.163183212
      Si    6.386028290     5.009657860     3.569638014
      Si   15.457887650     3.346866608     1.534604907
      Si   16.043563843     3.686470032     4.647051811
      Si   16.319080353    12.008451462     3.034020185
      Si   10.299573898     3.474371910     8.729912758
      Si   19.017215729     9.496426582    10.044545174
      Si   17.423818588     3.219662666     8.563716888
      Si    3.994448662     0.444962710     2.899754047
      Si   14.932188988    11.736839294     0.238145888
      Si   15.662812233     6.700735092     6.058095455
      Si   14.002251625     5.909256458     8.247753143
      O   12.268191338    11.149830818     3.013995886
      O   14.290109634    13.008693695     9.552008629
      O   20.665325165     6.910352707    12.156219482
      O    7.668578625     5.739021301     8.800346375
      O   15.170996666     2.999372959     5.706124783
      O    5.045009613     5.977955818     7.856435299
      O    7.375458241    10.466267586    12.333018303
      O   13.332818031     6.433045387    12.485320091
      O   12.599470139     9.728753090     0.901135802
      O    8.354127884     2.326893568     5.126501560
      O    9.497168541    12.429851532     8.348456383
      O   10.079291344    12.178709030     3.766530991
      O   14.326596260    10.955728531     8.346108437
      O   12.175963402    11.134816170    10.215188026
      O    8.275017738     5.937816620    11.481077194
      O   18.526428223     0.281607807    10.882298470
      O    5.865323544     9.385730743     1.261571646
      O    9.972487450     2.907079220     7.195486546
      O    2.630966187     3.123363733     4.413830757
      O   16.923122406    12.185928345     8.846913338
      O   15.291556358    12.699202538     4.094259739
      O    4.394095898     1.953274727     2.575396299
      O   11.117081642    11.419853210     6.611297131
      O    3.921067953     5.816433430     5.611639023
      O    6.205522537     1.196715474     0.296119630
      O   11.678056717     0.714568913     2.455012321
      O   18.126632690     4.248551846     9.570427895
      O   18.390037537    12.752005577     6.981227875
      O    5.218010902    11.543988228     5.552397728
      O    7.817696095     4.507431507     4.105675220
      O   14.177248001     7.421477795     5.341075420
      O   16.166486740     0.505134642    11.329504013
      UNIT ANGSTROM
    &END COORD
    &KIND H
      BASIS_SET ORB TZV2P-MOLOPT-SCAN-GTH-q1
      BASIS_SET AUX_FIT admm-dzp-q1
      POTENTIAL GTH-SCAN-q1
    &END
    &KIND O
      BASIS_SET ORB TZV2P-MOLOPT-SCAN-GTH-q6
      BASIS_SET AUX_FIT admm-dzp-q6
      POTENTIAL GTH-SCAN-q6
    &END
    &KIND Zr
      BASIS_SET ORB TZV2P-MOLOPT-MGGA-GTH-q12
      BASIS_SET AUX_FIT admm-dzp-q12
      POTENTIAL GTH-SCAN-q12
    &END KIND
    &KIND C
      BASIS_SET ORB TZV2P-MOLOPT-SCAN-GTH-q4
      BASIS_SET AUX_FIT admm-dzp-q4
      POTENTIAL GTH-SCAN-q4
    &END KIND
    &KIND Si
      BASIS_SET ORB TZV2P-MOLOPT-SCAN-GTH-q4
      BASIS_SET AUX_FIT admm-dzp-q4
      POTENTIAL GTH-SCAN-q4
    &END KIND
  &END SUBSYS
  &DFT
    BASIS_SET_FILE_NAME  BASIS_MOLOPT_UZH
    BASIS_SET_FILE_NAME  BASIS_ADMM_UZH
    POTENTIAL_FILE_NAME  POTENTIAL_SCAN
    WFN_RESTART_FILE_NAME  PRECONVERGED-RESTART.wfn

    &QS
      EPS_DEFAULT 1.0E-12
      EPS_PGF_ORB 1e-06
      MIN_PAIR_LIST_RADIUS     -1
    &END QS
    &AUXILIARY_DENSITY_MATRIX_METHOD
        METHOD BASIS_PROJECTION
        ADMM_PURIFICATION_METHOD NONE
        EXCH_CORRECTION_FUNC PBEX
     &END
    &MGRID
      NGRIDS 5
      CUTOFF 2500
      REL_CUTOFF 120
    &END MGRID
    &XC
     &XC_FUNCTIONAL NONE
     &END XC_FUNCTIONAL
     &HF
        &HF_INFO ON
        &END
        &SCREENING
           EPS_SCHWARZ 1e-06
           SCREEN_ON_INITIAL_P TRUE
        &END
        &MEMORY
           MAX_MEMORY 8000
           EPS_STORAGE_SCALING 0.1
        &END
        &INTERACTION_POTENTIAL
           POTENTIAL_TYPE TRUNCATED
           CUTOFF_RADIUS  6.0
        &END
        FRACTION 1.00
     &END
    &END XC

    &ENERGY_CORRECTION
      ENERGY_FUNCTIONAL DCDFT
      &RESPONSE_SOLVER
        METHOD MO_SOLVER
        PRECONDITIONER FULL_SINGLE_INVERSE
        EPS        1e-09
        EPS_FILTER 1e-08
      &END
      &XC
        &XC_FUNCTIONAL
          &MGGA_X_R2SCAN
          &END
          &MGGA_C_R2SCAN
          &END
        &END XC_FUNCTIONAL
      &END XC
    &END ENERGY_CORRECTION

    &SCF
      EPS_SCF                  1.0E-7
      SCF_GUESS                RESTART
      MAX_SCF                  10
      &OT
        PRECONDITIONER         FULL_SINGLE_INVERSE
        MINIMIZER              DIIS
      &END OT
      &OUTER_SCF
        MAX_SCF                10
        EPS_SCF                1.0E-7
      &END
    &END

  &END DFT
  &PRINT
    &FORCES ON
    &END FORCES
    &STRESS_TENSOR ON
    &END STRESS_TENSOR
  &END PRINT
&END FORCE_EVAL