&GLOBAL
  PROJECT b257ec4d676d206a0330a15acffb1882614fb530
  RUN_TYPE ENERGY_FORCE
  PRINT_LEVEL MEDIUM
&END GLOBAL

&FORCE_EVAL
  METHOD Quickstep
  STRESS_TENSOR ANALYTICAL
  &SUBSYS
    &CELL
      A    15.281658173     0.000000000     0.000000000
      B     0.022749119    13.039443970     0.000000000
      C     7.406788826    -0.008347012    12.958154678

    &END CELL
    &COORD
      Si   15.141671181     5.327297211     6.967529297
      Si   12.515077591    12.008523941    11.979502678
      Si   17.897523880     6.793640614    11.907985687
      Si    6.992511749    11.633881569    12.125692368
      Si    5.444764137     7.295933723     4.617660522
      Si   12.988205910     6.202520847     3.424656391
      Si    1.954646230     4.704777718     1.656749487
      Si   14.423848152     3.411650896    11.246660233
      Si   12.001007080     1.751147628    10.931176186
      Si   10.636458397     0.909980118     8.191010475
      Si    7.835577011     5.480076790     3.709770918
      Si    7.224212170     1.309507728    11.107933044
      Si    3.136722803     0.989213407     2.600984812
      Si   10.525697708     1.244270682     3.933717012
      Si    8.851881027     0.915893674     1.350495577
      Si    3.850048542     4.966681957     3.745854139
      O   19.196897507     6.312880993    11.086985588
      O    3.478475571     4.570267677     2.287276030
      O    6.872981548    12.754558563    10.989700317
      O   12.714892387     6.772571087     4.869028091
      O   11.776260376    11.288475037    10.615442276
      O   15.747720718     9.943369865    12.067679405
      O    2.587635279    12.525877953     2.939321518
      O    8.169832230     4.544182301     4.994304657
      O    7.261031151     4.451431751     2.522351503
      O   19.928960800     2.071915388     8.267133713
      O    4.461091518     1.261322498     3.360727787
      O   10.883316994     4.051753044     2.249092102
      O   17.815740585     5.206290722     4.575680733
      O   10.956496239    10.276002884     2.775614977
      O   16.853923798     0.770888090     5.311366081
      O    6.602854252     0.196949005     7.248243332
      O    6.831922054     2.366062641     4.553644180
      O    8.611492157     2.626337051     1.352014661
      O    4.482384682    11.266500473     0.344985127
      O   13.097639084    11.959739685     2.192168236
      O   10.009673119     9.780790329     9.394110680
      O   18.669643402     2.866976261    12.082475662
      O    9.051905632     9.156989098     1.611705542
      O   16.111883163     5.198800564     2.692899704
      O   15.561267853     5.388015270     5.362153053
      O   15.103816032     9.359623909     5.156910419
      O    5.406642437     8.917911530     4.501819134
      O   13.132227898    10.715958595     4.315895557
      O   18.168846130    10.632103920    12.937186241
      O    1.861957312     3.368811846     0.765846789
      O    8.971581459    12.136289597     6.280070305
      O   15.494605064     8.248875618     0.920345485
      Si   14.905640602     6.085321903    11.665346146
      Si   16.139257431     0.055360794     6.580288887
      Si   16.598909378     8.777346611     4.865562916
      Si   12.499490738    10.476280212     2.813391685
      Si   10.179905891     6.640414715    12.464233398
      Si   16.515321732     7.954005718     7.834395885
      Si   14.540645599     2.480319023     6.713848591
      Si    5.131572723     2.219789028     4.535189152
      Si   17.579586029     2.792412043    10.793158531
      Si   10.389962196     5.604526997     1.988429308
      Si   16.432231903     5.902019501     4.176950932
      Si   10.199959755     8.836573601     6.074174404
      Si   10.507763863    12.004707336     5.992218494
      Si    8.008385658    12.446873665     7.683138371
      Si    5.003651619     6.515418053     7.625873566
      Si   12.712042809     8.048303604    12.381534576
      O   11.805695534     1.972672939     3.428185701
      O    7.953824043    11.058782578     8.567684174
      O   15.164023399     8.553852081     8.089343071
      O   16.285928726     6.397897243     7.613142967
      O   15.288300514     3.823160172     7.285965919
      O   12.032293320     8.803091049    11.130551338
      O   11.159540176    12.995015144     4.862249851
      O    6.083151817     3.905020475     9.045194626
      O   14.690724373    10.533741951     9.504960060
      O   11.422635078     1.311538696     9.530799866
      O    6.597531319     6.546022415     8.061814308
      O    9.466215134     2.090991497     4.853830814
      O   13.382347107     2.379995823    10.488097191
      O    4.110373020    10.662155151     5.679265022
      O   14.075185776     3.126892328    12.885832787
      O    1.868598700     5.824857235     0.524512053
      O    4.891164303     6.827260971     6.074186802
      O   14.817006111    12.732540131     0.565517545
      O    2.249280930    10.070170403     1.205432892
      O   16.390050888    11.973159790    10.552665710
      O   13.592067719     5.990282536     7.052884579
      O    6.608631134     6.440981388    10.681077003
      O   10.970237732     2.732940912    11.786988258
      O    7.672067165     0.102099419     1.975914955
      O   12.376993179     0.485852867    11.870862961
      O    6.822121620    10.866803169     1.653430581
      O    8.836277008     6.320466518     8.987614632
      O    6.810071945     6.598743916     4.181915760
      O   17.416763306     8.505784988     9.069942474
      O    4.514709473    10.580008507     2.859153986
      O   16.517141342     0.316220999    12.781323433
      O   12.978092194     2.993140697     1.302032351
      Si    9.518863678     9.540897369     0.083438225
      Si   13.945460320     7.941951275     1.302602410
      Si   12.248789787     3.266871214     2.658652544
      Si    5.337355614    10.383262634     1.441765666
      Si   14.186241150    10.697198868     5.600373268
      Si    7.364168644     7.025197029     9.406497955
      Si    7.566769600     3.855146885     1.038566709
      Si    5.120068073    10.553666115     4.409491062
      Si    8.096518517     2.990736485     5.404633999
      Si   15.267537117    10.975348473    10.916487694
      Si    9.521874428     9.603953362     3.155323982
      Si    7.380939484    11.783058167     2.855126619
      Si   19.299898148    10.857806206    11.739460945
      Si   18.772209167    11.428347588     7.104099751
      Si   20.324604034     3.056711674    12.558065414
      Si   16.029403687     1.539699435     4.141019821
      O   11.212089539    12.725263596     7.311480045
      O   10.049069405     0.697794318     2.467541218
      O    4.965983868     1.418830872     5.906106472
      O   10.393097878     5.819885731     0.425061345
      O   11.520785332     6.412086964     2.814357758
      O    5.399731159     8.836977959     0.874906778
      O   19.567913055    12.655011177     7.696822166
      O    8.049448967    10.419281960    12.230600357
      O    7.280385494     1.889459372     9.637478828
      O   16.056047440     3.223110437    11.006967545
      O   16.663408279     7.475630760     4.094921589
      O    7.655013561     5.286396980     0.181105226
      O    9.743262291     8.640674591     4.517343521
      O   14.995548248     2.400841475     5.111934662
      O    8.589973450    10.924072266     3.473795414
      O    6.416419029    11.612825394     4.161092758
      O   18.984354019    10.393426895     8.239652634
      O   17.717199326     8.261159897    12.415081024
      O   17.441507339     1.279643893    10.573986053
      O   15.049564362     0.808488607     3.115544558
      O   13.055078506     2.862157345     6.955962658
      O   14.055630684     7.450623035    11.789640427
      O    3.110803127     1.240938067     1.040632606
      O    9.144149780     6.035855293     2.800098181
      O    8.660570145     1.535001278    11.878870010
      O   15.245625496    12.014073372     5.825983047
      O   14.096523285     6.940797806     2.582756042
      O    7.663694382     2.910805941     7.025372028
      O    8.732407570     3.908895254     9.334970474
      O   11.298640251     7.711319923     6.794922829
      O   10.732597351     2.395038843     7.358611107
      O   15.678366661    11.344612122     2.498903513
      Si    9.794150352     2.160028219    12.791007996
      Si   12.234119415     6.490458012     6.382346630
      Si    8.599287987     9.631816864     8.633636475
      Si    7.416327477     3.193683624     8.668763161
      Si   19.801290512     3.696073055     8.657588005
      Si   13.954410553     9.703342438     8.379294395
      Si   20.691617966     6.200532436    11.739411354
      Si    1.341918588     9.256167412     0.288423002
      Si    1.943941116    11.013785362     2.607096672
      Si    5.166829586     0.837190866     7.343123436
      Si    9.899351120     5.133066177     9.603263855
      Si   18.983266830     9.074374199     9.107685089
      Si   11.536853790     9.798913956    10.020728111
      Si   17.403741837    12.989012718    11.398533821
      Si   14.581917763    12.594545364     2.152720690
      Si   11.600963593     3.713918686     7.324813366
      O   13.736044884    10.534852982     7.110282898
      O   17.316860199    12.077540398     7.125825405
      O   19.569633484     5.063069820     7.791623116
      O   20.883417130    10.832547188    12.111060143
      O    9.086744308     0.342956722     8.465888977
      O    8.893824577     9.001271248     7.007853031
      O   18.857881546    12.357406616    11.325566292
      O    4.611423016     3.778895378     4.612761974
      O   21.331359863     2.161074162    11.837550163
      O   13.045103073     4.540978432     3.498390913
      O   12.491746902     9.416993141     8.828074455
      O   19.780040741     7.782793999     8.569730759
      O   17.122009277     8.538841248     6.334090233
      O   14.168922424     4.955869675    10.815867424
      O   18.517387390     3.534488916     9.591809273
      O   13.213920593     9.227639198     1.915202618
      O   11.212548256     4.624816418     8.771081924
      O   20.763496399     4.621810913    12.116132736
      O   19.248806000     9.639639854    10.647482872
      O   10.846648216    10.444533348     5.924242020
      O    9.569391251     8.232558250    12.410184860
      O   10.268937111     5.660802364    11.118109703
      O   15.238720894     1.149371624     7.359316349
      O   13.225924492     7.166505337     0.146166548
      O   11.777740479     6.829963684    12.727339745
      O    7.665435791     8.588224411     9.422493935
      O    4.474153996     6.491837502     3.542088032
      O    1.983798981     1.906980395     3.229485989
      O   14.113393784    11.809586525    11.775340080
      O   11.390181541     5.072677612     6.380672932
      O   16.464653015     6.477891445    11.213308334
      O   17.264043808     9.946023941     3.869345427
      UNIT ANGSTROM
    &END COORD
    &KIND H
      BASIS_SET ORB TZV2P-MOLOPT-SCAN-GTH-q1
      BASIS_SET AUX_FIT admm-dzp-q1
      POTENTIAL GTH-SCAN-q1
    &END
    &KIND O
      BASIS_SET ORB TZV2P-MOLOPT-SCAN-GTH-q6
      BASIS_SET AUX_FIT admm-dzp-q6
      POTENTIAL GTH-SCAN-q6
    &END
    &KIND Zr
      BASIS_SET ORB TZV2P-MOLOPT-MGGA-GTH-q12
      BASIS_SET AUX_FIT admm-dzp-q12
      POTENTIAL GTH-SCAN-q12
    &END KIND
    &KIND C
      BASIS_SET ORB TZV2P-MOLOPT-SCAN-GTH-q4
      BASIS_SET AUX_FIT admm-dzp-q4
      POTENTIAL GTH-SCAN-q4
    &END KIND
    &KIND Si
      BASIS_SET ORB TZV2P-MOLOPT-SCAN-GTH-q4
      BASIS_SET AUX_FIT admm-dzp-q4
      POTENTIAL GTH-SCAN-q4
    &END KIND
  &END SUBSYS
  &DFT
    BASIS_SET_FILE_NAME  BASIS_MOLOPT_UZH
    BASIS_SET_FILE_NAME  BASIS_ADMM_UZH
    POTENTIAL_FILE_NAME  POTENTIAL_SCAN
    WFN_RESTART_FILE_NAME  PRECONVERGED-RESTART.wfn

    &QS
      EPS_DEFAULT 1.0E-12
      EPS_PGF_ORB 1e-06
      MIN_PAIR_LIST_RADIUS     -1
    &END QS
    &AUXILIARY_DENSITY_MATRIX_METHOD
        METHOD BASIS_PROJECTION
        ADMM_PURIFICATION_METHOD NONE
        EXCH_CORRECTION_FUNC PBEX
     &END
    &MGRID
      NGRIDS 5
      CUTOFF 2500
      REL_CUTOFF 120
    &END MGRID
    &XC
     &XC_FUNCTIONAL NONE
     &END XC_FUNCTIONAL
     &HF
        &HF_INFO ON
        &END
        &SCREENING
           EPS_SCHWARZ 1e-06
           SCREEN_ON_INITIAL_P TRUE
        &END
        &MEMORY
           MAX_MEMORY 8000
           EPS_STORAGE_SCALING 0.1
        &END
        &INTERACTION_POTENTIAL
           POTENTIAL_TYPE TRUNCATED
           CUTOFF_RADIUS  6.0
        &END
        FRACTION 1.00
     &END
    &END XC

    &ENERGY_CORRECTION
      ENERGY_FUNCTIONAL DCDFT
      &RESPONSE_SOLVER
        METHOD MO_SOLVER
        PRECONDITIONER FULL_SINGLE_INVERSE
        EPS        1e-09
        EPS_FILTER 1e-08
      &END
      &XC
        &XC_FUNCTIONAL
          &MGGA_X_R2SCAN
          &END
          &MGGA_C_R2SCAN
          &END
        &END XC_FUNCTIONAL
      &END XC
    &END ENERGY_CORRECTION

    &SCF
      EPS_SCF                  1.0E-7
      SCF_GUESS                RESTART
      MAX_SCF                  10
      &OT
        PRECONDITIONER         FULL_SINGLE_INVERSE
        MINIMIZER              DIIS
      &END OT
      &OUTER_SCF
        MAX_SCF                10
        EPS_SCF                1.0E-7
      &END
    &END

  &END DFT
  &PRINT
    &FORCES ON
    &END FORCES
    &STRESS_TENSOR ON
    &END STRESS_TENSOR
  &END PRINT
&END FORCE_EVAL