&GLOBAL
  PROJECT b98c39bb864745f3a1846bf8995ac9def90d509e
  RUN_TYPE ENERGY_FORCE
  PRINT_LEVEL MEDIUM
&END GLOBAL

&FORCE_EVAL
  METHOD Quickstep
  STRESS_TENSOR ANALYTICAL
  &SUBSYS
    &CELL
      A    14.652888298     0.000000000     0.000000000
      B     0.004910556    12.971384048     0.000000000
      C     7.261244774     0.003344078    12.977430344

    &END CELL
    &COORD
      Si   21.196403503    11.524193764    12.454003334
      Si    4.549010277     6.384840012     3.253931761
      Si   10.576633453    11.689413071    11.449137688
      Si   11.075112343     9.395783424     7.532907963
      Si    6.393634319     8.085768700     7.050433159
      Si    8.271744728     4.774552345     4.022128582
      Si    2.538117170     4.618554115     1.930288911
      Si   10.157228470    12.382400513     6.654420853
      Si    5.826929569     1.367872238     4.028827190
      Si   11.939220428     3.982497454     7.379293919
      Si    7.746128559    10.372499466     3.540983677
      Si   15.079031944     9.990153313     1.681984663
      Si    6.920036793    10.646400452     0.780785024
      Si   17.229129791    11.866749763     7.278307915
      Si   18.022829056     8.633612633     7.407367229
      Si    4.575630665     4.053107262     5.392859936
      O    1.170145035     0.828752458     1.866436481
      O    6.109611988     7.450313568     8.648301125
      O   12.861469269     3.096343756     6.289839745
      O    7.525786877     1.186830640     4.563252449
      O    7.101077557    11.121361732     2.325634003
      O    0.530875146     8.542295456     0.799937785
      O    5.082466602     0.034149170     3.941995621
      O   12.361389160     5.637466431     7.384337902
      O   15.209794044     6.924200535     3.916955948
      O    8.883450508     2.221078396    12.527564049
      O   18.341337204     8.050076485     8.842500687
      O    8.634907722    11.851271629     7.268950462
      O   16.685905457    12.922801971     8.524882317
      O    9.855983734     8.511987686     7.918223858
      O   12.176657677     6.940576077     4.904370308
      O   12.022350311    11.527864456     3.704513788
      O   11.661164284     5.251829624    11.385045052
      O   12.129062653     8.272240639     7.027166843
      O   15.679040909     6.501687527     9.020033836
      O   14.644177437    12.357831955     3.683470964
      O   11.209620476    10.560925484    12.314608574
      O   15.778068542     4.539752007     2.660755634
      O    8.691123009     4.605299473    10.623984337
      O    1.511201262    11.158881187     1.730106711
      O    5.804754734     1.794462681     2.273226738
      O    8.807558060     8.757295609    10.369256973
      O    7.316550255     0.012030602    12.761083603
      O   15.497852325     8.671152115    10.824754715
      O    7.302121639    11.126488686     4.975198269
      O   14.610753059     9.294706345     3.011721134
      O    9.329717636    10.539045334     3.423835516
      O    6.041527271    11.684778214     7.244397640
      Si   10.735286713     4.935211658     2.133434534
      Si    5.200068951     4.313839436     8.440138817
      Si   11.810144424     6.896487713    11.338402748
      Si   16.428915024     3.339831114     6.142990112
      Si   15.776846886     1.404760599     8.399538994
      Si   13.651420593     3.436863422     4.808699608
      Si   17.550420761     2.012620211    11.642809868
      Si    4.510886669     9.263462067     0.380604357
      Si   11.719684601     2.278852940     2.898032188
      Si   15.426735878     8.439661026     4.167042255
      Si   14.937097549     7.087077141    10.391602516
      Si    3.848534107    12.199205399     4.630080700
      Si   12.806028366     0.552526116     7.355570793
      Si    7.408485889    10.929954529     6.648296833
      Si   10.415925026     1.451245427    12.259412766
      Si    6.441959858     4.958374500     1.446448326
      O   14.554658890     9.791832924     8.076229095
      O   11.588798523     0.876898646     2.035747766
      O    2.299949884     8.898156166     3.618759394
      O    9.678265572     4.465648651     3.374794483
      O    7.582817554     5.712614059     0.731693983
      O   15.374725342     9.044998169     5.660358429
      O    7.189324379     9.435722351     7.087720871
      O    9.771854401    12.631278038     5.213487625
      O   14.447065353     6.851362705     6.635228634
      O    6.096282482    11.817435265     0.000688501
      O   11.388851166     8.910303116     2.998798132
      O   18.216463089     1.652283192    10.192396164
      O   15.739282608     2.476843119     9.651212692
      O   18.853055954     5.538660526     8.911610603
      O    9.836964607     0.024275180    12.005541801
      O    7.473877907     8.735181808     3.506206751
      O   12.064161301     3.567278385     8.980400085
      O   13.420615196     7.184655190    10.799910545
      O    4.543009281     7.813991070     3.895796776
      O   10.486393929     4.007416248     6.677243710
      O   14.100084305    11.265439034    10.622003555
      O    8.446254730     6.577568531     8.882522583
      O   13.296218872    11.891719818     8.245975494
      O    7.105430603    10.804360390     9.436615944
      O    4.194537163     9.641085625     1.980275393
      O   10.362929344     2.273024082     4.082060337
      O   17.437738419     0.620108008    12.755290985
      O   17.969850540     9.446906090    11.633855820
      O    7.316812038     6.580739021    12.029443741
      O    9.581022263    11.215828896    10.319289207
      O    6.110471725     2.128011227    10.751151085
      O    9.183031082     0.409793466     2.783653736
      Si   14.232416153     7.313148499     0.348684669
      Si   20.351490021     2.804102659    12.293354034
      Si   14.744405746    10.297867775     6.516188145
      Si    8.276640892    10.253769875    10.349916458
      Si   16.297985077     5.902705669    12.906187057
      Si   19.758720398     1.618046165     9.605311394
      Si   10.127184868     0.139875412     1.485690594
      Si    8.094072342     7.680733204     4.503958225
      Si   11.122014999     7.603503704     3.797367573
      Si    8.844450951     3.310619354     6.809969902
      Si   16.047876358    12.460525513     2.767729759
      Si   15.784403801     6.310153484     7.377913475
      Si   14.658983231     5.617386818     3.101426601
      Si    3.909119129     9.276331902     3.542513371
      Si    4.837442398     2.452949524     1.114070773
      Si   18.536081314    11.053690910    10.983154297
      O   12.016471863     9.863403320     8.947685242
      O   12.922392845     0.408866644     5.640399933
      O   16.940828323    11.387780190    11.035862923
      O   11.911871910    12.557217598    10.941203117
      O   21.393993378     4.053001881    12.440769196
      O    3.259207726     5.951615810     2.357292414
      O   11.173853874     6.449110031     2.558655977
      O   19.192668915    11.078301430     9.562469482
      O    4.118938446     1.224135756     0.529821932
      O   15.797444344    11.561678886     6.589344978
      O   13.577209473     2.038479328     0.666990936
      O   11.354303360     7.828027725    12.655138016
      O    8.023644447     4.292376041     5.586749554
      O   13.767387390     3.745351315    10.869776726
      O    7.270755768     7.332566738     5.883606911
      O   11.038195610     7.514668941    10.089080811
      O    9.940942764     7.203835964     0.222365931
      O   17.104776382     7.347126007     6.873371124
      O   14.077506065     1.081094027    11.303750992
      O   13.610370636    10.768865585     5.438592434
      O    3.538266182    12.535123825     6.224194527
      O    9.167867661     1.912666798     6.255814075
      O    5.792387486     3.712637663     0.445281416
      O   11.502717972     3.485567808     2.035618067
      O    5.339426041     6.194653988     1.936478734
      O    5.025297642     2.503472567     4.814886093
      O    1.898809195     4.840740681     0.352490604
      O    4.649167538     5.364868641     4.469253063
      O   12.993577003     2.507556200     3.700673103
      O   13.840617180    10.779353142     0.880940318
      O    4.949808121     2.734525919     8.467264175
      O   15.206255913     2.984791756     5.128591537
      Si   19.389387131     6.946762562     9.371667862
      Si   16.260368347     9.982176781    11.562644958
      Si    9.610991478     7.826801777     9.301735878
      Si    9.185442924     1.121117353     4.528343678
      Si   18.521343231     7.740065098    12.247298241
      Si   10.922642708    10.554016113     2.830638647
      Si   13.411980629    10.618433952     9.068035126
      Si    0.449214011     1.407933354     0.579118252
      Si   14.878536224     2.609110594    10.981143951
      Si   13.372470856    12.535362244    11.508890152
      Si    7.912798882     5.118425369     9.298235893
      Si   12.911403656     6.921752930     6.313684940
      Si    5.739609241    11.647764206     8.841660500
      Si   13.359439850    12.082217216     4.494194031
      Si   12.127372742     3.870303392    10.693145752
      Si    8.032176018     4.851444244    12.066919327
      O   18.914999008     6.801662922    11.008693695
      O   17.546449661    10.243142128     7.672980309
      O   11.268137932     0.403198689     7.495847702
      O   19.773675919    11.674419403    11.742100716
      O   13.667855263     4.894832611     4.060984135
      O    3.580311775     3.347309351     1.839991093
      O    9.670331001     7.796482086     4.564678669
      O   15.979000092     6.154891014    11.383013725
      O   13.993004799     1.457727790     8.106649399
      O    6.358181477     4.793236732     9.596011162
      O    8.147475243     3.938166380     8.207763672
      O   18.770460129     3.044457436    11.995746613
      O   15.590869904    10.199247360    12.964902878
      O    7.566168308    10.490708351    11.764614105
      O   12.662450790     7.777843952     0.274940789
      O   10.876360893    10.879689217     6.880768776
      O    5.369784832     4.611394882     6.822364330
      O    5.778104305     0.192918137     9.129714012
      O   16.514232635     1.997022748     7.063951492
      O   11.216154099     2.581637859    11.310833931
      O    4.222655773    10.547355652     4.408974648
      O   10.496382713    11.433181763     1.388374209
      O    4.891752720     8.679008484     6.733375072
      O    3.056623459     3.699087620     5.449493885
      O   16.027616501     4.752346039     6.956961155
      O   16.195043564     2.782940149    11.952430725
      O    6.965498447     4.204121113     2.811509371
      O    2.419497490    12.274248123     3.949490309
      O   14.064242363     6.394187450     1.792204857
      O    7.971156120     6.299663544     3.860633135
      O    6.214299202     9.204299927     0.461104810
      O   10.033076286     4.875832081     0.646203876
      UNIT ANGSTROM
    &END COORD
    &KIND H
      BASIS_SET ORB TZV2P-MOLOPT-SCAN-GTH-q1
      BASIS_SET AUX_FIT admm-dzp-q1
      POTENTIAL GTH-SCAN-q1
    &END
    &KIND O
      BASIS_SET ORB TZV2P-MOLOPT-SCAN-GTH-q6
      BASIS_SET AUX_FIT admm-dzp-q6
      POTENTIAL GTH-SCAN-q6
    &END
    &KIND Zr
      BASIS_SET ORB TZV2P-MOLOPT-MGGA-GTH-q12
      BASIS_SET AUX_FIT admm-dzp-q12
      POTENTIAL GTH-SCAN-q12
    &END KIND
    &KIND C
      BASIS_SET ORB TZV2P-MOLOPT-SCAN-GTH-q4
      BASIS_SET AUX_FIT admm-dzp-q4
      POTENTIAL GTH-SCAN-q4
    &END KIND
    &KIND Si
      BASIS_SET ORB TZV2P-MOLOPT-SCAN-GTH-q4
      BASIS_SET AUX_FIT admm-dzp-q4
      POTENTIAL GTH-SCAN-q4
    &END KIND
  &END SUBSYS
  &DFT
    BASIS_SET_FILE_NAME  BASIS_MOLOPT_UZH
    BASIS_SET_FILE_NAME  BASIS_ADMM_UZH
    POTENTIAL_FILE_NAME  POTENTIAL_SCAN
    WFN_RESTART_FILE_NAME  PRECONVERGED-RESTART.wfn

    &QS
      EPS_DEFAULT 1.0E-12
      EPS_PGF_ORB 1e-06
      MIN_PAIR_LIST_RADIUS     -1
    &END QS
    &AUXILIARY_DENSITY_MATRIX_METHOD
        METHOD BASIS_PROJECTION
        ADMM_PURIFICATION_METHOD NONE
        EXCH_CORRECTION_FUNC PBEX
     &END
    &MGRID
      NGRIDS 5
      CUTOFF 2500
      REL_CUTOFF 120
    &END MGRID
    &XC
     &XC_FUNCTIONAL NONE
     &END XC_FUNCTIONAL
     &HF
        &HF_INFO ON
        &END
        &SCREENING
           EPS_SCHWARZ 1e-06
           SCREEN_ON_INITIAL_P TRUE
        &END
        &MEMORY
           MAX_MEMORY 8000
           EPS_STORAGE_SCALING 0.1
        &END
        &INTERACTION_POTENTIAL
           POTENTIAL_TYPE TRUNCATED
           CUTOFF_RADIUS  6.0
        &END
        FRACTION 1.00
     &END
    &END XC

    &ENERGY_CORRECTION
      ENERGY_FUNCTIONAL DCDFT
      &RESPONSE_SOLVER
        METHOD MO_SOLVER
        PRECONDITIONER FULL_SINGLE_INVERSE
        EPS        1e-09
        EPS_FILTER 1e-08
      &END
      &XC
        &XC_FUNCTIONAL
          &MGGA_X_R2SCAN
          &END
          &MGGA_C_R2SCAN
          &END
        &END XC_FUNCTIONAL
      &END XC
    &END ENERGY_CORRECTION

    &SCF
      EPS_SCF                  1.0E-7
      SCF_GUESS                RESTART
      MAX_SCF                  10
      &OT
        PRECONDITIONER         FULL_SINGLE_INVERSE
        MINIMIZER              DIIS
      &END OT
      &OUTER_SCF
        MAX_SCF                10
        EPS_SCF                1.0E-7
      &END
    &END

  &END DFT
  &PRINT
    &FORCES ON
    &END FORCES
    &STRESS_TENSOR ON
    &END STRESS_TENSOR
  &END PRINT
&END FORCE_EVAL