&GLOBAL
  PROJECT e8276f6ccf6a0907f8a03277e0d3a5cacdb38df1
  RUN_TYPE ENERGY_FORCE
  PRINT_LEVEL MEDIUM
&END GLOBAL

&FORCE_EVAL
  METHOD Quickstep
  STRESS_TENSOR ANALYTICAL
  &SUBSYS
    &CELL
      A    14.954314232     0.000000000     0.000000000
      B    -0.008068178    12.694526672     0.000000000
      C     7.451412201     0.003923412    13.050286293

    &END CELL
    &COORD
      Si    8.499844551     3.209999800     5.492273331
      Si    1.702128649     2.784627914     1.249718666
      Si    6.205765724    12.378345490     6.514639378
      Si   11.069699287     9.927445412    12.454208374
      Si   14.424678802     2.162194967     3.178884506
      Si    4.411405563     3.658025980     2.706888914
      Si    9.291736603     3.565146923     8.543216705
      Si   11.453866005     6.120791912     2.721537352
      Si   10.541898727     9.201472282     5.674305916
      Si   11.813486099     6.751492977     7.363029003
      Si    3.305038452     8.916944504     5.616529942
      Si    6.837567329     6.537088871     6.109563351
      Si   15.672756195     2.384038925     8.424104691
      Si   12.112295151    10.183826447     9.565090179
      Si   10.470824242     3.717413425     3.171588421
      Si    4.699561119    10.983571053     4.486377716
      O   10.223842621    12.425956726     6.421011448
      O    9.710151672    10.543173790     0.214563847
      O   12.797971725     6.022489071     3.557164669
      O    6.737337589     8.059592247     6.770180702
      O    5.099715710     7.255594254     2.182459831
      O   15.048886299     7.568307877     9.252093315
      O   18.109199524     7.795761585     6.788564682
      O   10.574389458     2.341006041     2.406071424
      O    6.479331017     0.338745117     8.025038719
      O    2.391417503     0.430290878     4.139710426
      O   13.047951698     9.653655052     8.256494522
      O    3.416805744     4.060320854     3.871923923
      O   17.769647598    11.587594986     8.500425339
      O   10.192035675     6.615677357     3.558086634
      O    5.730401039     5.958975315     4.969046593
      O   17.137990952     2.944392920     8.110969543
      O   13.335421562    10.808893204    10.348067284
      O   15.857441902     1.827118754     2.328144550
      O    5.734930992     2.652679443     3.313894510
      O    1.149768233     4.356374264     1.191599965
      O    7.437471390     7.011310101     3.462494135
      O   15.129658699     6.343011856     4.528263092
      O    7.774749756    10.744600296     2.275641680
      O   11.590339661    10.265499115     4.973431587
      O   14.699466705    10.027188301     0.918773711
      O   15.538183212     1.117485642    12.681420326
      O    9.355470657     3.648198366     6.877563953
      O   11.119747162    12.367820740     1.449588776
      O   17.665731430     8.136840820    10.101938248
      O    7.468939304     3.000245810     0.981449842
      O   13.445071220    11.276966095     3.342686415
      O    4.484823704     2.593509197     5.551867008
      Si   15.768372536     7.561238289     3.531605005
      Si   11.463985443     0.835656881     2.494714737
      Si    3.984709263     7.477662086     0.933861256
      Si    8.281895638     7.249644279     0.231154069
      Si   16.113903046     0.712096214    11.224112511
      Si    9.532303810     6.579786777     9.645139694
      Si   19.032810211     7.768621445    10.781968117
      Si   13.085094452     1.224542618     6.881834030
      Si   13.918902397     4.161594868    10.213912010
      Si   18.559717178     2.956650734     8.901757240
      Si    7.706818104     9.456461906     7.123306274
      Si    7.390434265    11.957448959     3.177115202
      Si   20.731082916    12.128065109    11.592894554
      Si    7.722751141     0.900677264     8.980965614
      Si    5.453904152     5.332367897     8.663964272
      Si   11.265083313     8.255418777     0.716060400
      O   11.351604462     9.343701363    10.883691788
      O    8.458991051     2.012359619    12.915144920
      O    9.455619812     9.884699821    12.650666237
      O   15.437467575     9.488353729    10.868570328
      O   14.887281418     1.447919488     4.604850292
      O   15.473612785     6.657963753     2.175772429
      O   11.018643379    11.113914490     8.947560310
      O    9.256693840     0.215036497     8.665539742
      O   17.691665649     0.380375534    10.985980034
      O   18.734537125     6.155780315    11.246290207
      O    7.268194675     9.590604782     8.690506935
      O   16.355131149     6.172174454     7.618931293
      O   15.430261612    10.860691071     7.789192200
      O   20.143709183     4.319633007    12.412153244
      O   12.049483299     7.009360790     1.434150219
      O   15.348248482    12.077450752    10.617561340
      O   12.885351181     5.421068192    10.491059303
      O   19.103467941     1.306171775     8.884035110
      O   13.592647552     4.432425499     5.494754314
      O   11.358360291     3.785572529     4.475196362
      O    4.222265244     8.990043640     0.467259824
      O    7.637664318     8.745284081     0.731100142
      O   13.991064072    10.547235489     5.688432217
      O    8.010681152     2.512065887     8.596597672
      O    3.541183710    10.851021767     3.383445978
      O   20.054597855    11.580933571    12.975110054
      O    6.922439098     3.272706985     5.750757694
      O   10.398681641     2.821464539     9.609857559
      O   11.506910324     5.297976494     6.675935268
      O    7.206321239     8.961709023    11.520353317
      O   19.014938354     8.735616684    12.275502205
      O   11.313460350     1.226589084    11.819665909
      Si   14.639888763    10.799014091    11.218853951
      Si   15.609421730     4.227005482    12.989151001
      Si   11.441714287     2.656826496    10.836310387
      Si    2.581518173    12.054548264     2.859708071
      Si    8.878199577     7.237438679     4.202955723
      Si    9.683788300     0.219587088     4.951060295
      Si   17.839756012     6.197215557     7.135357857
      Si   14.284040451    10.008017540     7.182332516
      Si   12.089696884     3.966719866     5.906856537
      Si   21.564226151     4.803169250    11.640613556
      Si    7.826387882    10.095060349    12.529612541
      Si    7.038019180     1.444904447     1.009330988
      Si    8.107738495    10.304162025     0.815928221
      Si    7.242464542     1.929416895    11.761381149
      Si    5.907221317     6.326513767     3.217393398
      Si   16.385093689     1.089628816     5.247056484
      O   19.002758026     6.148054600     8.412919044
      O   12.932511330     2.831837893    10.271055222
      O    3.276961565     3.105681896     1.571199059
      O   11.549592972     9.574412346     1.508043408
      O   14.383159637     3.814376831     3.142182350
      O    3.277251959     0.042471066     1.592944741
      O   12.225620270     2.536084414     6.595263958
      O    9.288811684     9.386479378     6.836483479
      O    5.322353840     4.998176575     2.391763926
      O    9.001118660     3.802668095     4.074743271
      O    9.347656250     5.105247974     9.056939125
      O    8.704305649    11.817048073     4.247646809
      O    9.459044456     8.702412605     4.496921062
      O   13.492162704     6.560571671     7.465493202
      O    8.954019547     1.716549516     5.118229389
      O   16.816879272     2.641790628     5.560563564
      O   14.618116379     3.657440662     8.850263596
      O    7.619050503     5.745453835    12.572563171
      O   10.256123543     6.351003170    11.235868454
      O    5.857130051    11.661800385     3.533704281
      O    8.391081810     6.463264465     5.514487743
      O   17.146791458     8.128623962     4.276894093
      O   19.993925095    11.939554214    10.143849373
      O    7.259739399    11.395452499    11.598110199
      O   17.195610046     4.164578438    12.552846909
      O   10.837750435     6.994899750     8.660052299
      O   15.672110558     7.080072403    11.600940704
      O    6.433479309     0.737116635     5.290416241
      O    4.703542709    11.793847084     6.042531967
      O   10.915548325     0.199868679     3.959605217
      O   13.006961823     1.536016226     2.504454851
      O   10.876872063     4.789204121     2.058622837
      Si   14.129001617     5.214162827     4.103154182
      Si   14.711731911    10.340818405     2.608798504
      Si    0.978591800     5.869854450     0.929226339
      Si   11.720839500     5.618029118    11.588306427
      Si   14.995862961     7.214849949     7.701743126
      Si    4.140659332     0.367249042     0.100660324
      Si   18.476709366     4.542164803    11.718389511
      Si    7.006744385     8.669551849     9.888822556
      Si   12.892171860    11.298891068     4.849209785
      Si   10.615498543    12.499426842     8.049773216
      Si   11.286489487    11.001925468     0.725380003
      Si   16.858865738    11.315404892     7.277393818
      Si    5.962566376     2.321995497     5.001840115
      Si   18.562294006    12.663917542     9.625812531
      Si   16.034280777     8.077613831    10.321256638
      Si    3.193671942     3.566724300     5.424154282
      O    7.295331478    10.878522873     6.495509624
      O   14.606216431    11.122956276    12.870513916
      O   12.918506622     0.062103271     5.686115742
      O   12.107972145     0.660483658     8.113965034
      O   20.788467407     1.075328588    11.944261551
      O   11.227669716     4.033158302    11.939715385
      O   14.734433174     8.954501152     3.285857439
      O   14.778057098     4.342050076    11.528921127
      O    4.890753269     3.849280119     8.330454826
      O    8.194068909     7.444738865     9.866290092
      O   17.353176117    10.155907631     6.322497845
      O   12.184615135     6.639678955    12.682294846
      O   11.493825912     8.058093071     6.276326656
      O   18.352184296     3.489771128    10.466459274
      O   11.602469444    11.390482903    12.605044365
      O    7.541864872     0.667063177     2.310716867
      O   14.579089165     1.599268913     7.435171604
      O   18.146743774     4.980095387     6.155948162
      O    2.418580532     6.901893139     1.049963713
      O   20.335691452     8.241466522    10.050720215
      O    7.912226677     5.754606247     0.714936197
      O   15.900064468     1.697267652     9.892566681
      O    6.501063347     5.705127239     7.454775333
      O    4.712918282     9.402500153     5.134521008
      O   14.849726677     8.548090935     6.831965446
      O    6.338501453     5.277614117    10.030157089
      O    9.726498604     7.531257629     0.810647786
      O   15.918523788    11.587255478     2.585931540
      O    5.570349216     0.993466914     0.612363875
      O   16.717369080     0.082370758     6.510233879
      O    7.286620617     3.386663198    11.352492332
      O    7.760545731     0.967686772    10.549838066
      UNIT ANGSTROM
    &END COORD
    &KIND H
      BASIS_SET ORB TZV2P-MOLOPT-SCAN-GTH-q1
      BASIS_SET AUX_FIT admm-dzp-q1
      POTENTIAL GTH-SCAN-q1
    &END
    &KIND O
      BASIS_SET ORB TZV2P-MOLOPT-SCAN-GTH-q6
      BASIS_SET AUX_FIT admm-dzp-q6
      POTENTIAL GTH-SCAN-q6
    &END
    &KIND Zr
      BASIS_SET ORB TZV2P-MOLOPT-MGGA-GTH-q12
      BASIS_SET AUX_FIT admm-dzp-q12
      POTENTIAL GTH-SCAN-q12
    &END KIND
    &KIND C
      BASIS_SET ORB TZV2P-MOLOPT-SCAN-GTH-q4
      BASIS_SET AUX_FIT admm-dzp-q4
      POTENTIAL GTH-SCAN-q4
    &END KIND
    &KIND Si
      BASIS_SET ORB TZV2P-MOLOPT-SCAN-GTH-q4
      BASIS_SET AUX_FIT admm-dzp-q4
      POTENTIAL GTH-SCAN-q4
    &END KIND
  &END SUBSYS
  &DFT
    BASIS_SET_FILE_NAME  BASIS_MOLOPT_UZH
    BASIS_SET_FILE_NAME  BASIS_ADMM_UZH
    POTENTIAL_FILE_NAME  POTENTIAL_SCAN
    WFN_RESTART_FILE_NAME  PRECONVERGED-RESTART.wfn

    &QS
      EPS_DEFAULT 1.0E-12
      EPS_PGF_ORB 1e-06
      MIN_PAIR_LIST_RADIUS     -1
    &END QS
    &AUXILIARY_DENSITY_MATRIX_METHOD
        METHOD BASIS_PROJECTION
        ADMM_PURIFICATION_METHOD NONE
        EXCH_CORRECTION_FUNC PBEX
     &END
    &MGRID
      NGRIDS 5
      CUTOFF 2500
      REL_CUTOFF 120
    &END MGRID
    &XC
     &XC_FUNCTIONAL NONE
     &END XC_FUNCTIONAL
     &HF
        &HF_INFO ON
        &END
        &SCREENING
           EPS_SCHWARZ 1e-06
           SCREEN_ON_INITIAL_P TRUE
        &END
        &MEMORY
           MAX_MEMORY 8000
           EPS_STORAGE_SCALING 0.1
        &END
        &INTERACTION_POTENTIAL
           POTENTIAL_TYPE TRUNCATED
           CUTOFF_RADIUS  6.0
        &END
        FRACTION 1.00
     &END
    &END XC

    &ENERGY_CORRECTION
      ENERGY_FUNCTIONAL DCDFT
      &RESPONSE_SOLVER
        METHOD MO_SOLVER
        PRECONDITIONER FULL_SINGLE_INVERSE
        EPS        1e-09
        EPS_FILTER 1e-08
      &END
      &XC
        &XC_FUNCTIONAL
          &MGGA_X_R2SCAN
          &END
          &MGGA_C_R2SCAN
          &END
        &END XC_FUNCTIONAL
      &END XC
    &END ENERGY_CORRECTION

    &SCF
      EPS_SCF                  1.0E-7
      SCF_GUESS                RESTART
      MAX_SCF                  10
      &OT
        PRECONDITIONER         FULL_SINGLE_INVERSE
        MINIMIZER              DIIS
      &END OT
      &OUTER_SCF
        MAX_SCF                10
        EPS_SCF                1.0E-7
      &END
    &END

  &END DFT
  &PRINT
    &FORCES ON
    &END FORCES
    &STRESS_TENSOR ON
    &END STRESS_TENSOR
  &END PRINT
&END FORCE_EVAL