 DBCSR| CPU Multiplication driver                                           XSMM
 DBCSR| Multrec recursion limit                                              512
 DBCSR| Multiplication stack size                                           1000
 DBCSR| Maximum elements for images                                    UNLIMITED
 DBCSR| Multiplicative factor virtual images                                   1
 DBCSR| Use multiplication densification                                       T
 DBCSR| Multiplication size stacks                                             3
 DBCSR| Use memory pool for CPU allocation                                     F
 DBCSR| Number of 3D layers                                               SINGLE
 DBCSR| Use MPI memory allocation                                              F
 DBCSR| Use RMA algorithm                                                      F
 DBCSR| Use Communication thread                                               T
 DBCSR| Communication thread load                                             87
 DBCSR| MPI: My node id                                                        0
 DBCSR| MPI: Number of nodes                                                  64
 DBCSR| OMP: Current number of threads                                         1
 DBCSR| OMP: Max number of threads                                             1
 DBCSR| Split modifier for TAS multiplication algorithm                  1.0E+00


  **** **** ******  **  PROGRAM STARTED AT               2023-12-06 09:48:47.580
 ***** ** ***  *** **   PROGRAM STARTED ON                 b5201.betzy.sigma2.no
 **    ****   ******    PROGRAM STARTED BY                              sigbjobo
 ***** **    ** ** **   PROGRAM PROCESS ID                                106697
  **** **  *******  **  PROGRAM STARTED IN /cluster/work/users/sigbjobo/ice_mode
                                           l/cp2k/iter_1/calculator/ice_ih/77079
                                           1

 CP2K| version string:                                       CP2K version 2022.1
 CP2K| source code revision number:                                  git:2caeb6f
 CP2K| cp2kflags: omp libint fftw3 libxc parallel mpi3 scalapack xsmm plumed2 li
 CP2K|            bvori libbqb
 CP2K| is freely available from                            https://www.cp2k.org/
 CP2K| Program compiled at                          Tue Oct 31 08:14:18 CET 2023
 CP2K| Program compiled on                               login-2.betzy.sigma2.no
 CP2K| Program compiled for                                    Linux-x86-64-foss
 CP2K| Data directory path         /cluster/software/CP2K/2022.1-foss-2022a/data
 CP2K| Input file name              0ceb834eb5b785ca7ed02bb4e2daa7900aefebcd.inp

 GLOBAL| Force Environment number                                              1
 GLOBAL| Basis set file name                                           BASIS_SET
 GLOBAL| Potential file name                                      GTH_POTENTIALS
 GLOBAL| MM Potential file name                                     MM_POTENTIAL
 GLOBAL| Coordinate file name                                      __STD_INPUT__
 GLOBAL| Method name                                                        CP2K
 GLOBAL| Project name                   0ceb834eb5b785ca7ed02bb4e2daa7900aefebcd
 GLOBAL| Run type                                                   ENERGY_FORCE
 GLOBAL| FFT library                                                       FFTW3
 GLOBAL| Diagonalization library                                       ScaLAPACK
 GLOBAL| Orthonormality check for eigenvectors                          DISABLED
 GLOBAL| Matrix multiplication library                                 ScaLAPACK
 GLOBAL| All-to-all communication in single precision                          F
 GLOBAL| FFTs using library dependent lengths                                  F
 GLOBAL| Grid backend                                                       AUTO
 GLOBAL| Global print level                                                  LOW
 GLOBAL| MPI I/O enabled                                                       T
 GLOBAL| Total number of message passing processes                            64
 GLOBAL| Number of threads for this process                                    1
 GLOBAL| This output is from process                                           0
 GLOBAL| Stack size for threads created by OpenMP (OMP_STACKSIZE)        default
 GLOBAL| CPU model name                          AMD EPYC 7742 64-Core Processor
 GLOBAL| CPUID                                                              1002

 MEMORY| system memory details [Kb]
 MEMORY|                        rank 0           min           max       average
 MEMORY| MemTotal           1056169888    1056169888    1056169888    1056169888
 MEMORY| MemFree            1037738700    1037738700    1037738700    1037738700
 MEMORY| Buffers                 32600         32600         32600         32600
 MEMORY| Cached                1989820       1989820       1989820       1989820
 MEMORY| Slab                  1392508       1392508       1392508       1392508
 MEMORY| SReclaimable           362748        362748        362748        362748
 MEMORY| MemLikelyFree      1040123868    1040123868    1040123868    1040123868


 GENERATE|  Preliminary Number of Bonds generated:                             0
 GENERATE|  Achieved consistency in connectivity generation.

 *******************************************************************************
 *******************************************************************************
 **                                                                           **
 **     #####                         ##              ##                      **
 **    ##   ##            ##          ##              ##                      **
 **   ##     ##                       ##            ######                    **
 **   ##     ##  ##   ##  ##   #####  ##  ##   ####   ##    #####    #####    **
 **   ##     ##  ##   ##  ##  ##      ## ##   ##      ##   ##   ##  ##   ##   **
 **   ##  ## ##  ##   ##  ##  ##      ####     ###    ##   ######   ######    **
 **    ##  ###   ##   ##  ##  ##      ## ##      ##   ##   ##       ##        **
 **     #######   #####   ##   #####  ##  ##  ####    ##    #####   ##        **
 **           ##                                                    ##        **
 **                                                                           **
 **                                                ... make the atoms dance   **
 **                                                                           **
 **            Copyright (C) by CP2K developers group (2000-2022)             **
 **                      J. Chem. Phys. 152, 194103 (2020)                    **
 **                                                                           **
 *******************************************************************************


 TOTAL NUMBERS AND MAXIMUM NUMBERS

  Total number of            - Atomic kinds:                                   2
                             - Atoms:                                         48
                             - Shell sets:                                    96
                             - Shells:                                       176
                             - Primitive Cartesian functions:                240
                             - Cartesian basis functions:                    384
                             - Spherical basis functions:                    368

  Maximum angular momentum of- Orbital basis functions:                        2
                             - Local part of the GTH pseudopotential:          2
                             - Non-local part of the GTH pseudopotential:      0


 SCF PARAMETERS         Density guess:                                    ATOMIC
                        --------------------------------------------------------
                        max_scf:                                              20
                        max_scf_history:                                       0
                        max_diis:                                              4
                        --------------------------------------------------------
                        eps_scf:                                        1.00E-05
                        eps_scf_history:                                0.00E+00
                        eps_diis:                                       1.00E-01
                        eps_eigval:                                     1.00E-05
                        --------------------------------------------------------
                        level_shift [a.u.]:                             0.000000
                        --------------------------------------------------------
                        Outer loop SCF in use
                        No variables optimised in outer loop
                        eps_scf                                         1.00E-05
                        max_scf                                              100
                        No outer loop optimization
                        step_size                                       5.00E-01

 Number of electrons:                                                        128
 Number of occupied orbitals:                                                 64
 Number of molecular orbitals:                                                64

 Number of orbital functions:                                                368
 Number of independent orbital functions:                                    368

 Extrapolation method: initial_guess


 SCF WAVEFUNCTION OPTIMIZATION

  ----------------------------------- OT ---------------------------------------
  Minimizer      : DIIS                : direct inversion
                                         in the iterative subspace
                                         using   7 DIIS vectors
                                         safer DIIS on
  Preconditioner : FULL_SINGLE_INVERSE : inversion of
                                         H + eS - 2*(Sc)(c^T*H*c+const)(Sc)^T
  Precond_solver : DEFAULT
  stepsize       :    0.08000000                  energy_gap     :    0.08000000
  eps_taylor     :   0.10000E-15                  max_taylor     :             4
  ----------------------------------- OT ---------------------------------------

  Step     Update method      Time    Convergence         Total energy    Change
  ------------------------------------------------------------------------------
     1 OT DIIS     0.80E-01    0.4     0.05934896      -265.3702377222 -2.65E+02
     2 OT DIIS     0.80E-01    0.3     0.04239693      -270.0495895777 -4.68E+00
     3 OT DIIS     0.80E-01    0.3     0.03050783      -272.3242206309 -2.27E+00
     4 OT DIIS     0.80E-01    0.2     0.01958750      -274.1487121596 -1.82E+00
     5 OT DIIS     0.80E-01    0.3     0.01492200      -274.6434694947 -4.95E-01
     6 OT DIIS     0.80E-01    0.3     0.01084708      -275.0394061459 -3.96E-01
     7 OT DIIS     0.80E-01    0.3     0.00630633      -275.2522472162 -2.13E-01
     8 OT DIIS     0.80E-01    0.3     0.00437788      -275.3265854328 -7.43E-02
     9 OT DIIS     0.80E-01    0.3     0.00276835      -275.3762131772 -4.96E-02
    10 OT DIIS     0.80E-01    0.3     0.00194840      -275.4020466979 -2.58E-02
    11 OT DIIS     0.80E-01    0.3     0.00174008      -275.4168079521 -1.48E-02
    12 OT DIIS     0.80E-01    0.3     0.00125354      -275.4239461806 -7.14E-03
    13 OT DIIS     0.80E-01    0.3     0.00090442      -275.4293611171 -5.41E-03
    14 OT DIIS     0.80E-01    0.3     0.00062138      -275.4340092311 -4.65E-03
    15 OT DIIS     0.80E-01    0.3     0.00047302      -275.4361989908 -2.19E-03
    16 OT DIIS     0.80E-01    0.3     0.00036450      -275.4375058437 -1.31E-03
    17 OT DIIS     0.80E-01    0.3     0.00028973      -275.4382902027 -7.84E-04
    18 OT DIIS     0.80E-01    0.3     0.00023218      -275.4388171713 -5.27E-04
    19 OT DIIS     0.80E-01    0.3     0.00018797      -275.4391646337 -3.47E-04
    20 OT DIIS     0.80E-01    0.3     0.00015165      -275.4394256777 -2.61E-04

  Leaving inner SCF loop after reaching    20 steps.


  Electronic density on regular grids:       -127.9999999992        0.0000000008
  Core density on regular grids:              128.0000000000       -0.0000000000
  Total charge density on r-space grids:        0.0000000007
  Total charge density g-space grids:           0.0000000007

  Overlap energy of the core charge distribution:               0.00000019228764
  Self energy of the core charge distribution:               -709.55447994780241
  Core Hamiltonian energy:                                    207.36821491768578
  Hartree energy:                                             294.76968422377917
  Exchange-correlation energy:                                -68.02284506361198

  Total energy:                                              -275.43942567766180

  outer SCF iter =    1 RMS gradient =   0.15E-03 energy =       -275.4394256777

  ----------------------------------- OT ---------------------------------------
  Minimizer      : DIIS                : direct inversion
                                         in the iterative subspace
                                         using   7 DIIS vectors
                                         safer DIIS on
  Preconditioner : FULL_SINGLE_INVERSE : inversion of
                                         H + eS - 2*(Sc)(c^T*H*c+const)(Sc)^T
  Precond_solver : DEFAULT
  stepsize       :    0.08000000                  energy_gap     :    0.08000000
  eps_taylor     :   0.10000E-15                  max_taylor     :             4
  ----------------------------------- OT ---------------------------------------

  Step     Update method      Time    Convergence         Total energy    Change
  ------------------------------------------------------------------------------
     1 OT DIIS     0.80E-01    0.5     0.00047753      -275.4395861357 -1.60E-04
     2 OT DIIS     0.80E-01    0.3     0.00029455      -275.4399265163 -3.40E-04
     3 OT DIIS     0.80E-01    0.3     0.00012435      -275.4401331618 -2.07E-04
     4 OT DIIS     0.80E-01    0.3     0.00005848      -275.4401611330 -2.80E-05
     5 OT DIIS     0.80E-01    0.3     0.00002747      -275.4401676764 -6.54E-06
     6 OT DIIS     0.80E-01    0.3     0.00001304      -275.4401691289 -1.45E-06
     7 OT DIIS     0.80E-01    0.3     0.00000607      -275.4401695418 -4.13E-07

  *** SCF run converged in     7 steps ***


  Electronic density on regular grids:       -127.9999999992        0.0000000008
  Core density on regular grids:              128.0000000000       -0.0000000000
  Total charge density on r-space grids:        0.0000000007
  Total charge density g-space grids:           0.0000000007

  Overlap energy of the core charge distribution:               0.00000019228764
  Self energy of the core charge distribution:               -709.55447994780241
  Core Hamiltonian energy:                                    207.36806813768885
  Hartree energy:                                             294.76946796887654
  Exchange-correlation energy:                                -68.02322589289845

  Total energy:                                              -275.44016954184781

  outer SCF iter =    2 RMS gradient =   0.61E-05 energy =       -275.4401695418
  outer SCF loop converged in   2 iterations or   27 steps


 ENERGY| Total FORCE_EVAL ( QS ) energy [a.u.]:             -275.440169635319421

 ATOMIC FORCES in [a.u.]

 # Atom   Kind   Element          X              Y              Z
      1      1      O          -0.00228027    -0.00402753     0.01119705
      2      2      H           0.01220054     0.00076705    -0.00910442
      3      2      H          -0.00850717     0.00200674    -0.00817791
      4      1      O           0.00348553     0.01112669    -0.00058608
      5      2      H          -0.00883436     0.00718861    -0.00021068
      6      2      H           0.00348455     0.00346875    -0.00166386
      7      1      O          -0.00625078    -0.00112329    -0.00273743
      8      2      H          -0.00549576    -0.00908406     0.00595306
      9      2      H          -0.00145676     0.00874559    -0.00075700
     10      1      O           0.01432802     0.00166550     0.00794836
     11      2      H           0.02766411    -0.00549866     0.00787576
     12      2      H          -0.00497509     0.00263685    -0.00594623
     13      1      O           0.00000923    -0.00462284     0.01095066
     14      2      H           0.00287864     0.00195730     0.00219660
     15      2      H           0.00147100     0.00301605     0.00132728
     16      1      O          -0.03035598     0.01364785    -0.00282183
     17      2      H          -0.00502202    -0.00048771    -0.00441609
     18      2      H          -0.00736668    -0.00700092    -0.00034566
     19      1      O           0.00683749    -0.00125351    -0.00580505
     20      2      H           0.00861716    -0.01439717     0.00092146
     21      2      H          -0.01028678     0.00141410     0.01316813
     22      1      O          -0.00775325     0.00082140    -0.00744950
     23      2      H           0.01523014    -0.00872644     0.00571060
     24      2      H           0.00479215    -0.00043240    -0.00095707
     25      1      O          -0.00446842    -0.00719414    -0.00312805
     26      2      H           0.00165017     0.00981770    -0.00089783
     27      2      H          -0.00282465    -0.00173377     0.00771453
     28      1      O           0.00673938     0.00193384    -0.01347130
     29      2      H           0.00065290     0.00501906    -0.00373095
     30      2      H           0.00592394     0.00547413     0.00047844
     31      1      O           0.00554031     0.01324294    -0.01505100
     32      2      H          -0.00679100    -0.00560336     0.00892021
     33      2      H           0.00512734    -0.00401539     0.01455447
     34      1      O          -0.01288584    -0.00316481    -0.00570495
     35      2      H          -0.00190437    -0.00909597     0.00129412
     36      2      H           0.00201905    -0.00186092    -0.00231087
     37      1      O           0.00434646    -0.00261463     0.00058202
     38      2      H          -0.00575930     0.00000187    -0.00238640
     39      2      H          -0.00570829     0.01078670    -0.00646169
     40      1      O           0.01022075    -0.00449592    -0.01437033
     41      2      H          -0.00395025    -0.00663571     0.00989448
     42      2      H          -0.00216464     0.00331114     0.00079186
     43      1      O           0.00020013    -0.00356747     0.00544709
     44      2      H          -0.00251432     0.00771456    -0.00304661
     45      2      H          -0.00406269    -0.00505766     0.00346355
     46      1      O          -0.00682142    -0.00327630    -0.00844161
     47      2      H           0.01343292    -0.00075495    -0.00240066
     48      2      H           0.00096277     0.00116417     0.01135430
 SUM OF ATOMIC FORCES          -0.00062543     0.00120304    -0.00063704     0.00149809

 -------------------------------------------------------------------------------
 -                                                                             -
 -                                DBCSR STATISTICS                             -
 -                                                                             -
 -------------------------------------------------------------------------------
 COUNTER                                    TOTAL       BLAS       SMM       ACC
 flops     5 x    32 x    32              3932160       0.0%    100.0%      0.0%
 flops    13 x    32 x    32              5111808       0.0%    100.0%      0.0%
 flops     5 x     5 x    32             52377600       0.0%    100.0%      0.0%
 flops    13 x     5 x    32             66027520       0.0%    100.0%      0.0%
 flops     5 x    13 x    32             66027520       0.0%    100.0%      0.0%
 flops    13 x    13 x    32             91200512       0.0%    100.0%      0.0%
 flops    32 x    32 x    32            111149056       0.0%    100.0%      0.0%
 flops     5 x    32 x     5            212992000       0.0%    100.0%      0.0%
 flops    13 x    32 x     5            276889600       0.0%    100.0%      0.0%
 flops     5 x    32 x    13            276889600       0.0%    100.0%      0.0%
 flops    32 x    32 x    46            324075520       0.0%    100.0%      0.0%
 flops    13 x    32 x    13            359956480       0.0%    100.0%      0.0%
 flops    46 x    32 x    32            394919936       0.0%    100.0%      0.0%
 flops    46 x    32 x    46            502693888       0.0%    100.0%      0.0%
 flops inhomo. stacks                           0       0.0%      0.0%      0.0%
 flops total                         2.744243E+09       0.0%    100.0%      0.0%
 flops max/rank                    241.336704E+06       0.0%    100.0%      0.0%
 matmuls inhomo. stacks                         0       0.0%      0.0%      0.0%
 matmuls total                             386048       0.0%    100.0%      0.0%
 number of processed stacks                 62260       0.0%    100.0%      0.0%
 average stack size                                     0.0       6.2       0.0
 marketing flops                     3.016524E+09
 -------------------------------------------------------------------------------
 # multiplications                            582
 max memory usage/rank             225.554432E+06
 # max total images/rank                        1
 # max 3D layers                                1
 # MPI messages exchanged                  521472
 MPI messages size (bytes):
  total size                         1.509552E+09
  min size                           0.000000E+00
  max size                          16.928000E+03
  average size                       2.894790E+03
 MPI breakdown and total messages size (bytes):
             size <=      128              406952                        0
       128 < size <=     8192               15624                127991808
      8192 < size <=    32768               98896               1381560320
     32768 < size <=   131072                   0                        0
    131072 < size <=  4194304                   0                        0
   4194304 < size <= 16777216                   0                        0
  16777216 < size                               0                        0
 -------------------------------------------------------------------------------
 -                                                                             -
 -                      DBCSR MESSAGE PASSING PERFORMANCE                      -
 -                                                                             -
 -------------------------------------------------------------------------------
 ROUTINE             CALLS      AVE VOLUME [Bytes]
 MP_Bcast               15                     12.
 MP_Allreduce         3133                      8.
 MP_Alltoall          2086                   6724.
 MP_ISend            18616                   2796.
 MP_IRecv            18616                   2424.
 -------------------------------------------------------------------------------

 -------------------------------------------------------------------------------
 -                                                                             -
 -                                DBM STATISTICS                               -
 -                                                                             -
 -------------------------------------------------------------------------------
    M  x    N  x    K                                          COUNT     PERCENT
 -------------------------------------------------------------------------------

 -------------------------------------------------------------------------------
 -                                                                             -
 -                                GRID STATISTICS                              -
 -                                                                             -
 -------------------------------------------------------------------------------
 LP    KERNEL             BACKEND                              COUNT     PERCENT
 1     collocate general  REF                                 453068      20.94%
 1     integrate general  REF                                 436887      20.19%
 0     collocate general  REF                                 340892      15.75%
 0     integrate general  REF                                 325755      15.05%
 2     collocate general  REF                                 232708      10.75%
 2     integrate general  REF                                 224397      10.37%
 3     integrate general  REF                                  64466       2.98%
 3     collocate general  REF                                  51156       2.36%
 4     integrate general  REF                                  20285       0.94%
 5     integrate general  REF                                   8311       0.38%
 4     collocate general  REF                                   4256       0.20%
 6     integrate general  REF                                   1827       0.08%
 7     integrate general  REF                                    152       0.01%
 -------------------------------------------------------------------------------

 MEMORY| Estimated peak process memory [MiB]                                 216

 -------------------------------------------------------------------------------
 -                                                                             -
 -                         MESSAGE PASSING PERFORMANCE                         -
 -                                                                             -
 -------------------------------------------------------------------------------

 ROUTINE             CALLS      AVE VOLUME [Bytes]
 MP_Group                4
 MP_Bcast             2006                 292233.
 MP_Allreduce         5577                    231.
 MP_Sync                44
 MP_Alltoall           660                3839370.
 MP_ISendRecv        10584                  39840.
 MP_Wait             11802
 MP_comm_split          20
 MP_ISend              928                 293250.
 MP_IRecv              928                 293250.
 MP_Recv                14                  23552.
 -------------------------------------------------------------------------------


 -------------------------------------------------------------------------------
 -                                                                             -
 -                           R E F E R E N C E S                               -
 -                                                                             -
 -------------------------------------------------------------------------------

 CP2K version 2022.1, the CP2K developers group (2022).
 CP2K is freely available from https://www.cp2k.org/ .

 Kuehne,Thomas D.; Iannuzzi,Marcella; Del Ben,Mauro;
 Rybkin,Vladimir V.; Seewald,Patrick; Stein,Frederick; Laino,Teodoro;
 Khaliullin,Rustam Z.; Schuett,Ole; Schiffmann,Florian; Golze,Dorothea;
 Wilhelm,Jan; Chulkov,Sergey; Bani-Hashemian,Mohammad Hossein;
 Weber,Valery; Borstnik,Urban; Taillefumier,Mathieu;
 Jakobovits,Alice Shoshana; Lazzaro,Alfio; Pabst,Hans; Mueller,Tiziano;
 Schade,Robert; Guidon,Manuel; Andermatt,Samuel; Holmberg,Nico;
 Schenter,Gregory K.; Hehn,Anna; Bussy,Augustin; Belleflamme,Fabian;
 Tabacchi,Gloria; Gloess,Andreas; Lass,Michael; Bethune,Iain;
 Mundy,Christopher J.; Plessl,Christian; Watkins,Matt;
 VandeVondele,Joost; Krack,Matthias; Hutter,Juerg.
 The Journal of Chemical Physics, 152 (19), (2020).
 CP2K: An electronic structure and molecular dynamics software package -
 Quickstep: Efficient and accurate electronic structure calculations.
 https://doi.org/10.1063/5.0007045

 Schuett, Ole; Messmer, Peter; Hutter, Juerg; VandeVondele, Joost.
 Electronic Structure Calculations on Graphics Processing Units, John
 Wiley & Sons, Ltd, 173-190 (2016).
 GPU-Accelerated Sparse Matrix-Matrix Multiplication for
 Linear Scaling Density Functional Theory.
 https://doi.org/10.1002/9781118670712.ch8

 Heinecke, A; Henry, G; Hutchinson, M; Pabst, H.
 Proceedings of Intl. Supercomputing Conference, 981-991 (2016).
 LIBXSMM: Accelerating Small Matrix Multiplications
 by Runtime Code Generation.
 https://doi.org/10.1109/SC.2016.83

 Borstnik, U; VandeVondele, J; Weber, V; Hutter, J.
 PARALLEL COMPUTING, 40 (5-6), 47-58 (2014).
 Sparse matrix multiplication: The distributed block-compressed sparse
 row library.
 https://doi.org/10.1016/j.parco.2014.03.012

 Hutter, J; Iannuzzi, M; Schiffmann, F; VandeVondele, J.
 WIREs Comput Mol Sci., 4 (1), 15-25 (2014).
 CP2K: atomistic simulations of condensed matter systems.
 https://doi.org/10.1002/wcms.1159

 VandeVondele, J; Hutter, J.
 JOURNAL OF CHEMICAL PHYSICS, 127 (11), 114105 (2007).
 Gaussian basis sets for accurate calculations on molecular systems in
 gas and condensed phases.
 https://doi.org/10.1063/1.2770708

 Krack, M.
 THEORETICAL CHEMISTRY ACCOUNTS, 114 (1-3), 145-152 (2005).
 Pseudopotentials for H to Kr optimized for gradient-corrected
 exchange-correlation functionals.
 https://doi.org/10.1007/s00214-005-0655-y

 VandeVondele, J; Krack, M; Mohamed, F; Parrinello, M; Chassaing, T;
 Hutter, J. COMPUTER PHYSICS COMMUNICATIONS, 167 (2), 103-128 (2005).
 QUICKSTEP: Fast and accurate density functional calculations using a
 mixed Gaussian and plane waves approach.
 https://doi.org/10.1016/j.cpc.2004.12.014

 Frigo, M; Johnson, SG.
 PROCEEDINGS OF THE IEEE, 93 (2), 216-231 (2005).
 The design and implementation of FFTW3.
 https://doi.org/10.1109/JPROC.2004.840301

 VandeVondele, J; Hutter, J.
 JOURNAL OF CHEMICAL PHYSICS, 118 (10), 4365-4369 (2003).
 An efficient orbital transformation method for electronic structure
 calculations.
 https://doi.org/10.1063/1.1543154

 Hartwigsen, C; Goedecker, S; Hutter, J.
 PHYSICAL REVIEW B, 58 (7), 3641-3662 (1998).
 Relativistic separable dual-space Gaussian pseudopotentials from H to Rn.
 https://doi.org/10.1103/PhysRevB.58.3641

 Lippert, G; Hutter, J; Parrinello, M.
 MOLECULAR PHYSICS, 92 (3), 477-487 (1997).
 A hybrid Gaussian and plane wave density functional scheme.
 https://doi.org/10.1080/002689797170220

 Perdew, JP; Burke, K; Ernzerhof, M.
 PHYSICAL REVIEW LETTERS, 77 (18), 3865-3868 (1996).
 Generalized gradient approximation made simple.
 https://doi.org/10.1103/PhysRevLett.77.3865

 Goedecker, S; Teter, M; Hutter, J.
 PHYSICAL REVIEW B, 54 (3), 1703-1710 (1996).
 Separable dual-space Gaussian pseudopotentials.
 https://doi.org/10.1103/PhysRevB.54.1703


 -------------------------------------------------------------------------------
 -                                                                             -
 -                                T I M I N G                                  -
 -                                                                             -
 -------------------------------------------------------------------------------
 SUBROUTINE                       CALLS  ASD         SELF TIME        TOTAL TIME
                                MAXIMUM       AVERAGE  MAXIMUM  AVERAGE  MAXIMUM
 CP2K                                 1  1.0    0.241    0.243    9.104    9.105
 qs_forces                            1  2.0    0.001    0.001    8.669    8.670
 qs_energies                          1  3.0    0.001    0.001    8.421    8.421
 scf_env_do_scf                       1  4.0    0.000    0.000    7.343    7.343
 scf_env_do_scf_inner_loop           27  5.0    0.001    0.002    6.851    6.855
 rebuild_ks_matrix                   28  6.9    0.000    0.001    4.840    4.842
 qs_ks_build_kohn_sham_matrix        28  7.9    0.006    0.007    4.839    4.841
 qs_ks_update_qs_env                 29  6.0    0.000    0.001    4.602    4.604
 qs_vxc_create                       28  8.9    0.001    0.001    2.472    2.484
 xc_vxc_pw_create                    28  9.9    0.013    0.016    2.471    2.484
 pw_transfer                        533 11.1    0.028    0.035    2.421    2.453
 fft_wrap_pw1pw2                    477 12.2    0.005    0.006    2.374    2.401
 fft_wrap_pw1pw2_400                309 13.6    0.127    0.138    2.238    2.267
 fft3d_ps                           477 14.2    0.403    0.521    2.052    2.086
 sum_up_and_integrate                28  8.9    0.007    0.009    2.029    2.056
 integrate_v_rspace                  28  9.9    0.001    0.002    2.022    2.049
 qs_rho_update_rho_low               28  6.0    0.000    0.000    2.048    2.048
 calculate_rho_elec                  28  7.0    0.004    0.006    2.047    2.048
 xc_pw_derive                       168 11.9    0.001    0.001    1.735    1.773
 rs_pw_transfer                     226 10.4    0.003    0.004    1.559    1.687
 mp_alltoall_z22v                   477 16.2    1.521    1.577    1.521    1.577
 xc_rho_set_and_dset_create          28 10.9    0.021    0.024    1.045    1.428
 xc_pw_divergence                    28 10.9    0.001    0.001    1.374    1.414
 yz_to_x                            169 15.4    0.043    0.090    1.161    1.214
 density_rs2pw                       28  8.0    0.002    0.002    1.026    1.154
 grid_collocate_task_list            28  8.0    0.999    1.130    0.999    1.130
 potential_pw2rs                     28 10.9    0.001    0.002    1.053    1.055
 init_scf_run                         1  4.0    0.000    0.000    0.992    0.993
 scf_env_initial_rho_setup            1  5.0    0.000    0.000    0.992    0.993
 grid_integrate_task_list            28 10.9    0.917    0.991    0.917    0.991
 calculate_first_density_matrix       1  6.0    0.000    0.000    0.915    0.915
 xc_functional_eval                  28 11.9    0.000    0.001    0.470    0.672
 pbe_lda_eval                        28 12.9    0.470    0.672    0.470    0.672
 dbcsr_multiply_generic             582 11.0    0.016    0.016    0.600    0.648
 x_to_yz                            196 15.5    0.033    0.065    0.431    0.634
 rs_pw_transfer_PW2RS_400            29 12.7    0.326    0.345    0.594    0.612
 qs_scf_new_mos                      27  6.0    0.000    0.000    0.610    0.611
 qs_scf_loop_do_ot                   27  7.0    0.000    0.000    0.610    0.611
 ot_scf_mini                         27  8.0    0.000    0.000    0.591    0.592
 mp_waitany                         928 12.3    0.400    0.567    0.400    0.567
 rs_pw_transfer_RS2PW_400            29  9.9    0.148    0.209    0.416    0.548
 mp_waitall_1                     57434 14.6    0.376    0.492    0.376    0.492
 init_scf_loop                        2  5.0    0.000    0.001    0.489    0.490
 calculate_atomic_block_dm            1  7.0    0.000    0.001    0.437    0.438
 qs_ot_get_p                         29  8.9    0.000    0.000    0.315    0.316
 calculate_atom                       2  8.0    0.000    0.000    0.310    0.310
 calculate_atom_restricted            2  9.0    0.309    0.310    0.310    0.310
 make_basis_sm                        2  6.5    0.000    0.000    0.293    0.294
 rs_pw_transfer_RS2PW_140            28 10.0    0.109    0.122    0.232    0.270
 ot_mini                             27  9.0    0.000    0.001    0.255    0.256
 make_m2s                          1164 12.0    0.009    0.009    0.238    0.246
 qs_ks_update_qs_env_forces           1  3.0    0.000    0.000    0.239    0.240
 rs_pw_transfer_PW2RS_140            28 12.9    0.106    0.136    0.218    0.236
 multiply_cannon                    582 12.0    0.026    0.028    0.212    0.231
 qs_ot_get_derivative                27 10.0    0.000    0.000    0.222    0.223
 cp_gemm                              4  6.8    0.000    0.000    0.215    0.215
 cp_gemm_fm_gemm                      4  7.8    0.000    0.000    0.215    0.215
 cp_fm_gemm                           4  8.8    0.214    0.215    0.214    0.215
 make_images                       1164 13.0    0.015    0.016    0.205    0.210
 qs_ot_p2m_diag                      20 10.0    0.001    0.002    0.206    0.208
 cp_dbcsr_sm_fm_multiply              4  7.2    0.000    0.000    0.186    0.186
 -------------------------------------------------------------------------------

 The number of warnings for this run is : 0

 -------------------------------------------------------------------------------
  **** **** ******  **  PROGRAM ENDED AT                 2023-12-06 09:49:06.276
 ***** ** ***  *** **   PROGRAM RAN ON                     b5201.betzy.sigma2.no
 **    ****   ******    PROGRAM RAN BY                                  sigbjobo
 ***** **    ** ** **   PROGRAM PROCESS ID                                106697
  **** **  *******  **  PROGRAM STOPPED IN /cluster/work/users/sigbjobo/ice_mode
                                           l/cp2k/iter_1/calculator/ice_ih/77079
                                           1
