&GLOBAL
  PRINT_LEVEL LOW
  PROJECT 1b1b16395847bfc4ba9ec227e7d6ae02d8581d51
  RUN_TYPE ENERGY_FORCE
&END GLOBAL
&FORCE_EVAL
  METHOD Quickstep
  STRESS_TENSOR ANALYTICAL
  &PRINT
    &FORCES ON
    &END FORCES
  &END PRINT
  &SUBSYS
    &CELL
            A     7.359117508     0.000000000     0.000000000
      B     0.204650566     7.510384083     0.000000000
      C     0.033016831     0.094761305     8.506382942

    &END CELL
    &COORD
            O    5.655092239     5.621968269     7.595920563
      H    5.043677330     5.039495945     7.098465443
      H    5.920033455     5.179252148     0.053443909
      O    0.810051203     0.277183175     5.746729851
      H    1.609175801     0.825057864     5.877609253
      H    0.075720862     0.959353149     5.543508530
      O    2.981965542     1.988218904     7.758277416
      H    2.738549709     2.917974710     7.508295536
      H    2.551889658     1.899644971     0.176841736
      O    1.392138958     1.707814932     1.396028161
      H    0.939962804     1.045916557     0.822320938
      H    2.014030218     1.276862502     2.040252924
      O    6.469376564     4.667113304     1.168144941
      H    6.390281200     3.649872780     0.914169371
      H    7.437117100     5.012727261     1.026633739
      O    6.278827667     2.248566866     0.812064886
      H    6.869841576     2.022918940     1.576262236
      H    5.606400013     1.535813093     0.622660160
      O    1.938694954     5.418817043     5.427134991
      H    1.279206753     6.107849598     5.757915020
      H    1.408491254     4.624623299     5.171256542
      O    1.290648341     5.937158585     1.163124800
      H    1.590862870     6.099442959     0.225255758
      H    0.775124073     6.665887356     1.565196037
      O    5.372919559     0.513812542     3.454264641
      H    4.956547737     7.269853592     3.323113918
      H    4.714513302     1.258584619     3.559652090
      O    5.219698429     0.329277426     7.696759701
      H    4.263027668     0.519724488     7.567010880
      H    5.450092316     6.786329269     7.667101383
      O    6.223320484     1.915203571     5.495093822
      H    6.313108921     2.146212816     6.448695660
      H    5.597217560     1.147387624     5.498411655
      O    6.727658749     4.396078587     5.696738720
      H    6.563433647     3.651173830     5.058643818
      H    7.038934231     5.177231312     5.205676079
      O    2.670153379     4.841000557     7.806793213
      H    3.571474552     4.558497906     8.072262764
      H    2.577626705     5.011163235     6.805977345
      O    2.627622604     4.011352062     3.009377003
      H    2.393401384     4.966020107     3.058752537
      H    3.620270014     4.109823704     3.127072573
      O    2.953034639     1.573886871     3.725007057
      H    2.612910509     2.531667233     3.679572344
      H    2.292082548     0.935892880     4.064689636
      O    5.057382584     4.953233719     3.364015818
      H    5.448513985     5.340161324     4.182323933
      H    5.722910404     4.881653309     2.603596687
      UNIT ANGSTROM
    &END COORD
    &KIND H
      POTENTIAL GTH-PBE
      ELEMENT H
      BASIS_SET DZVP-GTH-PBE
    &END KIND
    &KIND O
      POTENTIAL GTH-PBE
      ELEMENT O
      BASIS_SET DZVP-GTH-PBE
    &END KIND
  &END SUBSYS
  &DFT
    POTENTIAL_FILE_NAME GTH_POTENTIALS
    MULTIPLICITY 0
    CHARGE 0
    BASIS_SET_FILE_NAME BASIS_SET
    BASIS_SET_FILE_NAME BASIS_MOLOPT
    BASIS_SET_FILE_NAME BASIS_MOLOPT_UCL
    &MGRID
      REL_CUTOFF 60
      CUTOFF 800
    &END MGRID
    &QS
      EPS_DEFAULT 1e-12
    &END QS
    &XC
      &XC_FUNCTIONAL PBE
      &END XC_FUNCTIONAL
      &XC_GRID
        XC_DERIV PW
      &END XC_GRID
    &END XC
    &SCF
      EPS_SCF 1e-05
      MAX_SCF 20
      SCF_GUESS ATOMIC
      &OUTER_SCF
        EPS_SCF 1e-05
        MAX_SCF 100
      &END OUTER_SCF
      &OT
        PRECONDITIONER FULL_SINGLE_INVERSE
        MINIMIZER DIIS
      &END OT
    &END SCF
  &END DFT
&END FORCE_EVAL