&GLOBAL
  PRINT_LEVEL LOW
  PROJECT 2b18dbdf1cd02a57710571f1cfb0398020843235
  RUN_TYPE ENERGY_FORCE
&END GLOBAL
&FORCE_EVAL
  METHOD Quickstep
  STRESS_TENSOR ANALYTICAL
  &PRINT
    &FORCES ON
    &END FORCES
  &END PRINT
  &SUBSYS
    &CELL
            A     7.762730122     0.000000000     0.000000000
      B     0.208740562     7.523428440     0.000000000
      C     0.507225513     0.010490296     8.414335251

    &END CELL
    &COORD
            O    5.272244930     4.970890045     7.930415630
      H    5.969089031     4.715402603     7.214559555
      H    5.253339767     4.689556122     0.329289436
      O    1.257544518     0.697968900     5.597175121
      H    1.866610289     0.640142560     6.367298603
      H    0.679671288     1.449213624     5.898464680
      O    2.596708298     2.251620054     7.774302959
      H    2.603889227     3.121098280     8.260110855
      H    1.721422672     1.590756774     0.030947685
      O    1.350140214     0.590575516     1.310025215
      H    0.544216335     1.170703530     1.282149196
      H    2.130163670     1.040113807     1.771884918
      O    6.795218945     4.402339458     1.294546127
      H    6.832138538     3.468609571     0.910056174
      H    7.730196953     4.742530346     1.215861797
      O    6.507719517     1.772983551     0.700362861
      H    6.227190018     1.331936598     1.567316890
      H    5.635510921     1.526255846     0.228060007
      O    1.206022859     5.232515335     5.622525215
      H    1.048418045     6.214254856     5.615345478
      H    1.803330183     4.806833744     4.600638866
      O    1.925846696     5.236852169     1.312988400
      H    2.214129448     5.164116383     0.116305523
      H    1.439286947     6.081719875     1.202870607
      O    5.314320087     0.851681709     2.916078091
      H    5.167986393     7.454580784     2.966934443
      H    4.473786831     1.306861639     2.615285158
      O    4.192962170     0.907681048     0.071963310
      H    3.985115290     1.495524406     8.037032127
      H    4.816050053     7.476479530     8.301762581
      O    6.369606018     1.357553482     5.453075886
      H    5.967876911     1.652019382     6.291802406
      H    5.818251610     1.439888954     4.629445553
      O    6.618538380     4.310701370     5.966516972
      H    5.803418636     3.863480806     5.663821697
      H    6.827350140     5.206563473     5.608082294
      O    2.785000563     4.921582699     7.403972626
      H    3.780910969     4.911484241     7.305965424
      H    1.965118170     5.121057034     6.451559544
      O    2.374221802     4.461518764     3.618201017
      H    2.040621519     4.919692516     2.676985025
      H    3.320513248     4.792763233     3.620414019
      O    2.948428631     1.854457855     2.948523283
      H    3.245959997     2.776020765     3.164250374
      H    2.179880381     1.738383174     3.558658361
      O    4.800597668     5.414709091     3.016020536
      H    5.337104797     5.395796776     3.830789089
      H    5.430471897     5.015654564     2.342149019
      UNIT ANGSTROM
    &END COORD
    &KIND H
      POTENTIAL GTH-PBE
      ELEMENT H
      BASIS_SET DZVP-GTH-PBE
    &END KIND
    &KIND O
      POTENTIAL GTH-PBE
      ELEMENT O
      BASIS_SET DZVP-GTH-PBE
    &END KIND
  &END SUBSYS
  &DFT
    POTENTIAL_FILE_NAME GTH_POTENTIALS
    MULTIPLICITY 0
    CHARGE 0
    BASIS_SET_FILE_NAME BASIS_SET
    BASIS_SET_FILE_NAME BASIS_MOLOPT
    BASIS_SET_FILE_NAME BASIS_MOLOPT_UCL
    &MGRID
      REL_CUTOFF 60
      CUTOFF 800
    &END MGRID
    &QS
      EPS_DEFAULT 1e-12
    &END QS
    &XC
      &XC_FUNCTIONAL PBE
      &END XC_FUNCTIONAL
      &XC_GRID
        XC_DERIV PW
      &END XC_GRID
    &END XC
    &SCF
      EPS_SCF 1e-05
      MAX_SCF 20
      SCF_GUESS ATOMIC
      &OUTER_SCF
        EPS_SCF 1e-05
        MAX_SCF 100
      &END OUTER_SCF
      &OT
        PRECONDITIONER FULL_SINGLE_INVERSE
        MINIMIZER DIIS
      &END OT
    &END SCF
  &END DFT
&END FORCE_EVAL