 DBCSR| CPU Multiplication driver                                           XSMM
 DBCSR| Multrec recursion limit                                              512
 DBCSR| Multiplication stack size                                           1000
 DBCSR| Maximum elements for images                                    UNLIMITED
 DBCSR| Multiplicative factor virtual images                                   1
 DBCSR| Use multiplication densification                                       T
 DBCSR| Multiplication size stacks                                             3
 DBCSR| Use memory pool for CPU allocation                                     F
 DBCSR| Number of 3D layers                                               SINGLE
 DBCSR| Use MPI memory allocation                                              F
 DBCSR| Use RMA algorithm                                                      F
 DBCSR| Use Communication thread                                               T
 DBCSR| Communication thread load                                             87
 DBCSR| MPI: My node id                                                        0
 DBCSR| MPI: Number of nodes                                                  64
 DBCSR| OMP: Current number of threads                                         1
 DBCSR| OMP: Max number of threads                                             1
 DBCSR| Split modifier for TAS multiplication algorithm                  1.0E+00


  **** **** ******  **  PROGRAM STARTED AT               2023-12-06 09:48:56.407
 ***** ** ***  *** **   PROGRAM STARTED ON                 b5201.betzy.sigma2.no
 **    ****   ******    PROGRAM STARTED BY                              sigbjobo
 ***** **    ** ** **   PROGRAM PROCESS ID                                107127
  **** **  *******  **  PROGRAM STARTED IN /cluster/work/users/sigbjobo/ice_mode
                                           l/cp2k/iter_1/calculator/ice_ih/77079
                                           3

 CP2K| version string:                                       CP2K version 2022.1
 CP2K| source code revision number:                                  git:2caeb6f
 CP2K| cp2kflags: omp libint fftw3 libxc parallel mpi3 scalapack xsmm plumed2 li
 CP2K|            bvori libbqb
 CP2K| is freely available from                            https://www.cp2k.org/
 CP2K| Program compiled at                          Tue Oct 31 08:14:18 CET 2023
 CP2K| Program compiled on                               login-2.betzy.sigma2.no
 CP2K| Program compiled for                                    Linux-x86-64-foss
 CP2K| Data directory path         /cluster/software/CP2K/2022.1-foss-2022a/data
 CP2K| Input file name              370ad7f4d547966141f4808a45e7e62560143956.inp

 GLOBAL| Force Environment number                                              1
 GLOBAL| Basis set file name                                           BASIS_SET
 GLOBAL| Potential file name                                      GTH_POTENTIALS
 GLOBAL| MM Potential file name                                     MM_POTENTIAL
 GLOBAL| Coordinate file name                                      __STD_INPUT__
 GLOBAL| Method name                                                        CP2K
 GLOBAL| Project name                   370ad7f4d547966141f4808a45e7e62560143956
 GLOBAL| Run type                                                   ENERGY_FORCE
 GLOBAL| FFT library                                                       FFTW3
 GLOBAL| Diagonalization library                                       ScaLAPACK
 GLOBAL| Orthonormality check for eigenvectors                          DISABLED
 GLOBAL| Matrix multiplication library                                 ScaLAPACK
 GLOBAL| All-to-all communication in single precision                          F
 GLOBAL| FFTs using library dependent lengths                                  F
 GLOBAL| Grid backend                                                       AUTO
 GLOBAL| Global print level                                                  LOW
 GLOBAL| MPI I/O enabled                                                       T
 GLOBAL| Total number of message passing processes                            64
 GLOBAL| Number of threads for this process                                    1
 GLOBAL| This output is from process                                           0
 GLOBAL| Stack size for threads created by OpenMP (OMP_STACKSIZE)        default
 GLOBAL| CPU model name                          AMD EPYC 7742 64-Core Processor
 GLOBAL| CPUID                                                              1002

 MEMORY| system memory details [Kb]
 MEMORY|                        rank 0           min           max       average
 MEMORY| MemTotal           1056169888    1056169888    1056169888    1056169888
 MEMORY| MemFree            1028688436    1028687696    1028689332    1028689087
 MEMORY| Buffers                 32600         32600         32600         32600
 MEMORY| Cached                2883852       2883836       2883868       2883863
 MEMORY| Slab                  1391380       1391380       1391380       1391380
 MEMORY| SReclaimable           361500        361500        361500        361500
 MEMORY| MemLikelyFree      1031966388    1031965632    1031967300    1031967050


 GENERATE|  Preliminary Number of Bonds generated:                             0
 GENERATE|  Achieved consistency in connectivity generation.

 *******************************************************************************
 *******************************************************************************
 **                                                                           **
 **     #####                         ##              ##                      **
 **    ##   ##            ##          ##              ##                      **
 **   ##     ##                       ##            ######                    **
 **   ##     ##  ##   ##  ##   #####  ##  ##   ####   ##    #####    #####    **
 **   ##     ##  ##   ##  ##  ##      ## ##   ##      ##   ##   ##  ##   ##   **
 **   ##  ## ##  ##   ##  ##  ##      ####     ###    ##   ######   ######    **
 **    ##  ###   ##   ##  ##  ##      ## ##      ##   ##   ##       ##        **
 **     #######   #####   ##   #####  ##  ##  ####    ##    #####   ##        **
 **           ##                                                    ##        **
 **                                                                           **
 **                                                ... make the atoms dance   **
 **                                                                           **
 **            Copyright (C) by CP2K developers group (2000-2022)             **
 **                      J. Chem. Phys. 152, 194103 (2020)                    **
 **                                                                           **
 *******************************************************************************


 TOTAL NUMBERS AND MAXIMUM NUMBERS

  Total number of            - Atomic kinds:                                   2
                             - Atoms:                                         48
                             - Shell sets:                                    96
                             - Shells:                                       176
                             - Primitive Cartesian functions:                240
                             - Cartesian basis functions:                    384
                             - Spherical basis functions:                    368

  Maximum angular momentum of- Orbital basis functions:                        2
                             - Local part of the GTH pseudopotential:          2
                             - Non-local part of the GTH pseudopotential:      0


 SCF PARAMETERS         Density guess:                                    ATOMIC
                        --------------------------------------------------------
                        max_scf:                                              20
                        max_scf_history:                                       0
                        max_diis:                                              4
                        --------------------------------------------------------
                        eps_scf:                                        1.00E-05
                        eps_scf_history:                                0.00E+00
                        eps_diis:                                       1.00E-01
                        eps_eigval:                                     1.00E-05
                        --------------------------------------------------------
                        level_shift [a.u.]:                             0.000000
                        --------------------------------------------------------
                        Outer loop SCF in use
                        No variables optimised in outer loop
                        eps_scf                                         1.00E-05
                        max_scf                                              100
                        No outer loop optimization
                        step_size                                       5.00E-01

 Number of electrons:                                                        128
 Number of occupied orbitals:                                                 64
 Number of molecular orbitals:                                                64

 Number of orbital functions:                                                368
 Number of independent orbital functions:                                    368

 Extrapolation method: initial_guess


 SCF WAVEFUNCTION OPTIMIZATION

  ----------------------------------- OT ---------------------------------------
  Minimizer      : DIIS                : direct inversion
                                         in the iterative subspace
                                         using   7 DIIS vectors
                                         safer DIIS on
  Preconditioner : FULL_SINGLE_INVERSE : inversion of
                                         H + eS - 2*(Sc)(c^T*H*c+const)(Sc)^T
  Precond_solver : DEFAULT
  stepsize       :    0.08000000                  energy_gap     :    0.08000000
  eps_taylor     :   0.10000E-15                  max_taylor     :             4
  ----------------------------------- OT ---------------------------------------

  Step     Update method      Time    Convergence         Total energy    Change
  ------------------------------------------------------------------------------
     1 OT DIIS     0.80E-01    0.3     0.06122727      -264.9153916459 -2.65E+02
     2 OT DIIS     0.80E-01    0.3     0.04278061      -269.6954664152 -4.78E+00
     3 OT DIIS     0.80E-01    0.3     0.03196216      -272.0249443016 -2.33E+00
     4 OT DIIS     0.80E-01    0.3     0.01840493      -274.1938848924 -2.17E+00
     5 OT DIIS     0.80E-01    0.3     0.01338845      -274.8129039345 -6.19E-01
     6 OT DIIS     0.80E-01    0.3     0.00982824      -275.1454583041 -3.33E-01
     7 OT DIIS     0.80E-01    0.3     0.00502066      -275.3611546748 -2.16E-01
     8 OT DIIS     0.80E-01    0.3     0.00377504      -275.4018741531 -4.07E-02
     9 OT DIIS     0.80E-01    0.3     0.00239195      -275.4405168245 -3.86E-02
    10 OT DIIS     0.80E-01    0.3     0.00163797      -275.4600330674 -1.95E-02
    11 OT DIIS     0.80E-01    0.3     0.00122874      -275.4715296303 -1.15E-02
    12 OT DIIS     0.80E-01    0.3     0.00084121      -275.4768000642 -5.27E-03
    13 OT DIIS     0.80E-01    0.3     0.00059407      -275.4797270171 -2.93E-03
    14 OT DIIS     0.80E-01    0.3     0.00043502      -275.4813878158 -1.66E-03
    15 OT DIIS     0.80E-01    0.3     0.00031809      -275.4823971580 -1.01E-03
    16 OT DIIS     0.80E-01    0.3     0.00023659      -275.4829849499 -5.88E-04
    17 OT DIIS     0.80E-01    0.3     0.00019096      -275.4832763477 -2.91E-04
    18 OT DIIS     0.80E-01    0.3     0.00015172      -275.4834998032 -2.23E-04
    19 OT DIIS     0.80E-01    0.3     0.00012376      -275.4836490766 -1.49E-04
    20 OT DIIS     0.80E-01    0.3     0.00010208      -275.4837537389 -1.05E-04

  Leaving inner SCF loop after reaching    20 steps.


  Electronic density on regular grids:       -127.9999999992        0.0000000008
  Core density on regular grids:              128.0000000000       -0.0000000000
  Total charge density on r-space grids:        0.0000000008
  Total charge density g-space grids:           0.0000000008

  Overlap energy of the core charge distribution:               0.00000032457103
  Self energy of the core charge distribution:               -709.55447994780241
  Core Hamiltonian energy:                                    206.74616888671460
  Hartree energy:                                             295.21104323628674
  Exchange-correlation energy:                                -67.88648623862989

  Total energy:                                              -275.48375373885995

  outer SCF iter =    1 RMS gradient =   0.10E-03 energy =       -275.4837537389

  ----------------------------------- OT ---------------------------------------
  Minimizer      : DIIS                : direct inversion
                                         in the iterative subspace
                                         using   7 DIIS vectors
                                         safer DIIS on
  Preconditioner : FULL_SINGLE_INVERSE : inversion of
                                         H + eS - 2*(Sc)(c^T*H*c+const)(Sc)^T
  Precond_solver : DEFAULT
  stepsize       :    0.08000000                  energy_gap     :    0.08000000
  eps_taylor     :   0.10000E-15                  max_taylor     :             4
  ----------------------------------- OT ---------------------------------------

  Step     Update method      Time    Convergence         Total energy    Change
  ------------------------------------------------------------------------------
     1 OT DIIS     0.80E-01    0.7     0.00032621      -275.4838282663 -7.45E-05
     2 OT DIIS     0.80E-01    0.3     0.00021038      -275.4839905677 -1.62E-04
     3 OT DIIS     0.80E-01    0.3     0.00007695      -275.4841057524 -1.15E-04
     4 OT DIIS     0.80E-01    0.3     0.00003298      -275.4841198027 -1.41E-05
     5 OT DIIS     0.80E-01    0.3     0.00001602      -275.4841222219 -2.42E-06
     6 OT DIIS     0.80E-01    0.3     0.00000756      -275.4841228165 -5.95E-07

  *** SCF run converged in     6 steps ***


  Electronic density on regular grids:       -127.9999999992        0.0000000008
  Core density on regular grids:              128.0000000000       -0.0000000000
  Total charge density on r-space grids:        0.0000000008
  Total charge density g-space grids:           0.0000000008

  Overlap energy of the core charge distribution:               0.00000032457103
  Self energy of the core charge distribution:               -709.55447994780241
  Core Hamiltonian energy:                                    206.74735961738833
  Hartree energy:                                             295.20967966685430
  Exchange-correlation energy:                                -67.88668247747373

  Total energy:                                              -275.48412281646245

  outer SCF iter =    2 RMS gradient =   0.76E-05 energy =       -275.4841228165
  outer SCF loop converged in   2 iterations or   26 steps


 ENERGY| Total FORCE_EVAL ( QS ) energy [a.u.]:             -275.484122952217092

 ATOMIC FORCES in [a.u.]

 # Atom   Kind   Element          X              Y              Z
      1      1      O          -0.00738679     0.00250175    -0.00690106
      2      2      H           0.00558238    -0.00489232     0.00965865
      3      2      H           0.00470182    -0.00677173    -0.00407666
      4      1      O          -0.00383205     0.00403812     0.00107309
      5      2      H          -0.01039812     0.00117930     0.00453146
      6      2      H          -0.00276805    -0.00881365     0.00019464
      7      1      O           0.00458481     0.00184328    -0.00401911
      8      2      H          -0.00432445     0.00259917     0.00499292
      9      2      H           0.00013720     0.00157448     0.00261987
     10      1      O          -0.00459224    -0.00604086    -0.00026069
     11      2      H          -0.00521599     0.00225872    -0.00124313
     12      2      H           0.00442121     0.00113638     0.00102948
     13      1      O          -0.00236220     0.00643174    -0.00037396
     14      2      H           0.00569208    -0.00836099    -0.00249290
     15      2      H           0.00348292    -0.00688813    -0.00336233
     16      1      O           0.00677892     0.00522426    -0.00923971
     17      2      H           0.00410704    -0.00018413     0.00314900
     18      2      H          -0.00337172    -0.00041784    -0.00194226
     19      1      O           0.00207608    -0.00571785    -0.00006541
     20      2      H          -0.00252327     0.00556431     0.00032216
     21      2      H           0.00228150    -0.00247305     0.00240660
     22      1      O           0.00225065     0.00444161    -0.00074990
     23      2      H           0.00215280    -0.00342538    -0.00711861
     24      2      H          -0.00370174     0.00231119     0.00458784
     25      1      O           0.00037899     0.00108133    -0.00511961
     26      2      H          -0.00304990     0.00339683    -0.00075817
     27      2      H           0.00398623    -0.00333306    -0.00206375
     28      1      O          -0.00277939     0.00195529     0.00382156
     29      2      H           0.00066656    -0.00185270     0.00380258
     30      2      H           0.00162721     0.00413909     0.00368485
     31      1      O          -0.00417212     0.00399699     0.00708886
     32      2      H           0.00340429     0.00000380     0.00108411
     33      2      H           0.00978311     0.00541651    -0.00770869
     34      1      O           0.00097094     0.01200248    -0.00729638
     35      2      H          -0.00064123    -0.00391049     0.00095270
     36      2      H          -0.00170851    -0.00456965     0.00615233
     37      1      O          -0.00012281    -0.00114237     0.00139241
     38      2      H           0.00342531    -0.00046873     0.00073071
     39      2      H          -0.00665311    -0.00154850    -0.00265223
     40      1      O           0.00412109    -0.00207697     0.00764209
     41      2      H           0.00577500     0.00449396    -0.01508171
     42      2      H          -0.01234631    -0.00544642     0.00513807
     43      1      O          -0.00011780     0.00526976    -0.00142943
     44      2      H           0.00120102     0.00337815     0.00061776
     45      2      H           0.00563998     0.00288668     0.00025118
     46      1      O          -0.00268955    -0.00895081     0.00231143
     47      2      H           0.00143675    -0.00266829     0.00289295
     48      2      H          -0.00585631     0.00031543     0.00224881
 SUM OF ATOMIC FORCES           0.00005225    -0.00051332     0.00042240     0.00066682

 -------------------------------------------------------------------------------
 -                                                                             -
 -                                DBCSR STATISTICS                             -
 -                                                                             -
 -------------------------------------------------------------------------------
 COUNTER                                    TOTAL       BLAS       SMM       ACC
 flops     5 x    32 x    32              3932160       0.0%    100.0%      0.0%
 flops    13 x    32 x    32              5111808       0.0%    100.0%      0.0%
 flops     5 x     5 x    32             50688000       0.0%    100.0%      0.0%
 flops    13 x     5 x    32             63897600       0.0%    100.0%      0.0%
 flops     5 x    13 x    32             63897600       0.0%    100.0%      0.0%
 flops    13 x    13 x    32             88258560       0.0%    100.0%      0.0%
 flops    32 x    32 x    32            108003328       0.0%    100.0%      0.0%
 flops     5 x    32 x     5            206438400       0.0%    100.0%      0.0%
 flops    13 x    32 x     5            268369920       0.0%    100.0%      0.0%
 flops     5 x    32 x    13            268369920       0.0%    100.0%      0.0%
 flops    32 x    32 x    46            312016896       0.0%    100.0%      0.0%
 flops    13 x    32 x    13            348880896       0.0%    100.0%      0.0%
 flops    46 x    32 x    32            379846656       0.0%    100.0%      0.0%
 flops    46 x    32 x    46            485359616       0.0%    100.0%      0.0%
 flops inhomo. stacks                           0       0.0%      0.0%      0.0%
 flops total                         2.653071E+09       0.0%    100.0%      0.0%
 flops max/rank                    233.179904E+06       0.0%    100.0%      0.0%
 matmuls inhomo. stacks                         0       0.0%      0.0%      0.0%
 matmuls total                             374016       0.0%    100.0%      0.0%
 number of processed stacks                 60264       0.0%    100.0%      0.0%
 average stack size                                     0.0       6.2       0.0
 marketing flops                     2.916909E+09
 -------------------------------------------------------------------------------
 # multiplications                            563
 max memory usage/rank             258.396160E+06
 # max total images/rank                        1
 # max 3D layers                                1
 # MPI messages exchanged                  504448
 MPI messages size (bytes):
  total size                         1.459161E+09
  min size                           0.000000E+00
  max size                          16.928000E+03
  average size                       2.892590E+03
 MPI breakdown and total messages size (bytes):
             size <=      128              393764                        0
       128 < size <=     8192               15148                124092416
      8192 < size <=    32768               95536               1335068672
     32768 < size <=   131072                   0                        0
    131072 < size <=  4194304                   0                        0
   4194304 < size <= 16777216                   0                        0
  16777216 < size                               0                        0
 -------------------------------------------------------------------------------
 -                                                                             -
 -                      DBCSR MESSAGE PASSING PERFORMANCE                      -
 -                                                                             -
 -------------------------------------------------------------------------------
 ROUTINE             CALLS      AVE VOLUME [Bytes]
 MP_Bcast               15                     12.
 MP_Allreduce         3029                      8.
 MP_Alltoall          2034                   6780.
 MP_ISend            18008                   2792.
 MP_IRecv            18008                   2421.
 -------------------------------------------------------------------------------

 -------------------------------------------------------------------------------
 -                                                                             -
 -                                DBM STATISTICS                               -
 -                                                                             -
 -------------------------------------------------------------------------------
    M  x    N  x    K                                          COUNT     PERCENT
 -------------------------------------------------------------------------------

 -------------------------------------------------------------------------------
 -                                                                             -
 -                                GRID STATISTICS                              -
 -                                                                             -
 -------------------------------------------------------------------------------
 LP    KERNEL             BACKEND                              COUNT     PERCENT
 1     collocate general  REF                                 346032      20.96%
 1     integrate general  REF                                 333216      20.18%
 0     collocate general  REF                                 259923      15.74%
 0     integrate general  REF                                 247338      14.98%
 2     collocate general  REF                                 177309      10.74%
 2     integrate general  REF                                 170742      10.34%
 3     integrate general  REF                                  50285       3.05%
 3     collocate general  REF                                  39150       2.37%
 4     integrate general  REF                                  15754       0.95%
 5     integrate general  REF                                   6567       0.40%
 4     collocate general  REF                                   3051       0.18%
 6     integrate general  REF                                   1450       0.09%
 7     integrate general  REF                                    113       0.01%
 -------------------------------------------------------------------------------

 MEMORY| Estimated peak process memory [MiB]                                 247

 -------------------------------------------------------------------------------
 -                                                                             -
 -                         MESSAGE PASSING PERFORMANCE                         -
 -                                                                             -
 -------------------------------------------------------------------------------

 ROUTINE             CALLS      AVE VOLUME [Bytes]
 MP_Group                4
 MP_Bcast             2064                 284024.
 MP_Allreduce         5752                    250.
 MP_Sync                44
 MP_Alltoall           637                3810647.
 MP_ISendRecv        10206                  47296.
 MP_Wait             14518
 MP_comm_split          20
 MP_ISend             4032                  82838.
 MP_IRecv             4032                  82838.
 MP_Recv                14                  23552.
 -------------------------------------------------------------------------------


 -------------------------------------------------------------------------------
 -                                                                             -
 -                           R E F E R E N C E S                               -
 -                                                                             -
 -------------------------------------------------------------------------------

 CP2K version 2022.1, the CP2K developers group (2022).
 CP2K is freely available from https://www.cp2k.org/ .

 Kuehne,Thomas D.; Iannuzzi,Marcella; Del Ben,Mauro;
 Rybkin,Vladimir V.; Seewald,Patrick; Stein,Frederick; Laino,Teodoro;
 Khaliullin,Rustam Z.; Schuett,Ole; Schiffmann,Florian; Golze,Dorothea;
 Wilhelm,Jan; Chulkov,Sergey; Bani-Hashemian,Mohammad Hossein;
 Weber,Valery; Borstnik,Urban; Taillefumier,Mathieu;
 Jakobovits,Alice Shoshana; Lazzaro,Alfio; Pabst,Hans; Mueller,Tiziano;
 Schade,Robert; Guidon,Manuel; Andermatt,Samuel; Holmberg,Nico;
 Schenter,Gregory K.; Hehn,Anna; Bussy,Augustin; Belleflamme,Fabian;
 Tabacchi,Gloria; Gloess,Andreas; Lass,Michael; Bethune,Iain;
 Mundy,Christopher J.; Plessl,Christian; Watkins,Matt;
 VandeVondele,Joost; Krack,Matthias; Hutter,Juerg.
 The Journal of Chemical Physics, 152 (19), (2020).
 CP2K: An electronic structure and molecular dynamics software package -
 Quickstep: Efficient and accurate electronic structure calculations.
 https://doi.org/10.1063/5.0007045

 Schuett, Ole; Messmer, Peter; Hutter, Juerg; VandeVondele, Joost.
 Electronic Structure Calculations on Graphics Processing Units, John
 Wiley & Sons, Ltd, 173-190 (2016).
 GPU-Accelerated Sparse Matrix-Matrix Multiplication for
 Linear Scaling Density Functional Theory.
 https://doi.org/10.1002/9781118670712.ch8

 Heinecke, A; Henry, G; Hutchinson, M; Pabst, H.
 Proceedings of Intl. Supercomputing Conference, 981-991 (2016).
 LIBXSMM: Accelerating Small Matrix Multiplications
 by Runtime Code Generation.
 https://doi.org/10.1109/SC.2016.83

 Borstnik, U; VandeVondele, J; Weber, V; Hutter, J.
 PARALLEL COMPUTING, 40 (5-6), 47-58 (2014).
 Sparse matrix multiplication: The distributed block-compressed sparse
 row library.
 https://doi.org/10.1016/j.parco.2014.03.012

 Hutter, J; Iannuzzi, M; Schiffmann, F; VandeVondele, J.
 WIREs Comput Mol Sci., 4 (1), 15-25 (2014).
 CP2K: atomistic simulations of condensed matter systems.
 https://doi.org/10.1002/wcms.1159

 VandeVondele, J; Hutter, J.
 JOURNAL OF CHEMICAL PHYSICS, 127 (11), 114105 (2007).
 Gaussian basis sets for accurate calculations on molecular systems in
 gas and condensed phases.
 https://doi.org/10.1063/1.2770708

 Krack, M.
 THEORETICAL CHEMISTRY ACCOUNTS, 114 (1-3), 145-152 (2005).
 Pseudopotentials for H to Kr optimized for gradient-corrected
 exchange-correlation functionals.
 https://doi.org/10.1007/s00214-005-0655-y

 VandeVondele, J; Krack, M; Mohamed, F; Parrinello, M; Chassaing, T;
 Hutter, J. COMPUTER PHYSICS COMMUNICATIONS, 167 (2), 103-128 (2005).
 QUICKSTEP: Fast and accurate density functional calculations using a
 mixed Gaussian and plane waves approach.
 https://doi.org/10.1016/j.cpc.2004.12.014

 Frigo, M; Johnson, SG.
 PROCEEDINGS OF THE IEEE, 93 (2), 216-231 (2005).
 The design and implementation of FFTW3.
 https://doi.org/10.1109/JPROC.2004.840301

 VandeVondele, J; Hutter, J.
 JOURNAL OF CHEMICAL PHYSICS, 118 (10), 4365-4369 (2003).
 An efficient orbital transformation method for electronic structure
 calculations.
 https://doi.org/10.1063/1.1543154

 Hartwigsen, C; Goedecker, S; Hutter, J.
 PHYSICAL REVIEW B, 58 (7), 3641-3662 (1998).
 Relativistic separable dual-space Gaussian pseudopotentials from H to Rn.
 https://doi.org/10.1103/PhysRevB.58.3641

 Lippert, G; Hutter, J; Parrinello, M.
 MOLECULAR PHYSICS, 92 (3), 477-487 (1997).
 A hybrid Gaussian and plane wave density functional scheme.
 https://doi.org/10.1080/002689797170220

 Perdew, JP; Burke, K; Ernzerhof, M.
 PHYSICAL REVIEW LETTERS, 77 (18), 3865-3868 (1996).
 Generalized gradient approximation made simple.
 https://doi.org/10.1103/PhysRevLett.77.3865

 Goedecker, S; Teter, M; Hutter, J.
 PHYSICAL REVIEW B, 54 (3), 1703-1710 (1996).
 Separable dual-space Gaussian pseudopotentials.
 https://doi.org/10.1103/PhysRevB.54.1703


 -------------------------------------------------------------------------------
 -                                                                             -
 -                                T I M I N G                                  -
 -                                                                             -
 -------------------------------------------------------------------------------
 SUBROUTINE                       CALLS  ASD         SELF TIME        TOTAL TIME
                                MAXIMUM       AVERAGE  MAXIMUM  AVERAGE  MAXIMUM
 CP2K                                 1  1.0    0.018    0.021    9.267    9.268
 qs_forces                            1  2.0    0.001    0.001    9.161    9.162
 qs_energies                          1  3.0    0.001    0.002    8.862    8.863
 scf_env_do_scf                       1  4.0    0.000    0.000    8.688    8.688
 scf_env_do_scf_inner_loop           26  5.0    0.001    0.002    8.167    8.169
 rebuild_ks_matrix                   27  6.9    0.001    0.001    6.140    6.141
 qs_ks_build_kohn_sham_matrix        27  7.9    0.006    0.007    6.139    6.141
 qs_ks_update_qs_env                 28  6.0    0.001    0.001    5.849    5.850
 qs_vxc_create                       27  8.9    0.001    0.001    3.574    3.591
 xc_vxc_pw_create                    27  9.9    0.017    0.020    3.573    3.591
 pw_transfer                        514 11.1    0.030    0.035    3.512    3.562
 fft_wrap_pw1pw2                    460 12.2    0.006    0.006    3.458    3.505
 fft_wrap_pw1pw2_400                298 13.6    0.196    0.208    3.285    3.325
 fft3d_ps                           460 14.2    0.688    1.008    2.989    3.054
 xc_pw_derive                       162 11.9    0.001    0.002    2.546    2.604
 qs_rho_update_rho_low               27  6.0    0.000    0.000    2.380    2.381
 calculate_rho_elec                  27  7.0    0.006    0.008    2.380    2.381
 mp_alltoall_z22v                   460 16.2    2.129    2.274    2.129    2.274
 rs_pw_transfer                     218 10.4    0.003    0.004    2.020    2.183
 sum_up_and_integrate                27  8.9    0.009    0.011    2.146    2.163
 integrate_v_rspace                  27  9.9    0.001    0.002    2.136    2.154
 xc_pw_divergence                    27 10.9    0.001    0.001    2.015    2.067
 xc_rho_set_and_dset_create          27 10.9    0.028    0.032    1.469    1.900
 yz_to_x                            163 15.4    0.071    0.177    1.604    1.692
 density_rs2pw                       27  8.0    0.002    0.002    1.392    1.556
 potential_pw2rs                     27 10.9    0.001    0.002    1.369    1.372
 grid_collocate_task_list            27  8.0    0.951    1.130    0.951    1.130
 xc_functional_eval                  27 11.9    0.000    0.001    0.611    0.870
 pbe_lda_eval                        27 12.9    0.610    0.870    0.610    0.870
 x_to_yz                            189 15.5    0.048    0.081    0.639    0.836
 rs_pw_transfer_PW2RS_400            28 12.7    0.463    0.491    0.812    0.830
 rs_pw_transfer_RS2PW_400            28  9.9    0.270    0.358    0.660    0.820
 grid_integrate_task_list            27 10.9    0.723    0.779    0.723    0.779
 mp_waitany                        4032 12.3    0.548    0.779    0.548    0.779
 init_scf_loop                        2  5.0    0.000    0.001    0.519    0.519
 mp_waitall_1                     55526 14.6    0.412    0.480    0.412    0.480
 qs_scf_new_mos                      26  6.0    0.000    0.000    0.466    0.468
 qs_scf_loop_do_ot                   26  7.0    0.000    0.000    0.466    0.467
 dbcsr_multiply_generic             563 11.0    0.013    0.014    0.415    0.451
 ot_scf_mini                         26  8.0    0.000    0.000    0.448    0.449
 qs_ks_update_qs_env_forces           1  3.0    0.000    0.000    0.293    0.293
 rs_pw_transfer_PW2RS_140            27 12.9    0.098    0.115    0.225    0.249
 ot_mini                             26  9.0    0.001    0.001    0.243    0.244
 rs_pw_transfer_RS2PW_140            27 10.0    0.058    0.065    0.215    0.226
 qs_ot_get_derivative                26 10.0    0.000    0.000    0.211    0.212
 pw_copy                            327 11.7    0.179    0.204    0.179    0.204
 -------------------------------------------------------------------------------

 The number of warnings for this run is : 0

 -------------------------------------------------------------------------------
  **** **** ******  **  PROGRAM ENDED AT                 2023-12-06 09:49:11.255
 ***** ** ***  *** **   PROGRAM RAN ON                     b5201.betzy.sigma2.no
 **    ****   ******    PROGRAM RAN BY                                  sigbjobo
 ***** **    ** ** **   PROGRAM PROCESS ID                                107127
  **** **  *******  **  PROGRAM STOPPED IN /cluster/work/users/sigbjobo/ice_mode
                                           l/cp2k/iter_1/calculator/ice_ih/77079
                                           3
